(['C:\\Users\\Samuel\\Desktop\\uav_rail_tracking\\GUI\\application.py',
  'C:\\Users\\Samuel\\Desktop\\uav_rail_tracking\\GUI\\GCS.py'],
 ['C:\\Users\\Samuel\\Desktop\\uav_rail_tracking\\GUI',
  'C:\\Users\\Samuel\\Desktop\\uav_rail_tracking\\GUI'],
 [],
 ['C:\\Users\\Samuel\\anaconda3\\envs\\py38cv4\\Lib\\site-packages\\numpy\\_pyinstaller',
  'C:\\Users\\Samuel\\anaconda3\\envs\\py38cv4\\lib\\site-packages\\_pyinstaller_hooks_contrib\\hooks\\stdhooks',
  'C:\\Users\\Samuel\\anaconda3\\envs\\py38cv4\\lib\\site-packages\\_pyinstaller_hooks_contrib\\hooks\\stdhooks\\__pycache__',
  'C:\\Users\\Samuel\\anaconda3\\envs\\py38cv4\\lib\\site-packages\\_pyinstaller_hooks_contrib\\hooks\\rthooks',
  'C:\\Users\\Samuel\\anaconda3\\envs\\py38cv4\\lib\\site-packages\\_pyinstaller_hooks_contrib\\hooks\\rthooks\\__pycache__',
  'C:\\Users\\Samuel\\anaconda3\\envs\\py38cv4\\lib\\site-packages\\_pyinstaller_hooks_contrib\\hooks'],
 {},
 [],
 [],
 False,
 {},
 [],
 [],
 '3.9.13 (main, Aug 25 2022, 23:51:50) [MSC v.1916 64 bit (AMD64)]',
 [('pyi_rth_pyqt5',
   'C:\\Users\\Samuel\\anaconda3\\envs\\py38cv4\\Lib\\site-packages\\PyInstaller\\hooks\\rthooks\\pyi_rth_pyqt5.py',
   'PYSOURCE'),
  ('pyi_rth_pkgutil',
   'C:\\Users\\Samuel\\anaconda3\\envs\\py38cv4\\Lib\\site-packages\\PyInstaller\\hooks\\rthooks\\pyi_rth_pkgutil.py',
   'PYSOURCE'),
  ('pyi_rth_inspect',
   'C:\\Users\\Samuel\\anaconda3\\envs\\py38cv4\\Lib\\site-packages\\PyInstaller\\hooks\\rthooks\\pyi_rth_inspect.py',
   'PYSOURCE'),
  ('pyi_rth_multiprocessing',
   'C:\\Users\\Samuel\\anaconda3\\envs\\py38cv4\\Lib\\site-packages\\PyInstaller\\hooks\\rthooks\\pyi_rth_multiprocessing.py',
   'PYSOURCE'),
  ('application',
   'C:\\Users\\Samuel\\Desktop\\uav_rail_tracking\\GUI\\application.py',
   'PYSOURCE'),
  ('GCS',
   'C:\\Users\\Samuel\\Desktop\\uav_rail_tracking\\GUI\\GCS.py',
   'PYSOURCE')],
 [('multiprocessing.popen_forkserver',
   'C:\\Users\\Samuel\\anaconda3\\envs\\py38cv4\\lib\\multiprocessing\\popen_forkserver.py',
   'PYMODULE'),
  ('multiprocessing.connection',
   'C:\\Users\\Samuel\\anaconda3\\envs\\py38cv4\\lib\\multiprocessing\\connection.py',
   'PYMODULE'),
  ('multiprocessing.resource_sharer',
   'C:\\Users\\Samuel\\anaconda3\\envs\\py38cv4\\lib\\multiprocessing\\resource_sharer.py',
   'PYMODULE'),
  ('multiprocessing.process',
   'C:\\Users\\Samuel\\anaconda3\\envs\\py38cv4\\lib\\multiprocessing\\process.py',
   'PYMODULE'),
  ('selectors',
   'C:\\Users\\Samuel\\anaconda3\\envs\\py38cv4\\lib\\selectors.py',
   'PYMODULE'),
  ('xmlrpc.client',
   'C:\\Users\\Samuel\\anaconda3\\envs\\py38cv4\\lib\\xmlrpc\\client.py',
   'PYMODULE'),
  ('xmlrpc',
   'C:\\Users\\Samuel\\anaconda3\\envs\\py38cv4\\lib\\xmlrpc\\__init__.py',
   'PYMODULE'),
  ('gzip',
   'C:\\Users\\Samuel\\anaconda3\\envs\\py38cv4\\lib\\gzip.py',
   'PYMODULE'),
  ('argparse',
   'C:\\Users\\Samuel\\anaconda3\\envs\\py38cv4\\lib\\argparse.py',
   'PYMODULE'),
  ('textwrap',
   'C:\\Users\\Samuel\\anaconda3\\envs\\py38cv4\\lib\\textwrap.py',
   'PYMODULE'),
  ('shutil',
   'C:\\Users\\Samuel\\anaconda3\\envs\\py38cv4\\lib\\shutil.py',
   'PYMODULE'),
  ('zipfile',
   'C:\\Users\\Samuel\\anaconda3\\envs\\py38cv4\\lib\\zipfile.py',
   'PYMODULE'),
  ('py_compile',
   'C:\\Users\\Samuel\\anaconda3\\envs\\py38cv4\\lib\\py_compile.py',
   'PYMODULE'),
  ('importlib.machinery',
   'C:\\Users\\Samuel\\anaconda3\\envs\\py38cv4\\lib\\importlib\\machinery.py',
   'PYMODULE'),
  ('importlib',
   'C:\\Users\\Samuel\\anaconda3\\envs\\py38cv4\\lib\\importlib\\__init__.py',
   'PYMODULE'),
  ('importlib._bootstrap',
   'C:\\Users\\Samuel\\anaconda3\\envs\\py38cv4\\lib\\importlib\\_bootstrap.py',
   'PYMODULE'),
  ('importlib._bootstrap_external',
   'C:\\Users\\Samuel\\anaconda3\\envs\\py38cv4\\lib\\importlib\\_bootstrap_external.py',
   'PYMODULE'),
  ('importlib.metadata',
   'C:\\Users\\Samuel\\anaconda3\\envs\\py38cv4\\lib\\importlib\\metadata.py',
   'PYMODULE'),
  ('importlib.abc',
   'C:\\Users\\Samuel\\anaconda3\\envs\\py38cv4\\lib\\importlib\\abc.py',
   'PYMODULE'),
  ('typing',
   'C:\\Users\\Samuel\\anaconda3\\envs\\py38cv4\\lib\\typing.py',
   'PYMODULE'),
  ('configparser',
   'C:\\Users\\Samuel\\anaconda3\\envs\\py38cv4\\lib\\configparser.py',
   'PYMODULE'),
  ('pathlib',
   'C:\\Users\\Samuel\\anaconda3\\envs\\py38cv4\\lib\\pathlib.py',
   'PYMODULE'),
  ('email',
   'C:\\Users\\Samuel\\anaconda3\\envs\\py38cv4\\lib\\email\\__init__.py',
   'PYMODULE'),
  ('email.parser',
   'C:\\Users\\Samuel\\anaconda3\\envs\\py38cv4\\lib\\email\\parser.py',
   'PYMODULE'),
  ('email._policybase',
   'C:\\Users\\Samuel\\anaconda3\\envs\\py38cv4\\lib\\email\\_policybase.py',
   'PYMODULE'),
  ('email.utils',
   'C:\\Users\\Samuel\\anaconda3\\envs\\py38cv4\\lib\\email\\utils.py',
   'PYMODULE'),
  ('email._parseaddr',
   'C:\\Users\\Samuel\\anaconda3\\envs\\py38cv4\\lib\\email\\_parseaddr.py',
   'PYMODULE'),
  ('calendar',
   'C:\\Users\\Samuel\\anaconda3\\envs\\py38cv4\\lib\\calendar.py',
   'PYMODULE'),
  ('random',
   'C:\\Users\\Samuel\\anaconda3\\envs\\py38cv4\\lib\\random.py',
   'PYMODULE'),
  ('statistics',
   'C:\\Users\\Samuel\\anaconda3\\envs\\py38cv4\\lib\\statistics.py',
   'PYMODULE'),
  ('fractions',
   'C:\\Users\\Samuel\\anaconda3\\envs\\py38cv4\\lib\\fractions.py',
   'PYMODULE'),
  ('numbers',
   'C:\\Users\\Samuel\\anaconda3\\envs\\py38cv4\\lib\\numbers.py',
   'PYMODULE'),
  ('hashlib',
   'C:\\Users\\Samuel\\anaconda3\\envs\\py38cv4\\lib\\hashlib.py',
   'PYMODULE'),
  ('logging',
   'C:\\Users\\Samuel\\anaconda3\\envs\\py38cv4\\lib\\logging\\__init__.py',
   'PYMODULE'),
  ('string',
   'C:\\Users\\Samuel\\anaconda3\\envs\\py38cv4\\lib\\string.py',
   'PYMODULE'),
  ('bisect',
   'C:\\Users\\Samuel\\anaconda3\\envs\\py38cv4\\lib\\bisect.py',
   'PYMODULE'),
  ('email.feedparser',
   'C:\\Users\\Samuel\\anaconda3\\envs\\py38cv4\\lib\\email\\feedparser.py',
   'PYMODULE'),
  ('email.message',
   'C:\\Users\\Samuel\\anaconda3\\envs\\py38cv4\\lib\\email\\message.py',
   'PYMODULE'),
  ('email.policy',
   'C:\\Users\\Samuel\\anaconda3\\envs\\py38cv4\\lib\\email\\policy.py',
   'PYMODULE'),
  ('email.contentmanager',
   'C:\\Users\\Samuel\\anaconda3\\envs\\py38cv4\\lib\\email\\contentmanager.py',
   'PYMODULE'),
  ('email.quoprimime',
   'C:\\Users\\Samuel\\anaconda3\\envs\\py38cv4\\lib\\email\\quoprimime.py',
   'PYMODULE'),
  ('email.headerregistry',
   'C:\\Users\\Samuel\\anaconda3\\envs\\py38cv4\\lib\\email\\headerregistry.py',
   'PYMODULE'),
  ('email.iterators',
   'C:\\Users\\Samuel\\anaconda3\\envs\\py38cv4\\lib\\email\\iterators.py',
   'PYMODULE'),
  ('email.generator',
   'C:\\Users\\Samuel\\anaconda3\\envs\\py38cv4\\lib\\email\\generator.py',
   'PYMODULE'),
  ('email._encoded_words',
   'C:\\Users\\Samuel\\anaconda3\\envs\\py38cv4\\lib\\email\\_encoded_words.py',
   'PYMODULE'),
  ('quopri',
   'C:\\Users\\Samuel\\anaconda3\\envs\\py38cv4\\lib\\quopri.py',
   'PYMODULE'),
  ('getopt',
   'C:\\Users\\Samuel\\anaconda3\\envs\\py38cv4\\lib\\getopt.py',
   'PYMODULE'),
  ('uu', 'C:\\Users\\Samuel\\anaconda3\\envs\\py38cv4\\lib\\uu.py', 'PYMODULE'),
  ('optparse',
   'C:\\Users\\Samuel\\anaconda3\\envs\\py38cv4\\lib\\optparse.py',
   'PYMODULE'),
  ('email._header_value_parser',
   'C:\\Users\\Samuel\\anaconda3\\envs\\py38cv4\\lib\\email\\_header_value_parser.py',
   'PYMODULE'),
  ('urllib',
   'C:\\Users\\Samuel\\anaconda3\\envs\\py38cv4\\lib\\urllib\\__init__.py',
   'PYMODULE'),
  ('email.header',
   'C:\\Users\\Samuel\\anaconda3\\envs\\py38cv4\\lib\\email\\header.py',
   'PYMODULE'),
  ('email.base64mime',
   'C:\\Users\\Samuel\\anaconda3\\envs\\py38cv4\\lib\\email\\base64mime.py',
   'PYMODULE'),
  ('email.charset',
   'C:\\Users\\Samuel\\anaconda3\\envs\\py38cv4\\lib\\email\\charset.py',
   'PYMODULE'),
  ('email.encoders',
   'C:\\Users\\Samuel\\anaconda3\\envs\\py38cv4\\lib\\email\\encoders.py',
   'PYMODULE'),
  ('email.errors',
   'C:\\Users\\Samuel\\anaconda3\\envs\\py38cv4\\lib\\email\\errors.py',
   'PYMODULE'),
  ('csv',
   'C:\\Users\\Samuel\\anaconda3\\envs\\py38cv4\\lib\\csv.py',
   'PYMODULE'),
  ('tokenize',
   'C:\\Users\\Samuel\\anaconda3\\envs\\py38cv4\\lib\\tokenize.py',
   'PYMODULE'),
  ('token',
   'C:\\Users\\Samuel\\anaconda3\\envs\\py38cv4\\lib\\token.py',
   'PYMODULE'),
  ('contextlib',
   'C:\\Users\\Samuel\\anaconda3\\envs\\py38cv4\\lib\\contextlib.py',
   'PYMODULE'),
  ('importlib.util',
   'C:\\Users\\Samuel\\anaconda3\\envs\\py38cv4\\lib\\importlib\\util.py',
   'PYMODULE'),
  ('tarfile',
   'C:\\Users\\Samuel\\anaconda3\\envs\\py38cv4\\lib\\tarfile.py',
   'PYMODULE'),
  ('lzma',
   'C:\\Users\\Samuel\\anaconda3\\envs\\py38cv4\\lib\\lzma.py',
   'PYMODULE'),
  ('bz2',
   'C:\\Users\\Samuel\\anaconda3\\envs\\py38cv4\\lib\\bz2.py',
   'PYMODULE'),
  ('fnmatch',
   'C:\\Users\\Samuel\\anaconda3\\envs\\py38cv4\\lib\\fnmatch.py',
   'PYMODULE'),
  ('copy',
   'C:\\Users\\Samuel\\anaconda3\\envs\\py38cv4\\lib\\copy.py',
   'PYMODULE'),
  ('gettext',
   'C:\\Users\\Samuel\\anaconda3\\envs\\py38cv4\\lib\\gettext.py',
   'PYMODULE'),
  ('_compression',
   'C:\\Users\\Samuel\\anaconda3\\envs\\py38cv4\\lib\\_compression.py',
   'PYMODULE'),
  ('xml.parsers.expat',
   'C:\\Users\\Samuel\\anaconda3\\envs\\py38cv4\\lib\\xml\\parsers\\expat.py',
   'PYMODULE'),
  ('xml.parsers',
   'C:\\Users\\Samuel\\anaconda3\\envs\\py38cv4\\lib\\xml\\parsers\\__init__.py',
   'PYMODULE'),
  ('xml',
   'C:\\Users\\Samuel\\anaconda3\\envs\\py38cv4\\lib\\xml\\__init__.py',
   'PYMODULE'),
  ('xml.sax.expatreader',
   'C:\\Users\\Samuel\\anaconda3\\envs\\py38cv4\\lib\\xml\\sax\\expatreader.py',
   'PYMODULE'),
  ('xml.sax.saxutils',
   'C:\\Users\\Samuel\\anaconda3\\envs\\py38cv4\\lib\\xml\\sax\\saxutils.py',
   'PYMODULE'),
  ('urllib.request',
   'C:\\Users\\Samuel\\anaconda3\\envs\\py38cv4\\lib\\urllib\\request.py',
   'PYMODULE'),
  ('getpass',
   'C:\\Users\\Samuel\\anaconda3\\envs\\py38cv4\\lib\\getpass.py',
   'PYMODULE'),
  ('nturl2path',
   'C:\\Users\\Samuel\\anaconda3\\envs\\py38cv4\\lib\\nturl2path.py',
   'PYMODULE'),
  ('ftplib',
   'C:\\Users\\Samuel\\anaconda3\\envs\\py38cv4\\lib\\ftplib.py',
   'PYMODULE'),
  ('netrc',
   'C:\\Users\\Samuel\\anaconda3\\envs\\py38cv4\\lib\\netrc.py',
   'PYMODULE'),
  ('shlex',
   'C:\\Users\\Samuel\\anaconda3\\envs\\py38cv4\\lib\\shlex.py',
   'PYMODULE'),
  ('mimetypes',
   'C:\\Users\\Samuel\\anaconda3\\envs\\py38cv4\\lib\\mimetypes.py',
   'PYMODULE'),
  ('http.cookiejar',
   'C:\\Users\\Samuel\\anaconda3\\envs\\py38cv4\\lib\\http\\cookiejar.py',
   'PYMODULE'),
  ('http',
   'C:\\Users\\Samuel\\anaconda3\\envs\\py38cv4\\lib\\http\\__init__.py',
   'PYMODULE'),
  ('ssl',
   'C:\\Users\\Samuel\\anaconda3\\envs\\py38cv4\\lib\\ssl.py',
   'PYMODULE'),
  ('urllib.response',
   'C:\\Users\\Samuel\\anaconda3\\envs\\py38cv4\\lib\\urllib\\response.py',
   'PYMODULE'),
  ('urllib.error',
   'C:\\Users\\Samuel\\anaconda3\\envs\\py38cv4\\lib\\urllib\\error.py',
   'PYMODULE'),
  ('xml.sax',
   'C:\\Users\\Samuel\\anaconda3\\envs\\py38cv4\\lib\\xml\\sax\\__init__.py',
   'PYMODULE'),
  ('xml.sax.handler',
   'C:\\Users\\Samuel\\anaconda3\\envs\\py38cv4\\lib\\xml\\sax\\handler.py',
   'PYMODULE'),
  ('xml.sax._exceptions',
   'C:\\Users\\Samuel\\anaconda3\\envs\\py38cv4\\lib\\xml\\sax\\_exceptions.py',
   'PYMODULE'),
  ('xml.sax.xmlreader',
   'C:\\Users\\Samuel\\anaconda3\\envs\\py38cv4\\lib\\xml\\sax\\xmlreader.py',
   'PYMODULE'),
  ('urllib.parse',
   'C:\\Users\\Samuel\\anaconda3\\envs\\py38cv4\\lib\\urllib\\parse.py',
   'PYMODULE'),
  ('http.client',
   'C:\\Users\\Samuel\\anaconda3\\envs\\py38cv4\\lib\\http\\client.py',
   'PYMODULE'),
  ('decimal',
   'C:\\Users\\Samuel\\anaconda3\\envs\\py38cv4\\lib\\decimal.py',
   'PYMODULE'),
  ('_pydecimal',
   'C:\\Users\\Samuel\\anaconda3\\envs\\py38cv4\\lib\\_pydecimal.py',
   'PYMODULE'),
  ('contextvars',
   'C:\\Users\\Samuel\\anaconda3\\envs\\py38cv4\\lib\\contextvars.py',
   'PYMODULE'),
  ('datetime',
   'C:\\Users\\Samuel\\anaconda3\\envs\\py38cv4\\lib\\datetime.py',
   'PYMODULE'),
  ('_strptime',
   'C:\\Users\\Samuel\\anaconda3\\envs\\py38cv4\\lib\\_strptime.py',
   'PYMODULE'),
  ('base64',
   'C:\\Users\\Samuel\\anaconda3\\envs\\py38cv4\\lib\\base64.py',
   'PYMODULE'),
  ('hmac',
   'C:\\Users\\Samuel\\anaconda3\\envs\\py38cv4\\lib\\hmac.py',
   'PYMODULE'),
  ('tempfile',
   'C:\\Users\\Samuel\\anaconda3\\envs\\py38cv4\\lib\\tempfile.py',
   'PYMODULE'),
  ('multiprocessing.util',
   'C:\\Users\\Samuel\\anaconda3\\envs\\py38cv4\\lib\\multiprocessing\\util.py',
   'PYMODULE'),
  ('multiprocessing.resource_tracker',
   'C:\\Users\\Samuel\\anaconda3\\envs\\py38cv4\\lib\\multiprocessing\\resource_tracker.py',
   'PYMODULE'),
  ('multiprocessing.popen_fork',
   'C:\\Users\\Samuel\\anaconda3\\envs\\py38cv4\\lib\\multiprocessing\\popen_fork.py',
   'PYMODULE'),
  ('multiprocessing.forkserver',
   'C:\\Users\\Samuel\\anaconda3\\envs\\py38cv4\\lib\\multiprocessing\\forkserver.py',
   'PYMODULE'),
  ('multiprocessing.context',
   'C:\\Users\\Samuel\\anaconda3\\envs\\py38cv4\\lib\\multiprocessing\\context.py',
   'PYMODULE'),
  ('multiprocessing.sharedctypes',
   'C:\\Users\\Samuel\\anaconda3\\envs\\py38cv4\\lib\\multiprocessing\\sharedctypes.py',
   'PYMODULE'),
  ('multiprocessing.heap',
   'C:\\Users\\Samuel\\anaconda3\\envs\\py38cv4\\lib\\multiprocessing\\heap.py',
   'PYMODULE'),
  ('ctypes',
   'C:\\Users\\Samuel\\anaconda3\\envs\\py38cv4\\lib\\ctypes\\__init__.py',
   'PYMODULE'),
  ('ctypes._endian',
   'C:\\Users\\Samuel\\anaconda3\\envs\\py38cv4\\lib\\ctypes\\_endian.py',
   'PYMODULE'),
  ('multiprocessing.pool',
   'C:\\Users\\Samuel\\anaconda3\\envs\\py38cv4\\lib\\multiprocessing\\pool.py',
   'PYMODULE'),
  ('multiprocessing.dummy',
   'C:\\Users\\Samuel\\anaconda3\\envs\\py38cv4\\lib\\multiprocessing\\dummy\\__init__.py',
   'PYMODULE'),
  ('multiprocessing.dummy.connection',
   'C:\\Users\\Samuel\\anaconda3\\envs\\py38cv4\\lib\\multiprocessing\\dummy\\connection.py',
   'PYMODULE'),
  ('queue',
   'C:\\Users\\Samuel\\anaconda3\\envs\\py38cv4\\lib\\queue.py',
   'PYMODULE'),
  ('multiprocessing.queues',
   'C:\\Users\\Samuel\\anaconda3\\envs\\py38cv4\\lib\\multiprocessing\\queues.py',
   'PYMODULE'),
  ('multiprocessing.synchronize',
   'C:\\Users\\Samuel\\anaconda3\\envs\\py38cv4\\lib\\multiprocessing\\synchronize.py',
   'PYMODULE'),
  ('multiprocessing.managers',
   'C:\\Users\\Samuel\\anaconda3\\envs\\py38cv4\\lib\\multiprocessing\\managers.py',
   'PYMODULE'),
  ('multiprocessing.shared_memory',
   'C:\\Users\\Samuel\\anaconda3\\envs\\py38cv4\\lib\\multiprocessing\\shared_memory.py',
   'PYMODULE'),
  ('secrets',
   'C:\\Users\\Samuel\\anaconda3\\envs\\py38cv4\\lib\\secrets.py',
   'PYMODULE'),
  ('multiprocessing.reduction',
   'C:\\Users\\Samuel\\anaconda3\\envs\\py38cv4\\lib\\multiprocessing\\reduction.py',
   'PYMODULE'),
  ('multiprocessing.popen_spawn_posix',
   'C:\\Users\\Samuel\\anaconda3\\envs\\py38cv4\\lib\\multiprocessing\\popen_spawn_posix.py',
   'PYMODULE'),
  ('multiprocessing.popen_spawn_win32',
   'C:\\Users\\Samuel\\anaconda3\\envs\\py38cv4\\lib\\multiprocessing\\popen_spawn_win32.py',
   'PYMODULE'),
  ('subprocess',
   'C:\\Users\\Samuel\\anaconda3\\envs\\py38cv4\\lib\\subprocess.py',
   'PYMODULE'),
  ('multiprocessing.spawn',
   'C:\\Users\\Samuel\\anaconda3\\envs\\py38cv4\\lib\\multiprocessing\\spawn.py',
   'PYMODULE'),
  ('runpy',
   'C:\\Users\\Samuel\\anaconda3\\envs\\py38cv4\\lib\\runpy.py',
   'PYMODULE'),
  ('pkgutil',
   'C:\\Users\\Samuel\\anaconda3\\envs\\py38cv4\\lib\\pkgutil.py',
   'PYMODULE'),
  ('zipimport',
   'C:\\Users\\Samuel\\anaconda3\\envs\\py38cv4\\lib\\zipimport.py',
   'PYMODULE'),
  ('inspect',
   'C:\\Users\\Samuel\\anaconda3\\envs\\py38cv4\\lib\\inspect.py',
   'PYMODULE'),
  ('dis',
   'C:\\Users\\Samuel\\anaconda3\\envs\\py38cv4\\lib\\dis.py',
   'PYMODULE'),
  ('opcode',
   'C:\\Users\\Samuel\\anaconda3\\envs\\py38cv4\\lib\\opcode.py',
   'PYMODULE'),
  ('ast',
   'C:\\Users\\Samuel\\anaconda3\\envs\\py38cv4\\lib\\ast.py',
   'PYMODULE'),
  ('multiprocessing',
   'C:\\Users\\Samuel\\anaconda3\\envs\\py38cv4\\lib\\multiprocessing\\__init__.py',
   'PYMODULE'),
  ('tracemalloc',
   'C:\\Users\\Samuel\\anaconda3\\envs\\py38cv4\\lib\\tracemalloc.py',
   'PYMODULE'),
  ('stringprep',
   'C:\\Users\\Samuel\\anaconda3\\envs\\py38cv4\\lib\\stringprep.py',
   'PYMODULE'),
  ('_py_abc',
   'C:\\Users\\Samuel\\anaconda3\\envs\\py38cv4\\lib\\_py_abc.py',
   'PYMODULE'),
  ('GCS',
   'C:\\Users\\Samuel\\Desktop\\uav_rail_tracking\\GUI\\GCS.py',
   'PYMODULE'),
  ('PyQt5',
   'C:\\Users\\Samuel\\anaconda3\\envs\\py38cv4\\lib\\site-packages\\PyQt5\\__init__.py',
   'PYMODULE'),
  ('pickle',
   'C:\\Users\\Samuel\\anaconda3\\envs\\py38cv4\\lib\\pickle.py',
   'PYMODULE'),
  ('pprint',
   'C:\\Users\\Samuel\\anaconda3\\envs\\py38cv4\\lib\\pprint.py',
   'PYMODULE'),
  ('_compat_pickle',
   'C:\\Users\\Samuel\\anaconda3\\envs\\py38cv4\\lib\\_compat_pickle.py',
   'PYMODULE'),
  ('numpy',
   'C:\\Users\\Samuel\\anaconda3\\envs\\py38cv4\\lib\\site-packages\\numpy\\__init__.py',
   'PYMODULE'),
  ('six',
   'C:\\Users\\Samuel\\anaconda3\\envs\\py38cv4\\lib\\site-packages\\six.py',
   'PYMODULE'),
  ('__future__',
   'C:\\Users\\Samuel\\anaconda3\\envs\\py38cv4\\lib\\__future__.py',
   'PYMODULE'),
  ('numpy.core._dtype_ctypes',
   'C:\\Users\\Samuel\\anaconda3\\envs\\py38cv4\\lib\\site-packages\\numpy\\core\\_dtype_ctypes.py',
   'PYMODULE'),
  ('numpy.version',
   'C:\\Users\\Samuel\\anaconda3\\envs\\py38cv4\\lib\\site-packages\\numpy\\version.py',
   'PYMODULE'),
  ('numpy._version',
   'C:\\Users\\Samuel\\anaconda3\\envs\\py38cv4\\lib\\site-packages\\numpy\\_version.py',
   'PYMODULE'),
  ('json',
   'C:\\Users\\Samuel\\anaconda3\\envs\\py38cv4\\lib\\json\\__init__.py',
   'PYMODULE'),
  ('json.encoder',
   'C:\\Users\\Samuel\\anaconda3\\envs\\py38cv4\\lib\\json\\encoder.py',
   'PYMODULE'),
  ('json.decoder',
   'C:\\Users\\Samuel\\anaconda3\\envs\\py38cv4\\lib\\json\\decoder.py',
   'PYMODULE'),
  ('json.scanner',
   'C:\\Users\\Samuel\\anaconda3\\envs\\py38cv4\\lib\\json\\scanner.py',
   'PYMODULE'),
  ('mkl',
   'C:\\Users\\Samuel\\anaconda3\\envs\\py38cv4\\lib\\site-packages\\mkl\\__init__.py',
   'PYMODULE'),
  ('numpy._pytesttester',
   'C:\\Users\\Samuel\\anaconda3\\envs\\py38cv4\\lib\\site-packages\\numpy\\_pytesttester.py',
   'PYMODULE'),
  ('numpy.testing',
   'C:\\Users\\Samuel\\anaconda3\\envs\\py38cv4\\lib\\site-packages\\numpy\\testing\\__init__.py',
   'PYMODULE'),
  ('numpy.testing._private.nosetester',
   'C:\\Users\\Samuel\\anaconda3\\envs\\py38cv4\\lib\\site-packages\\numpy\\testing\\_private\\nosetester.py',
   'PYMODULE'),
  ('numpy.distutils.cpuinfo',
   'C:\\Users\\Samuel\\anaconda3\\envs\\py38cv4\\lib\\site-packages\\numpy\\distutils\\cpuinfo.py',
   'PYMODULE'),
  ('platform',
   'C:\\Users\\Samuel\\anaconda3\\envs\\py38cv4\\lib\\platform.py',
   'PYMODULE'),
  ('numpy.distutils',
   'C:\\Users\\Samuel\\anaconda3\\envs\\py38cv4\\lib\\site-packages\\numpy\\distutils\\__init__.py',
   'PYMODULE'),
  ('doctest',
   'C:\\Users\\Samuel\\anaconda3\\envs\\py38cv4\\lib\\doctest.py',
   'PYMODULE'),
  ('pdb',
   'C:\\Users\\Samuel\\anaconda3\\envs\\py38cv4\\lib\\pdb.py',
   'PYMODULE'),
  ('pydoc',
   'C:\\Users\\Samuel\\anaconda3\\envs\\py38cv4\\lib\\pydoc.py',
   'PYMODULE'),
  ('webbrowser',
   'C:\\Users\\Samuel\\anaconda3\\envs\\py38cv4\\lib\\webbrowser.py',
   'PYMODULE'),
  ('http.server',
   'C:\\Users\\Samuel\\anaconda3\\envs\\py38cv4\\lib\\http\\server.py',
   'PYMODULE'),
  ('socketserver',
   'C:\\Users\\Samuel\\anaconda3\\envs\\py38cv4\\lib\\socketserver.py',
   'PYMODULE'),
  ('html',
   'C:\\Users\\Samuel\\anaconda3\\envs\\py38cv4\\lib\\html\\__init__.py',
   'PYMODULE'),
  ('html.entities',
   'C:\\Users\\Samuel\\anaconda3\\envs\\py38cv4\\lib\\html\\entities.py',
   'PYMODULE'),
  ('pydoc_data.topics',
   'C:\\Users\\Samuel\\anaconda3\\envs\\py38cv4\\lib\\pydoc_data\\topics.py',
   'PYMODULE'),
  ('pydoc_data',
   'C:\\Users\\Samuel\\anaconda3\\envs\\py38cv4\\lib\\pydoc_data\\__init__.py',
   'PYMODULE'),
  ('tty',
   'C:\\Users\\Samuel\\anaconda3\\envs\\py38cv4\\lib\\tty.py',
   'PYMODULE'),
  ('sysconfig',
   'C:\\Users\\Samuel\\anaconda3\\envs\\py38cv4\\lib\\sysconfig.py',
   'PYMODULE'),
  ('_aix_support',
   'C:\\Users\\Samuel\\anaconda3\\envs\\py38cv4\\lib\\_aix_support.py',
   'PYMODULE'),
  ('_bootsubprocess',
   'C:\\Users\\Samuel\\anaconda3\\envs\\py38cv4\\lib\\_bootsubprocess.py',
   'PYMODULE'),
  ('glob',
   'C:\\Users\\Samuel\\anaconda3\\envs\\py38cv4\\lib\\glob.py',
   'PYMODULE'),
  ('code',
   'C:\\Users\\Samuel\\anaconda3\\envs\\py38cv4\\lib\\code.py',
   'PYMODULE'),
  ('codeop',
   'C:\\Users\\Samuel\\anaconda3\\envs\\py38cv4\\lib\\codeop.py',
   'PYMODULE'),
  ('bdb',
   'C:\\Users\\Samuel\\anaconda3\\envs\\py38cv4\\lib\\bdb.py',
   'PYMODULE'),
  ('cmd',
   'C:\\Users\\Samuel\\anaconda3\\envs\\py38cv4\\lib\\cmd.py',
   'PYMODULE'),
  ('difflib',
   'C:\\Users\\Samuel\\anaconda3\\envs\\py38cv4\\lib\\difflib.py',
   'PYMODULE'),
  ('numpy.testing._private.noseclasses',
   'C:\\Users\\Samuel\\anaconda3\\envs\\py38cv4\\lib\\site-packages\\numpy\\testing\\_private\\noseclasses.py',
   'PYMODULE'),
  ('numpy.testing._private.decorators',
   'C:\\Users\\Samuel\\anaconda3\\envs\\py38cv4\\lib\\site-packages\\numpy\\testing\\_private\\decorators.py',
   'PYMODULE'),
  ('numpy.testing._private.parameterized',
   'C:\\Users\\Samuel\\anaconda3\\envs\\py38cv4\\lib\\site-packages\\numpy\\testing\\_private\\parameterized.py',
   'PYMODULE'),
  ('numpy.testing._private.extbuild',
   'C:\\Users\\Samuel\\anaconda3\\envs\\py38cv4\\lib\\site-packages\\numpy\\testing\\_private\\extbuild.py',
   'PYMODULE'),
  ('numpy.testing._private',
   'C:\\Users\\Samuel\\anaconda3\\envs\\py38cv4\\lib\\site-packages\\numpy\\testing\\_private\\__init__.py',
   'PYMODULE'),
  ('numpy.testing._private.utils',
   'C:\\Users\\Samuel\\anaconda3\\envs\\py38cv4\\lib\\site-packages\\numpy\\testing\\_private\\utils.py',
   'PYMODULE'),
  ('psutil',
   'C:\\Users\\Samuel\\anaconda3\\envs\\py38cv4\\lib\\site-packages\\psutil\\__init__.py',
   'PYMODULE'),
  ('psutil._pswindows',
   'C:\\Users\\Samuel\\anaconda3\\envs\\py38cv4\\lib\\site-packages\\psutil\\_pswindows.py',
   'PYMODULE'),
  ('psutil._compat',
   'C:\\Users\\Samuel\\anaconda3\\envs\\py38cv4\\lib\\site-packages\\psutil\\_compat.py',
   'PYMODULE'),
  ('psutil._common',
   'C:\\Users\\Samuel\\anaconda3\\envs\\py38cv4\\lib\\site-packages\\psutil\\_common.py',
   'PYMODULE'),
  ('numpy.core.fromnumeric',
   'C:\\Users\\Samuel\\anaconda3\\envs\\py38cv4\\lib\\site-packages\\numpy\\core\\fromnumeric.py',
   'PYMODULE'),
  ('numpy.core._methods',
   'C:\\Users\\Samuel\\anaconda3\\envs\\py38cv4\\lib\\site-packages\\numpy\\core\\_methods.py',
   'PYMODULE'),
  ('numpy.lib.stride_tricks',
   'C:\\Users\\Samuel\\anaconda3\\envs\\py38cv4\\lib\\site-packages\\numpy\\lib\\stride_tricks.py',
   'PYMODULE'),
  ('numpy.core.numeric',
   'C:\\Users\\Samuel\\anaconda3\\envs\\py38cv4\\lib\\site-packages\\numpy\\core\\numeric.py',
   'PYMODULE'),
  ('numpy.core._asarray',
   'C:\\Users\\Samuel\\anaconda3\\envs\\py38cv4\\lib\\site-packages\\numpy\\core\\_asarray.py',
   'PYMODULE'),
  ('numpy.core.arrayprint',
   'C:\\Users\\Samuel\\anaconda3\\envs\\py38cv4\\lib\\site-packages\\numpy\\core\\arrayprint.py',
   'PYMODULE'),
  ('numpy.core._ufunc_config',
   'C:\\Users\\Samuel\\anaconda3\\envs\\py38cv4\\lib\\site-packages\\numpy\\core\\_ufunc_config.py',
   'PYMODULE'),
  ('numpy.core.shape_base',
   'C:\\Users\\Samuel\\anaconda3\\envs\\py38cv4\\lib\\site-packages\\numpy\\core\\shape_base.py',
   'PYMODULE'),
  ('numpy.core._exceptions',
   'C:\\Users\\Samuel\\anaconda3\\envs\\py38cv4\\lib\\site-packages\\numpy\\core\\_exceptions.py',
   'PYMODULE'),
  ('numpy.core.umath',
   'C:\\Users\\Samuel\\anaconda3\\envs\\py38cv4\\lib\\site-packages\\numpy\\core\\umath.py',
   'PYMODULE'),
  ('numpy.core.overrides',
   'C:\\Users\\Samuel\\anaconda3\\envs\\py38cv4\\lib\\site-packages\\numpy\\core\\overrides.py',
   'PYMODULE'),
  ('numpy.compat._inspect',
   'C:\\Users\\Samuel\\anaconda3\\envs\\py38cv4\\lib\\site-packages\\numpy\\compat\\_inspect.py',
   'PYMODULE'),
  ('numpy.core.multiarray',
   'C:\\Users\\Samuel\\anaconda3\\envs\\py38cv4\\lib\\site-packages\\numpy\\core\\multiarray.py',
   'PYMODULE'),
  ('numpy.core.numerictypes',
   'C:\\Users\\Samuel\\anaconda3\\envs\\py38cv4\\lib\\site-packages\\numpy\\core\\numerictypes.py',
   'PYMODULE'),
  ('numpy.core._dtype',
   'C:\\Users\\Samuel\\anaconda3\\envs\\py38cv4\\lib\\site-packages\\numpy\\core\\_dtype.py',
   'PYMODULE'),
  ('numpy.core._type_aliases',
   'C:\\Users\\Samuel\\anaconda3\\envs\\py38cv4\\lib\\site-packages\\numpy\\core\\_type_aliases.py',
   'PYMODULE'),
  ('numpy.core._string_helpers',
   'C:\\Users\\Samuel\\anaconda3\\envs\\py38cv4\\lib\\site-packages\\numpy\\core\\_string_helpers.py',
   'PYMODULE'),
  ('unittest.case',
   'C:\\Users\\Samuel\\anaconda3\\envs\\py38cv4\\lib\\unittest\\case.py',
   'PYMODULE'),
  ('unittest._log',
   'C:\\Users\\Samuel\\anaconda3\\envs\\py38cv4\\lib\\unittest\\_log.py',
   'PYMODULE'),
  ('unittest.util',
   'C:\\Users\\Samuel\\anaconda3\\envs\\py38cv4\\lib\\unittest\\util.py',
   'PYMODULE'),
  ('unittest.result',
   'C:\\Users\\Samuel\\anaconda3\\envs\\py38cv4\\lib\\unittest\\result.py',
   'PYMODULE'),
  ('unittest',
   'C:\\Users\\Samuel\\anaconda3\\envs\\py38cv4\\lib\\unittest\\__init__.py',
   'PYMODULE'),
  ('unittest.async_case',
   'C:\\Users\\Samuel\\anaconda3\\envs\\py38cv4\\lib\\unittest\\async_case.py',
   'PYMODULE'),
  ('asyncio',
   'C:\\Users\\Samuel\\anaconda3\\envs\\py38cv4\\lib\\asyncio\\__init__.py',
   'PYMODULE'),
  ('asyncio.unix_events',
   'C:\\Users\\Samuel\\anaconda3\\envs\\py38cv4\\lib\\asyncio\\unix_events.py',
   'PYMODULE'),
  ('asyncio.log',
   'C:\\Users\\Samuel\\anaconda3\\envs\\py38cv4\\lib\\asyncio\\log.py',
   'PYMODULE'),
  ('asyncio.windows_events',
   'C:\\Users\\Samuel\\anaconda3\\envs\\py38cv4\\lib\\asyncio\\windows_events.py',
   'PYMODULE'),
  ('asyncio.windows_utils',
   'C:\\Users\\Samuel\\anaconda3\\envs\\py38cv4\\lib\\asyncio\\windows_utils.py',
   'PYMODULE'),
  ('asyncio.selector_events',
   'C:\\Users\\Samuel\\anaconda3\\envs\\py38cv4\\lib\\asyncio\\selector_events.py',
   'PYMODULE'),
  ('asyncio.proactor_events',
   'C:\\Users\\Samuel\\anaconda3\\envs\\py38cv4\\lib\\asyncio\\proactor_events.py',
   'PYMODULE'),
  ('asyncio.base_subprocess',
   'C:\\Users\\Samuel\\anaconda3\\envs\\py38cv4\\lib\\asyncio\\base_subprocess.py',
   'PYMODULE'),
  ('asyncio.threads',
   'C:\\Users\\Samuel\\anaconda3\\envs\\py38cv4\\lib\\asyncio\\threads.py',
   'PYMODULE'),
  ('asyncio.subprocess',
   'C:\\Users\\Samuel\\anaconda3\\envs\\py38cv4\\lib\\asyncio\\subprocess.py',
   'PYMODULE'),
  ('asyncio.streams',
   'C:\\Users\\Samuel\\anaconda3\\envs\\py38cv4\\lib\\asyncio\\streams.py',
   'PYMODULE'),
  ('asyncio.queues',
   'C:\\Users\\Samuel\\anaconda3\\envs\\py38cv4\\lib\\asyncio\\queues.py',
   'PYMODULE'),
  ('asyncio.runners',
   'C:\\Users\\Samuel\\anaconda3\\envs\\py38cv4\\lib\\asyncio\\runners.py',
   'PYMODULE'),
  ('asyncio.base_events',
   'C:\\Users\\Samuel\\anaconda3\\envs\\py38cv4\\lib\\asyncio\\base_events.py',
   'PYMODULE'),
  ('concurrent.futures',
   'C:\\Users\\Samuel\\anaconda3\\envs\\py38cv4\\lib\\concurrent\\futures\\__init__.py',
   'PYMODULE'),
  ('concurrent.futures.thread',
   'C:\\Users\\Samuel\\anaconda3\\envs\\py38cv4\\lib\\concurrent\\futures\\thread.py',
   'PYMODULE'),
  ('concurrent.futures.process',
   'C:\\Users\\Samuel\\anaconda3\\envs\\py38cv4\\lib\\concurrent\\futures\\process.py',
   'PYMODULE'),
  ('concurrent.futures._base',
   'C:\\Users\\Samuel\\anaconda3\\envs\\py38cv4\\lib\\concurrent\\futures\\_base.py',
   'PYMODULE'),
  ('concurrent',
   'C:\\Users\\Samuel\\anaconda3\\envs\\py38cv4\\lib\\concurrent\\__init__.py',
   'PYMODULE'),
  ('asyncio.trsock',
   'C:\\Users\\Samuel\\anaconda3\\envs\\py38cv4\\lib\\asyncio\\trsock.py',
   'PYMODULE'),
  ('asyncio.staggered',
   'C:\\Users\\Samuel\\anaconda3\\envs\\py38cv4\\lib\\asyncio\\staggered.py',
   'PYMODULE'),
  ('asyncio.tasks',
   'C:\\Users\\Samuel\\anaconda3\\envs\\py38cv4\\lib\\asyncio\\tasks.py',
   'PYMODULE'),
  ('asyncio.base_tasks',
   'C:\\Users\\Samuel\\anaconda3\\envs\\py38cv4\\lib\\asyncio\\base_tasks.py',
   'PYMODULE'),
  ('asyncio.locks',
   'C:\\Users\\Samuel\\anaconda3\\envs\\py38cv4\\lib\\asyncio\\locks.py',
   'PYMODULE'),
  ('asyncio.sslproto',
   'C:\\Users\\Samuel\\anaconda3\\envs\\py38cv4\\lib\\asyncio\\sslproto.py',
   'PYMODULE'),
  ('asyncio.transports',
   'C:\\Users\\Samuel\\anaconda3\\envs\\py38cv4\\lib\\asyncio\\transports.py',
   'PYMODULE'),
  ('asyncio.protocols',
   'C:\\Users\\Samuel\\anaconda3\\envs\\py38cv4\\lib\\asyncio\\protocols.py',
   'PYMODULE'),
  ('asyncio.futures',
   'C:\\Users\\Samuel\\anaconda3\\envs\\py38cv4\\lib\\asyncio\\futures.py',
   'PYMODULE'),
  ('asyncio.exceptions',
   'C:\\Users\\Samuel\\anaconda3\\envs\\py38cv4\\lib\\asyncio\\exceptions.py',
   'PYMODULE'),
  ('asyncio.events',
   'C:\\Users\\Samuel\\anaconda3\\envs\\py38cv4\\lib\\asyncio\\events.py',
   'PYMODULE'),
  ('asyncio.coroutines',
   'C:\\Users\\Samuel\\anaconda3\\envs\\py38cv4\\lib\\asyncio\\coroutines.py',
   'PYMODULE'),
  ('asyncio.base_futures',
   'C:\\Users\\Samuel\\anaconda3\\envs\\py38cv4\\lib\\asyncio\\base_futures.py',
   'PYMODULE'),
  ('asyncio.format_helpers',
   'C:\\Users\\Samuel\\anaconda3\\envs\\py38cv4\\lib\\asyncio\\format_helpers.py',
   'PYMODULE'),
  ('asyncio.constants',
   'C:\\Users\\Samuel\\anaconda3\\envs\\py38cv4\\lib\\asyncio\\constants.py',
   'PYMODULE'),
  ('unittest.signals',
   'C:\\Users\\Samuel\\anaconda3\\envs\\py38cv4\\lib\\unittest\\signals.py',
   'PYMODULE'),
  ('unittest.main',
   'C:\\Users\\Samuel\\anaconda3\\envs\\py38cv4\\lib\\unittest\\main.py',
   'PYMODULE'),
  ('unittest.runner',
   'C:\\Users\\Samuel\\anaconda3\\envs\\py38cv4\\lib\\unittest\\runner.py',
   'PYMODULE'),
  ('unittest.loader',
   'C:\\Users\\Samuel\\anaconda3\\envs\\py38cv4\\lib\\unittest\\loader.py',
   'PYMODULE'),
  ('unittest.suite',
   'C:\\Users\\Samuel\\anaconda3\\envs\\py38cv4\\lib\\unittest\\suite.py',
   'PYMODULE'),
  ('numpy.matrixlib',
   'C:\\Users\\Samuel\\anaconda3\\envs\\py38cv4\\lib\\site-packages\\numpy\\matrixlib\\__init__.py',
   'PYMODULE'),
  ('numpy.matrixlib.defmatrix',
   'C:\\Users\\Samuel\\anaconda3\\envs\\py38cv4\\lib\\site-packages\\numpy\\matrixlib\\defmatrix.py',
   'PYMODULE'),
  ('numpy.ma',
   'C:\\Users\\Samuel\\anaconda3\\envs\\py38cv4\\lib\\site-packages\\numpy\\ma\\__init__.py',
   'PYMODULE'),
  ('numpy.ma.extras',
   'C:\\Users\\Samuel\\anaconda3\\envs\\py38cv4\\lib\\site-packages\\numpy\\ma\\extras.py',
   'PYMODULE'),
  ('numpy.lib.index_tricks',
   'C:\\Users\\Samuel\\anaconda3\\envs\\py38cv4\\lib\\site-packages\\numpy\\lib\\index_tricks.py',
   'PYMODULE'),
  ('numpy.lib.function_base',
   'C:\\Users\\Samuel\\anaconda3\\envs\\py38cv4\\lib\\site-packages\\numpy\\lib\\function_base.py',
   'PYMODULE'),
  ('numpy.lib.histograms',
   'C:\\Users\\Samuel\\anaconda3\\envs\\py38cv4\\lib\\site-packages\\numpy\\lib\\histograms.py',
   'PYMODULE'),
  ('numpy.lib.twodim_base',
   'C:\\Users\\Samuel\\anaconda3\\envs\\py38cv4\\lib\\site-packages\\numpy\\lib\\twodim_base.py',
   'PYMODULE'),
  ('numpy.core.function_base',
   'C:\\Users\\Samuel\\anaconda3\\envs\\py38cv4\\lib\\site-packages\\numpy\\core\\function_base.py',
   'PYMODULE'),
  ('numpy.ma.core',
   'C:\\Users\\Samuel\\anaconda3\\envs\\py38cv4\\lib\\site-packages\\numpy\\ma\\core.py',
   'PYMODULE'),
  ('numpy.ctypeslib',
   'C:\\Users\\Samuel\\anaconda3\\envs\\py38cv4\\lib\\site-packages\\numpy\\ctypeslib.py',
   'PYMODULE'),
  ('numpy.core._internal',
   'C:\\Users\\Samuel\\anaconda3\\envs\\py38cv4\\lib\\site-packages\\numpy\\core\\_internal.py',
   'PYMODULE'),
  ('numpy.random',
   'C:\\Users\\Samuel\\anaconda3\\envs\\py38cv4\\lib\\site-packages\\numpy\\random\\__init__.py',
   'PYMODULE'),
  ('numpy.random._pickle',
   'C:\\Users\\Samuel\\anaconda3\\envs\\py38cv4\\lib\\site-packages\\numpy\\random\\_pickle.py',
   'PYMODULE'),
  ('numpy.polynomial',
   'C:\\Users\\Samuel\\anaconda3\\envs\\py38cv4\\lib\\site-packages\\numpy\\polynomial\\__init__.py',
   'PYMODULE'),
  ('numpy.polynomial._polybase',
   'C:\\Users\\Samuel\\anaconda3\\envs\\py38cv4\\lib\\site-packages\\numpy\\polynomial\\_polybase.py',
   'PYMODULE'),
  ('numpy.polynomial.laguerre',
   'C:\\Users\\Samuel\\anaconda3\\envs\\py38cv4\\lib\\site-packages\\numpy\\polynomial\\laguerre.py',
   'PYMODULE'),
  ('numpy.polynomial.hermite_e',
   'C:\\Users\\Samuel\\anaconda3\\envs\\py38cv4\\lib\\site-packages\\numpy\\polynomial\\hermite_e.py',
   'PYMODULE'),
  ('numpy.polynomial.hermite',
   'C:\\Users\\Samuel\\anaconda3\\envs\\py38cv4\\lib\\site-packages\\numpy\\polynomial\\hermite.py',
   'PYMODULE'),
  ('numpy.polynomial.legendre',
   'C:\\Users\\Samuel\\anaconda3\\envs\\py38cv4\\lib\\site-packages\\numpy\\polynomial\\legendre.py',
   'PYMODULE'),
  ('numpy.polynomial.chebyshev',
   'C:\\Users\\Samuel\\anaconda3\\envs\\py38cv4\\lib\\site-packages\\numpy\\polynomial\\chebyshev.py',
   'PYMODULE'),
  ('numpy.polynomial.polynomial',
   'C:\\Users\\Samuel\\anaconda3\\envs\\py38cv4\\lib\\site-packages\\numpy\\polynomial\\polynomial.py',
   'PYMODULE'),
  ('numpy.polynomial.polyutils',
   'C:\\Users\\Samuel\\anaconda3\\envs\\py38cv4\\lib\\site-packages\\numpy\\polynomial\\polyutils.py',
   'PYMODULE'),
  ('numpy.fft',
   'C:\\Users\\Samuel\\anaconda3\\envs\\py38cv4\\lib\\site-packages\\numpy\\fft\\__init__.py',
   'PYMODULE'),
  ('numpy.fft.helper',
   'C:\\Users\\Samuel\\anaconda3\\envs\\py38cv4\\lib\\site-packages\\numpy\\fft\\helper.py',
   'PYMODULE'),
  ('numpy.fft._pocketfft',
   'C:\\Users\\Samuel\\anaconda3\\envs\\py38cv4\\lib\\site-packages\\numpy\\fft\\_pocketfft.py',
   'PYMODULE'),
  ('numpy.linalg',
   'C:\\Users\\Samuel\\anaconda3\\envs\\py38cv4\\lib\\site-packages\\numpy\\linalg\\__init__.py',
   'PYMODULE'),
  ('numpy.linalg.linalg',
   'C:\\Users\\Samuel\\anaconda3\\envs\\py38cv4\\lib\\site-packages\\numpy\\linalg\\linalg.py',
   'PYMODULE'),
  ('numpy.lib',
   'C:\\Users\\Samuel\\anaconda3\\envs\\py38cv4\\lib\\site-packages\\numpy\\lib\\__init__.py',
   'PYMODULE'),
  ('numpy.lib._version',
   'C:\\Users\\Samuel\\anaconda3\\envs\\py38cv4\\lib\\site-packages\\numpy\\lib\\_version.py',
   'PYMODULE'),
  ('numpy.lib.arraypad',
   'C:\\Users\\Samuel\\anaconda3\\envs\\py38cv4\\lib\\site-packages\\numpy\\lib\\arraypad.py',
   'PYMODULE'),
  ('numpy.lib.arrayterator',
   'C:\\Users\\Samuel\\anaconda3\\envs\\py38cv4\\lib\\site-packages\\numpy\\lib\\arrayterator.py',
   'PYMODULE'),
  ('numpy.lib.npyio',
   'C:\\Users\\Samuel\\anaconda3\\envs\\py38cv4\\lib\\site-packages\\numpy\\lib\\npyio.py',
   'PYMODULE'),
  ('numpy.ma.mrecords',
   'C:\\Users\\Samuel\\anaconda3\\envs\\py38cv4\\lib\\site-packages\\numpy\\ma\\mrecords.py',
   'PYMODULE'),
  ('numpy.core.records',
   'C:\\Users\\Samuel\\anaconda3\\envs\\py38cv4\\lib\\site-packages\\numpy\\core\\records.py',
   'PYMODULE'),
  ('numpy.lib._iotools',
   'C:\\Users\\Samuel\\anaconda3\\envs\\py38cv4\\lib\\site-packages\\numpy\\lib\\_iotools.py',
   'PYMODULE'),
  ('numpy.lib._datasource',
   'C:\\Users\\Samuel\\anaconda3\\envs\\py38cv4\\lib\\site-packages\\numpy\\lib\\_datasource.py',
   'PYMODULE'),
  ('numpy.lib.format',
   'C:\\Users\\Samuel\\anaconda3\\envs\\py38cv4\\lib\\site-packages\\numpy\\lib\\format.py',
   'PYMODULE'),
  ('numpy.lib.arraysetops',
   'C:\\Users\\Samuel\\anaconda3\\envs\\py38cv4\\lib\\site-packages\\numpy\\lib\\arraysetops.py',
   'PYMODULE'),
  ('numpy.lib.utils',
   'C:\\Users\\Samuel\\anaconda3\\envs\\py38cv4\\lib\\site-packages\\numpy\\lib\\utils.py',
   'PYMODULE'),
  ('numpy.lib.polynomial',
   'C:\\Users\\Samuel\\anaconda3\\envs\\py38cv4\\lib\\site-packages\\numpy\\lib\\polynomial.py',
   'PYMODULE'),
  ('numpy.lib.ufunclike',
   'C:\\Users\\Samuel\\anaconda3\\envs\\py38cv4\\lib\\site-packages\\numpy\\lib\\ufunclike.py',
   'PYMODULE'),
  ('numpy.lib.shape_base',
   'C:\\Users\\Samuel\\anaconda3\\envs\\py38cv4\\lib\\site-packages\\numpy\\lib\\shape_base.py',
   'PYMODULE'),
  ('numpy.lib.nanfunctions',
   'C:\\Users\\Samuel\\anaconda3\\envs\\py38cv4\\lib\\site-packages\\numpy\\lib\\nanfunctions.py',
   'PYMODULE'),
  ('numpy.lib.type_check',
   'C:\\Users\\Samuel\\anaconda3\\envs\\py38cv4\\lib\\site-packages\\numpy\\lib\\type_check.py',
   'PYMODULE'),
  ('numpy.core.getlimits',
   'C:\\Users\\Samuel\\anaconda3\\envs\\py38cv4\\lib\\site-packages\\numpy\\core\\getlimits.py',
   'PYMODULE'),
  ('numpy.core._machar',
   'C:\\Users\\Samuel\\anaconda3\\envs\\py38cv4\\lib\\site-packages\\numpy\\core\\_machar.py',
   'PYMODULE'),
  ('numpy.lib.scimath',
   'C:\\Users\\Samuel\\anaconda3\\envs\\py38cv4\\lib\\site-packages\\numpy\\lib\\scimath.py',
   'PYMODULE'),
  ('numpy.lib.mixins',
   'C:\\Users\\Samuel\\anaconda3\\envs\\py38cv4\\lib\\site-packages\\numpy\\lib\\mixins.py',
   'PYMODULE'),
  ('numpy.compat',
   'C:\\Users\\Samuel\\anaconda3\\envs\\py38cv4\\lib\\site-packages\\numpy\\compat\\__init__.py',
   'PYMODULE'),
  ('numpy.compat.py3k',
   'C:\\Users\\Samuel\\anaconda3\\envs\\py38cv4\\lib\\site-packages\\numpy\\compat\\py3k.py',
   'PYMODULE'),
  ('numpy.compat._pep440',
   'C:\\Users\\Samuel\\anaconda3\\envs\\py38cv4\\lib\\site-packages\\numpy\\compat\\_pep440.py',
   'PYMODULE'),
  ('numpy.core',
   'C:\\Users\\Samuel\\anaconda3\\envs\\py38cv4\\lib\\site-packages\\numpy\\core\\__init__.py',
   'PYMODULE'),
  ('numpy.core._add_newdocs_scalars',
   'C:\\Users\\Samuel\\anaconda3\\envs\\py38cv4\\lib\\site-packages\\numpy\\core\\_add_newdocs_scalars.py',
   'PYMODULE'),
  ('numpy.core._add_newdocs',
   'C:\\Users\\Samuel\\anaconda3\\envs\\py38cv4\\lib\\site-packages\\numpy\\core\\_add_newdocs.py',
   'PYMODULE'),
  ('numpy.core.einsumfunc',
   'C:\\Users\\Samuel\\anaconda3\\envs\\py38cv4\\lib\\site-packages\\numpy\\core\\einsumfunc.py',
   'PYMODULE'),
  ('numpy.core.memmap',
   'C:\\Users\\Samuel\\anaconda3\\envs\\py38cv4\\lib\\site-packages\\numpy\\core\\memmap.py',
   'PYMODULE'),
  ('numpy.core.defchararray',
   'C:\\Users\\Samuel\\anaconda3\\envs\\py38cv4\\lib\\site-packages\\numpy\\core\\defchararray.py',
   'PYMODULE'),
  ('numpy._distributor_init',
   'C:\\Users\\Samuel\\anaconda3\\envs\\py38cv4\\lib\\site-packages\\numpy\\_distributor_init.py',
   'PYMODULE'),
  ('numpy.__config__',
   'C:\\Users\\Samuel\\anaconda3\\envs\\py38cv4\\lib\\site-packages\\numpy\\__config__.py',
   'PYMODULE'),
  ('numpy.array_api',
   'C:\\Users\\Samuel\\anaconda3\\envs\\py38cv4\\lib\\site-packages\\numpy\\array_api\\__init__.py',
   'PYMODULE'),
  ('numpy.array_api._utility_functions',
   'C:\\Users\\Samuel\\anaconda3\\envs\\py38cv4\\lib\\site-packages\\numpy\\array_api\\_utility_functions.py',
   'PYMODULE'),
  ('numpy.array_api._array_object',
   'C:\\Users\\Samuel\\anaconda3\\envs\\py38cv4\\lib\\site-packages\\numpy\\array_api\\_array_object.py',
   'PYMODULE'),
  ('numpy.typing',
   'C:\\Users\\Samuel\\anaconda3\\envs\\py38cv4\\lib\\site-packages\\numpy\\typing\\__init__.py',
   'PYMODULE'),
  ('numpy._typing._add_docstring',
   'C:\\Users\\Samuel\\anaconda3\\envs\\py38cv4\\lib\\site-packages\\numpy\\_typing\\_add_docstring.py',
   'PYMODULE'),
  ('numpy._typing._generic_alias',
   'C:\\Users\\Samuel\\anaconda3\\envs\\py38cv4\\lib\\site-packages\\numpy\\_typing\\_generic_alias.py',
   'PYMODULE'),
  ('numpy._typing',
   'C:\\Users\\Samuel\\anaconda3\\envs\\py38cv4\\lib\\site-packages\\numpy\\_typing\\__init__.py',
   'PYMODULE'),
  ('numpy._typing._array_like',
   'C:\\Users\\Samuel\\anaconda3\\envs\\py38cv4\\lib\\site-packages\\numpy\\_typing\\_array_like.py',
   'PYMODULE'),
  ('numpy._typing._dtype_like',
   'C:\\Users\\Samuel\\anaconda3\\envs\\py38cv4\\lib\\site-packages\\numpy\\_typing\\_dtype_like.py',
   'PYMODULE'),
  ('numpy._typing._shape',
   'C:\\Users\\Samuel\\anaconda3\\envs\\py38cv4\\lib\\site-packages\\numpy\\_typing\\_shape.py',
   'PYMODULE'),
  ('numpy._typing._scalars',
   'C:\\Users\\Samuel\\anaconda3\\envs\\py38cv4\\lib\\site-packages\\numpy\\_typing\\_scalars.py',
   'PYMODULE'),
  ('numpy._typing._char_codes',
   'C:\\Users\\Samuel\\anaconda3\\envs\\py38cv4\\lib\\site-packages\\numpy\\_typing\\_char_codes.py',
   'PYMODULE'),
  ('numpy._typing._nbit',
   'C:\\Users\\Samuel\\anaconda3\\envs\\py38cv4\\lib\\site-packages\\numpy\\_typing\\_nbit.py',
   'PYMODULE'),
  ('numpy._typing._nested_sequence',
   'C:\\Users\\Samuel\\anaconda3\\envs\\py38cv4\\lib\\site-packages\\numpy\\_typing\\_nested_sequence.py',
   'PYMODULE'),
  ('numpy.array_api._typing',
   'C:\\Users\\Samuel\\anaconda3\\envs\\py38cv4\\lib\\site-packages\\numpy\\array_api\\_typing.py',
   'PYMODULE'),
  ('numpy.array_api._statistical_functions',
   'C:\\Users\\Samuel\\anaconda3\\envs\\py38cv4\\lib\\site-packages\\numpy\\array_api\\_statistical_functions.py',
   'PYMODULE'),
  ('numpy.array_api._sorting_functions',
   'C:\\Users\\Samuel\\anaconda3\\envs\\py38cv4\\lib\\site-packages\\numpy\\array_api\\_sorting_functions.py',
   'PYMODULE'),
  ('numpy.array_api._set_functions',
   'C:\\Users\\Samuel\\anaconda3\\envs\\py38cv4\\lib\\site-packages\\numpy\\array_api\\_set_functions.py',
   'PYMODULE'),
  ('numpy.array_api._searching_functions',
   'C:\\Users\\Samuel\\anaconda3\\envs\\py38cv4\\lib\\site-packages\\numpy\\array_api\\_searching_functions.py',
   'PYMODULE'),
  ('numpy.array_api._manipulation_functions',
   'C:\\Users\\Samuel\\anaconda3\\envs\\py38cv4\\lib\\site-packages\\numpy\\array_api\\_manipulation_functions.py',
   'PYMODULE'),
  ('numpy.array_api.linalg',
   'C:\\Users\\Samuel\\anaconda3\\envs\\py38cv4\\lib\\site-packages\\numpy\\array_api\\linalg.py',
   'PYMODULE'),
  ('numpy.array_api._elementwise_functions',
   'C:\\Users\\Samuel\\anaconda3\\envs\\py38cv4\\lib\\site-packages\\numpy\\array_api\\_elementwise_functions.py',
   'PYMODULE'),
  ('numpy.array_api._dtypes',
   'C:\\Users\\Samuel\\anaconda3\\envs\\py38cv4\\lib\\site-packages\\numpy\\array_api\\_dtypes.py',
   'PYMODULE'),
  ('numpy.array_api._data_type_functions',
   'C:\\Users\\Samuel\\anaconda3\\envs\\py38cv4\\lib\\site-packages\\numpy\\array_api\\_data_type_functions.py',
   'PYMODULE'),
  ('dataclasses',
   'C:\\Users\\Samuel\\anaconda3\\envs\\py38cv4\\lib\\dataclasses.py',
   'PYMODULE'),
  ('numpy.array_api._creation_functions',
   'C:\\Users\\Samuel\\anaconda3\\envs\\py38cv4\\lib\\site-packages\\numpy\\array_api\\_creation_functions.py',
   'PYMODULE'),
  ('numpy.array_api._constants',
   'C:\\Users\\Samuel\\anaconda3\\envs\\py38cv4\\lib\\site-packages\\numpy\\array_api\\_constants.py',
   'PYMODULE'),
  ('numpy._globals',
   'C:\\Users\\Samuel\\anaconda3\\envs\\py38cv4\\lib\\site-packages\\numpy\\_globals.py',
   'PYMODULE'),
  ('signal',
   'C:\\Users\\Samuel\\anaconda3\\envs\\py38cv4\\lib\\signal.py',
   'PYMODULE'),
  ('struct',
   'C:\\Users\\Samuel\\anaconda3\\envs\\py38cv4\\lib\\struct.py',
   'PYMODULE'),
  ('socket',
   'C:\\Users\\Samuel\\anaconda3\\envs\\py38cv4\\lib\\socket.py',
   'PYMODULE'),
  ('threading',
   'C:\\Users\\Samuel\\anaconda3\\envs\\py38cv4\\lib\\threading.py',
   'PYMODULE'),
  ('_threading_local',
   'C:\\Users\\Samuel\\anaconda3\\envs\\py38cv4\\lib\\_threading_local.py',
   'PYMODULE')],
 [('msvcp140_codecvt_ids.dll',
   'C:\\Users\\Samuel\\anaconda3\\envs\\py38cv4\\Library\\bin\\msvcp140_codecvt_ids.dll',
   'BINARY'),
  ('libcrypto-1_1-x64.dll',
   'C:\\Users\\Samuel\\anaconda3\\envs\\py38cv4\\Library\\bin\\libcrypto-1_1-x64.dll',
   'BINARY'),
  ('api-ms-win-core-memory-l1-1-0.dll',
   'C:\\Users\\Samuel\\anaconda3\\envs\\py38cv4\\Library\\bin\\api-ms-win-core-memory-l1-1-0.dll',
   'BINARY'),
  ('api-ms-win-core-console-l1-1-0.dll',
   'C:\\Users\\Samuel\\anaconda3\\envs\\py38cv4\\Library\\bin\\api-ms-win-core-console-l1-1-0.dll',
   'BINARY'),
  ('api-ms-win-core-interlocked-l1-1-0.dll',
   'C:\\Users\\Samuel\\anaconda3\\envs\\py38cv4\\Library\\bin\\api-ms-win-core-interlocked-l1-1-0.dll',
   'BINARY'),
  ('mkl_vml_cmpt.1.dll',
   'C:\\Users\\Samuel\\anaconda3\\envs\\py38cv4\\Library\\bin\\mkl_vml_cmpt.1.dll',
   'BINARY'),
  ('api-ms-win-crt-time-l1-1-0.dll',
   'C:\\Users\\Samuel\\anaconda3\\envs\\py38cv4\\Library\\bin\\api-ms-win-crt-time-l1-1-0.dll',
   'BINARY'),
  ('mkl_blacs_intelmpi_lp64.1.dll',
   'C:\\Users\\Samuel\\anaconda3\\envs\\py38cv4\\Library\\bin\\mkl_blacs_intelmpi_lp64.1.dll',
   'BINARY'),
  ('api-ms-win-core-libraryloader-l1-1-0.dll',
   'C:\\Users\\Samuel\\anaconda3\\envs\\py38cv4\\Library\\bin\\api-ms-win-core-libraryloader-l1-1-0.dll',
   'BINARY'),
  ('mkl_vml_avx2.1.dll',
   'C:\\Users\\Samuel\\anaconda3\\envs\\py38cv4\\Library\\bin\\mkl_vml_avx2.1.dll',
   'BINARY'),
  ('libiompstubs5md.dll',
   'C:\\Users\\Samuel\\anaconda3\\envs\\py38cv4\\Library\\bin\\libiompstubs5md.dll',
   'BINARY'),
  ('mkl_tbb_thread.1.dll',
   'C:\\Users\\Samuel\\anaconda3\\envs\\py38cv4\\Library\\bin\\mkl_tbb_thread.1.dll',
   'BINARY'),
  ('ucrtbase.dll',
   'C:\\Users\\Samuel\\anaconda3\\envs\\py38cv4\\Library\\bin\\ucrtbase.dll',
   'BINARY'),
  ('mkl_def.1.dll',
   'C:\\Users\\Samuel\\anaconda3\\envs\\py38cv4\\Library\\bin\\mkl_def.1.dll',
   'BINARY'),
  ('mkl_avx2.1.dll',
   'C:\\Users\\Samuel\\anaconda3\\envs\\py38cv4\\Library\\bin\\mkl_avx2.1.dll',
   'BINARY'),
  ('api-ms-win-core-file-l1-1-0.dll',
   'C:\\Users\\Samuel\\anaconda3\\envs\\py38cv4\\Library\\bin\\api-ms-win-core-file-l1-1-0.dll',
   'BINARY'),
  ('msvcp140_2.dll',
   'C:\\Users\\Samuel\\anaconda3\\envs\\py38cv4\\Library\\bin\\msvcp140_2.dll',
   'BINARY'),
  ('msvcp140_1.dll',
   'C:\\Users\\Samuel\\anaconda3\\envs\\py38cv4\\Library\\bin\\msvcp140_1.dll',
   'BINARY'),
  ('mkl_avx512.1.dll',
   'C:\\Users\\Samuel\\anaconda3\\envs\\py38cv4\\Library\\bin\\mkl_avx512.1.dll',
   'BINARY'),
  ('mkl_blacs_lp64.1.dll',
   'C:\\Users\\Samuel\\anaconda3\\envs\\py38cv4\\Library\\bin\\mkl_blacs_lp64.1.dll',
   'BINARY'),
  ('mkl_blacs_mpich2_lp64.1.dll',
   'C:\\Users\\Samuel\\anaconda3\\envs\\py38cv4\\Library\\bin\\mkl_blacs_mpich2_lp64.1.dll',
   'BINARY'),
  ('libimalloc.dll',
   'C:\\Users\\Samuel\\anaconda3\\envs\\py38cv4\\Library\\bin\\libimalloc.dll',
   'BINARY'),
  ('api-ms-win-core-synch-l1-2-0.dll',
   'C:\\Users\\Samuel\\anaconda3\\envs\\py38cv4\\Library\\bin\\api-ms-win-core-synch-l1-2-0.dll',
   'BINARY'),
  ('api-ms-win-core-file-l2-1-0.dll',
   'C:\\Users\\Samuel\\anaconda3\\envs\\py38cv4\\Library\\bin\\api-ms-win-core-file-l2-1-0.dll',
   'BINARY'),
  ('api-ms-win-crt-utility-l1-1-0.dll',
   'C:\\Users\\Samuel\\anaconda3\\envs\\py38cv4\\Library\\bin\\api-ms-win-crt-utility-l1-1-0.dll',
   'BINARY'),
  ('mkl_rt.1.dll',
   'C:\\Users\\Samuel\\anaconda3\\envs\\py38cv4\\Library\\bin\\mkl_rt.1.dll',
   'BINARY'),
  ('mkl_mc3.1.dll',
   'C:\\Users\\Samuel\\anaconda3\\envs\\py38cv4\\Library\\bin\\mkl_mc3.1.dll',
   'BINARY'),
  ('mkl_vml_mc.1.dll',
   'C:\\Users\\Samuel\\anaconda3\\envs\\py38cv4\\Library\\bin\\mkl_vml_mc.1.dll',
   'BINARY'),
  ('api-ms-win-core-namedpipe-l1-1-0.dll',
   'C:\\Users\\Samuel\\anaconda3\\envs\\py38cv4\\Library\\bin\\api-ms-win-core-namedpipe-l1-1-0.dll',
   'BINARY'),
  ('api-ms-win-core-errorhandling-l1-1-0.dll',
   'C:\\Users\\Samuel\\anaconda3\\envs\\py38cv4\\Library\\bin\\api-ms-win-core-errorhandling-l1-1-0.dll',
   'BINARY'),
  ('api-ms-win-crt-convert-l1-1-0.dll',
   'C:\\Users\\Samuel\\anaconda3\\envs\\py38cv4\\Library\\bin\\api-ms-win-crt-convert-l1-1-0.dll',
   'BINARY'),
  ('api-ms-win-core-rtlsupport-l1-1-0.dll',
   'C:\\Users\\Samuel\\anaconda3\\envs\\py38cv4\\Library\\bin\\api-ms-win-core-rtlsupport-l1-1-0.dll',
   'BINARY'),
  ('mkl_blacs_mpich2_ilp64.1.dll',
   'C:\\Users\\Samuel\\anaconda3\\envs\\py38cv4\\Library\\bin\\mkl_blacs_mpich2_ilp64.1.dll',
   'BINARY'),
  ('api-ms-win-crt-runtime-l1-1-0.dll',
   'C:\\Users\\Samuel\\anaconda3\\envs\\py38cv4\\Library\\bin\\api-ms-win-crt-runtime-l1-1-0.dll',
   'BINARY'),
  ('api-ms-win-core-processthreads-l1-1-0.dll',
   'C:\\Users\\Samuel\\anaconda3\\envs\\py38cv4\\Library\\bin\\api-ms-win-core-processthreads-l1-1-0.dll',
   'BINARY'),
  ('api-ms-win-core-string-l1-1-0.dll',
   'C:\\Users\\Samuel\\anaconda3\\envs\\py38cv4\\Library\\bin\\api-ms-win-core-string-l1-1-0.dll',
   'BINARY'),
  ('mkl_msg.dll',
   'C:\\Users\\Samuel\\anaconda3\\envs\\py38cv4\\Library\\bin\\mkl_msg.dll',
   'BINARY'),
  ('mkl_vml_mc3.1.dll',
   'C:\\Users\\Samuel\\anaconda3\\envs\\py38cv4\\Library\\bin\\mkl_vml_mc3.1.dll',
   'BINARY'),
  ('mkl_cdft_core.1.dll',
   'C:\\Users\\Samuel\\anaconda3\\envs\\py38cv4\\Library\\bin\\mkl_cdft_core.1.dll',
   'BINARY'),
  ('mkl_blacs_msmpi_lp64.1.dll',
   'C:\\Users\\Samuel\\anaconda3\\envs\\py38cv4\\Library\\bin\\mkl_blacs_msmpi_lp64.1.dll',
   'BINARY'),
  ('mkl_blacs_ilp64.1.dll',
   'C:\\Users\\Samuel\\anaconda3\\envs\\py38cv4\\Library\\bin\\mkl_blacs_ilp64.1.dll',
   'BINARY'),
  ('api-ms-win-core-processenvironment-l1-1-0.dll',
   'C:\\Users\\Samuel\\anaconda3\\envs\\py38cv4\\Library\\bin\\api-ms-win-core-processenvironment-l1-1-0.dll',
   'BINARY'),
  ('api-ms-win-crt-filesystem-l1-1-0.dll',
   'C:\\Users\\Samuel\\anaconda3\\envs\\py38cv4\\Library\\bin\\api-ms-win-crt-filesystem-l1-1-0.dll',
   'BINARY'),
  ('api-ms-win-core-handle-l1-1-0.dll',
   'C:\\Users\\Samuel\\anaconda3\\envs\\py38cv4\\Library\\bin\\api-ms-win-core-handle-l1-1-0.dll',
   'BINARY'),
  ('api-ms-win-core-localization-l1-2-0.dll',
   'C:\\Users\\Samuel\\anaconda3\\envs\\py38cv4\\Library\\bin\\api-ms-win-core-localization-l1-2-0.dll',
   'BINARY'),
  ('mkl_vml_mc2.1.dll',
   'C:\\Users\\Samuel\\anaconda3\\envs\\py38cv4\\Library\\bin\\mkl_vml_mc2.1.dll',
   'BINARY'),
  ('api-ms-win-crt-math-l1-1-0.dll',
   'C:\\Users\\Samuel\\anaconda3\\envs\\py38cv4\\Library\\bin\\api-ms-win-crt-math-l1-1-0.dll',
   'BINARY'),
  ('vcruntime140_1.dll',
   'C:\\Users\\Samuel\\anaconda3\\envs\\py38cv4\\Library\\bin\\vcruntime140_1.dll',
   'BINARY'),
  ('api-ms-win-core-synch-l1-1-0.dll',
   'C:\\Users\\Samuel\\anaconda3\\envs\\py38cv4\\Library\\bin\\api-ms-win-core-synch-l1-1-0.dll',
   'BINARY'),
  ('api-ms-win-core-sysinfo-l1-1-0.dll',
   'C:\\Users\\Samuel\\anaconda3\\envs\\py38cv4\\Library\\bin\\api-ms-win-core-sysinfo-l1-1-0.dll',
   'BINARY'),
  ('api-ms-win-crt-environment-l1-1-0.dll',
   'C:\\Users\\Samuel\\anaconda3\\envs\\py38cv4\\Library\\bin\\api-ms-win-crt-environment-l1-1-0.dll',
   'BINARY'),
  ('api-ms-win-core-processthreads-l1-1-1.dll',
   'C:\\Users\\Samuel\\anaconda3\\envs\\py38cv4\\Library\\bin\\api-ms-win-core-processthreads-l1-1-1.dll',
   'BINARY'),
  ('api-ms-win-crt-conio-l1-1-0.dll',
   'C:\\Users\\Samuel\\anaconda3\\envs\\py38cv4\\Library\\bin\\api-ms-win-crt-conio-l1-1-0.dll',
   'BINARY'),
  ('api-ms-win-crt-string-l1-1-0.dll',
   'C:\\Users\\Samuel\\anaconda3\\envs\\py38cv4\\Library\\bin\\api-ms-win-crt-string-l1-1-0.dll',
   'BINARY'),
  ('omptarget.rtl.level0.dll',
   'C:\\Users\\Samuel\\anaconda3\\envs\\py38cv4\\Library\\bin\\omptarget.rtl.level0.dll',
   'BINARY'),
  ('mkl_blacs_intelmpi_ilp64.1.dll',
   'C:\\Users\\Samuel\\anaconda3\\envs\\py38cv4\\Library\\bin\\mkl_blacs_intelmpi_ilp64.1.dll',
   'BINARY'),
  ('api-ms-win-core-util-l1-1-0.dll',
   'C:\\Users\\Samuel\\anaconda3\\envs\\py38cv4\\Library\\bin\\api-ms-win-core-util-l1-1-0.dll',
   'BINARY'),
  ('mkl_scalapack_lp64.1.dll',
   'C:\\Users\\Samuel\\anaconda3\\envs\\py38cv4\\Library\\bin\\mkl_scalapack_lp64.1.dll',
   'BINARY'),
  ('libssl-1_1-x64.dll',
   'C:\\Users\\Samuel\\anaconda3\\envs\\py38cv4\\Library\\bin\\libssl-1_1-x64.dll',
   'BINARY'),
  ('vcomp140.dll',
   'C:\\Users\\Samuel\\anaconda3\\envs\\py38cv4\\Library\\bin\\vcomp140.dll',
   'BINARY'),
  ('api-ms-win-core-heap-l1-1-0.dll',
   'C:\\Users\\Samuel\\anaconda3\\envs\\py38cv4\\Library\\bin\\api-ms-win-core-heap-l1-1-0.dll',
   'BINARY'),
  ('api-ms-win-crt-private-l1-1-0.dll',
   'C:\\Users\\Samuel\\anaconda3\\envs\\py38cv4\\Library\\bin\\api-ms-win-crt-private-l1-1-0.dll',
   'BINARY'),
  ('api-ms-win-crt-heap-l1-1-0.dll',
   'C:\\Users\\Samuel\\anaconda3\\envs\\py38cv4\\Library\\bin\\api-ms-win-crt-heap-l1-1-0.dll',
   'BINARY'),
  ('api-ms-win-crt-locale-l1-1-0.dll',
   'C:\\Users\\Samuel\\anaconda3\\envs\\py38cv4\\Library\\bin\\api-ms-win-crt-locale-l1-1-0.dll',
   'BINARY'),
  ('msvcp140.dll',
   'C:\\Users\\Samuel\\anaconda3\\envs\\py38cv4\\Library\\bin\\msvcp140.dll',
   'BINARY'),
  ('mkl_avx.1.dll',
   'C:\\Users\\Samuel\\anaconda3\\envs\\py38cv4\\Library\\bin\\mkl_avx.1.dll',
   'BINARY'),
  ('omptarget.dll',
   'C:\\Users\\Samuel\\anaconda3\\envs\\py38cv4\\Library\\bin\\omptarget.dll',
   'BINARY'),
  ('vcruntime140.dll',
   'C:\\Users\\Samuel\\anaconda3\\envs\\py38cv4\\Library\\bin\\vcruntime140.dll',
   'BINARY'),
  ('api-ms-win-crt-stdio-l1-1-0.dll',
   'C:\\Users\\Samuel\\anaconda3\\envs\\py38cv4\\Library\\bin\\api-ms-win-crt-stdio-l1-1-0.dll',
   'BINARY'),
  ('api-ms-win-core-datetime-l1-1-0.dll',
   'C:\\Users\\Samuel\\anaconda3\\envs\\py38cv4\\Library\\bin\\api-ms-win-core-datetime-l1-1-0.dll',
   'BINARY'),
  ('mkl_vml_avx.1.dll',
   'C:\\Users\\Samuel\\anaconda3\\envs\\py38cv4\\Library\\bin\\mkl_vml_avx.1.dll',
   'BINARY'),
  ('concrt140.dll',
   'C:\\Users\\Samuel\\anaconda3\\envs\\py38cv4\\Library\\bin\\concrt140.dll',
   'BINARY'),
  ('api-ms-win-core-profile-l1-1-0.dll',
   'C:\\Users\\Samuel\\anaconda3\\envs\\py38cv4\\Library\\bin\\api-ms-win-core-profile-l1-1-0.dll',
   'BINARY'),
  ('api-ms-win-core-file-l1-2-0.dll',
   'C:\\Users\\Samuel\\anaconda3\\envs\\py38cv4\\Library\\bin\\api-ms-win-core-file-l1-2-0.dll',
   'BINARY'),
  ('api-ms-win-crt-multibyte-l1-1-0.dll',
   'C:\\Users\\Samuel\\anaconda3\\envs\\py38cv4\\Library\\bin\\api-ms-win-crt-multibyte-l1-1-0.dll',
   'BINARY'),
  ('mkl_blacs_msmpi_ilp64.1.dll',
   'C:\\Users\\Samuel\\anaconda3\\envs\\py38cv4\\Library\\bin\\mkl_blacs_msmpi_ilp64.1.dll',
   'BINARY'),
  ('mkl_sequential.1.dll',
   'C:\\Users\\Samuel\\anaconda3\\envs\\py38cv4\\Library\\bin\\mkl_sequential.1.dll',
   'BINARY'),
  ('sqlite3.dll',
   'C:\\Users\\Samuel\\anaconda3\\envs\\py38cv4\\Library\\bin\\sqlite3.dll',
   'BINARY'),
  ('mkl_core.1.dll',
   'C:\\Users\\Samuel\\anaconda3\\envs\\py38cv4\\Library\\bin\\mkl_core.1.dll',
   'BINARY'),
  ('mkl_vml_avx512.1.dll',
   'C:\\Users\\Samuel\\anaconda3\\envs\\py38cv4\\Library\\bin\\mkl_vml_avx512.1.dll',
   'BINARY'),
  ('api-ms-win-crt-process-l1-1-0.dll',
   'C:\\Users\\Samuel\\anaconda3\\envs\\py38cv4\\Library\\bin\\api-ms-win-crt-process-l1-1-0.dll',
   'BINARY'),
  ('mkl_vml_def.1.dll',
   'C:\\Users\\Samuel\\anaconda3\\envs\\py38cv4\\Library\\bin\\mkl_vml_def.1.dll',
   'BINARY'),
  ('vccorlib140.dll',
   'C:\\Users\\Samuel\\anaconda3\\envs\\py38cv4\\Library\\bin\\vccorlib140.dll',
   'BINARY'),
  ('mkl_mc.1.dll',
   'C:\\Users\\Samuel\\anaconda3\\envs\\py38cv4\\Library\\bin\\mkl_mc.1.dll',
   'BINARY'),
  ('mkl_pgi_thread.1.dll',
   'C:\\Users\\Samuel\\anaconda3\\envs\\py38cv4\\Library\\bin\\mkl_pgi_thread.1.dll',
   'BINARY'),
  ('mkl_intel_thread.1.dll',
   'C:\\Users\\Samuel\\anaconda3\\envs\\py38cv4\\Library\\bin\\mkl_intel_thread.1.dll',
   'BINARY'),
  ('mkl_scalapack_ilp64.1.dll',
   'C:\\Users\\Samuel\\anaconda3\\envs\\py38cv4\\Library\\bin\\mkl_scalapack_ilp64.1.dll',
   'BINARY'),
  ('api-ms-win-core-debug-l1-1-0.dll',
   'C:\\Users\\Samuel\\anaconda3\\envs\\py38cv4\\Library\\bin\\api-ms-win-core-debug-l1-1-0.dll',
   'BINARY'),
  ('omptarget.rtl.opencl.dll',
   'C:\\Users\\Samuel\\anaconda3\\envs\\py38cv4\\Library\\bin\\omptarget.rtl.opencl.dll',
   'BINARY'),
  ('api-ms-win-core-timezone-l1-1-0.dll',
   'C:\\Users\\Samuel\\anaconda3\\envs\\py38cv4\\Library\\bin\\api-ms-win-core-timezone-l1-1-0.dll',
   'BINARY'),
  ('python39.dll',
   'C:\\Users\\Samuel\\anaconda3\\envs\\py38cv4\\python39.dll',
   'BINARY'),
  ('PyQt5\\Qt5\\plugins\\styles\\qwindowsvistastyle.dll',
   'C:\\Users\\Samuel\\anaconda3\\envs\\py38cv4\\lib\\site-packages\\PyQt5\\Qt5\\plugins\\styles\\qwindowsvistastyle.dll',
   'BINARY'),
  ('PyQt5\\Qt5\\plugins\\platformthemes\\qxdgdesktopportal.dll',
   'C:\\Users\\Samuel\\anaconda3\\envs\\py38cv4\\lib\\site-packages\\PyQt5\\Qt5\\plugins\\platformthemes\\qxdgdesktopportal.dll',
   'BINARY'),
  ('PyQt5\\Qt5\\plugins\\imageformats\\qtga.dll',
   'C:\\Users\\Samuel\\anaconda3\\envs\\py38cv4\\lib\\site-packages\\PyQt5\\Qt5\\plugins\\imageformats\\qtga.dll',
   'BINARY'),
  ('PyQt5\\Qt5\\plugins\\platforms\\qwebgl.dll',
   'C:\\Users\\Samuel\\anaconda3\\envs\\py38cv4\\lib\\site-packages\\PyQt5\\Qt5\\plugins\\platforms\\qwebgl.dll',
   'BINARY'),
  ('PyQt5\\Qt5\\plugins\\platforms\\qminimal.dll',
   'C:\\Users\\Samuel\\anaconda3\\envs\\py38cv4\\lib\\site-packages\\PyQt5\\Qt5\\plugins\\platforms\\qminimal.dll',
   'BINARY'),
  ('PyQt5\\Qt5\\plugins\\imageformats\\qwbmp.dll',
   'C:\\Users\\Samuel\\anaconda3\\envs\\py38cv4\\lib\\site-packages\\PyQt5\\Qt5\\plugins\\imageformats\\qwbmp.dll',
   'BINARY'),
  ('PyQt5\\Qt5\\plugins\\imageformats\\qgif.dll',
   'C:\\Users\\Samuel\\anaconda3\\envs\\py38cv4\\lib\\site-packages\\PyQt5\\Qt5\\plugins\\imageformats\\qgif.dll',
   'BINARY'),
  ('PyQt5\\Qt5\\plugins\\imageformats\\qicns.dll',
   'C:\\Users\\Samuel\\anaconda3\\envs\\py38cv4\\lib\\site-packages\\PyQt5\\Qt5\\plugins\\imageformats\\qicns.dll',
   'BINARY'),
  ('PyQt5\\Qt5\\plugins\\imageformats\\qjpeg.dll',
   'C:\\Users\\Samuel\\anaconda3\\envs\\py38cv4\\lib\\site-packages\\PyQt5\\Qt5\\plugins\\imageformats\\qjpeg.dll',
   'BINARY'),
  ('PyQt5\\Qt5\\plugins\\imageformats\\qsvg.dll',
   'C:\\Users\\Samuel\\anaconda3\\envs\\py38cv4\\lib\\site-packages\\PyQt5\\Qt5\\plugins\\imageformats\\qsvg.dll',
   'BINARY'),
  ('PyQt5\\Qt5\\plugins\\generic\\qtuiotouchplugin.dll',
   'C:\\Users\\Samuel\\anaconda3\\envs\\py38cv4\\lib\\site-packages\\PyQt5\\Qt5\\plugins\\generic\\qtuiotouchplugin.dll',
   'BINARY'),
  ('PyQt5\\Qt5\\plugins\\platforms\\qoffscreen.dll',
   'C:\\Users\\Samuel\\anaconda3\\envs\\py38cv4\\lib\\site-packages\\PyQt5\\Qt5\\plugins\\platforms\\qoffscreen.dll',
   'BINARY'),
  ('PyQt5\\Qt5\\plugins\\imageformats\\qtiff.dll',
   'C:\\Users\\Samuel\\anaconda3\\envs\\py38cv4\\lib\\site-packages\\PyQt5\\Qt5\\plugins\\imageformats\\qtiff.dll',
   'BINARY'),
  ('PyQt5\\Qt5\\plugins\\imageformats\\qico.dll',
   'C:\\Users\\Samuel\\anaconda3\\envs\\py38cv4\\lib\\site-packages\\PyQt5\\Qt5\\plugins\\imageformats\\qico.dll',
   'BINARY'),
  ('PyQt5\\Qt5\\plugins\\platforms\\qwindows.dll',
   'C:\\Users\\Samuel\\anaconda3\\envs\\py38cv4\\lib\\site-packages\\PyQt5\\Qt5\\plugins\\platforms\\qwindows.dll',
   'BINARY'),
  ('PyQt5\\Qt5\\plugins\\iconengines\\qsvgicon.dll',
   'C:\\Users\\Samuel\\anaconda3\\envs\\py38cv4\\lib\\site-packages\\PyQt5\\Qt5\\plugins\\iconengines\\qsvgicon.dll',
   'BINARY'),
  ('PyQt5\\Qt5\\plugins\\imageformats\\qwebp.dll',
   'C:\\Users\\Samuel\\anaconda3\\envs\\py38cv4\\lib\\site-packages\\PyQt5\\Qt5\\plugins\\imageformats\\qwebp.dll',
   'BINARY'),
  ('PyQt5\\Qt5\\bin\\libEGL.dll',
   'C:\\Users\\Samuel\\anaconda3\\envs\\py38cv4\\Lib\\site-packages\\PyQt5\\Qt5\\bin\\libEGL.dll',
   'BINARY'),
  ('PyQt5\\Qt5\\bin\\opengl32sw.dll',
   'C:\\Users\\Samuel\\anaconda3\\envs\\py38cv4\\Lib\\site-packages\\PyQt5\\Qt5\\bin\\opengl32sw.dll',
   'BINARY'),
  ('PyQt5\\Qt5\\bin\\libGLESv2.dll',
   'C:\\Users\\Samuel\\anaconda3\\envs\\py38cv4\\Lib\\site-packages\\PyQt5\\Qt5\\bin\\libGLESv2.dll',
   'BINARY'),
  ('PyQt5\\Qt5\\bin\\d3dcompiler_47.dll',
   'C:\\Users\\Samuel\\anaconda3\\envs\\py38cv4\\Lib\\site-packages\\PyQt5\\Qt5\\bin\\d3dcompiler_47.dll',
   'BINARY'),
  ('libopenblas.FB5AE2TYXYH2IJRDKGDGQ3XBKLKTF43H.gfortran-win_amd64.dll',
   'C:\\Users\\Samuel\\anaconda3\\envs\\py38cv4\\lib\\site-packages\\numpy\\.libs\\libopenblas.FB5AE2TYXYH2IJRDKGDGQ3XBKLKTF43H.gfortran-win_amd64.dll',
   'BINARY'),
  ('cv2\\opencv_videoio_ffmpeg460_64.dll',
   'C:\\Users\\Samuel\\anaconda3\\envs\\py38cv4\\lib\\site-packages\\cv2\\opencv_videoio_ffmpeg460_64.dll',
   'BINARY'),
  ('select.pyd',
   'C:\\Users\\Samuel\\anaconda3\\envs\\py38cv4\\DLLs\\select.pyd',
   'EXTENSION'),
  ('_hashlib.pyd',
   'C:\\Users\\Samuel\\anaconda3\\envs\\py38cv4\\DLLs\\_hashlib.pyd',
   'EXTENSION'),
  ('_lzma.pyd',
   'C:\\Users\\Samuel\\anaconda3\\envs\\py38cv4\\DLLs\\_lzma.pyd',
   'EXTENSION'),
  ('_bz2.pyd',
   'C:\\Users\\Samuel\\anaconda3\\envs\\py38cv4\\DLLs\\_bz2.pyd',
   'EXTENSION'),
  ('pyexpat.pyd',
   'C:\\Users\\Samuel\\anaconda3\\envs\\py38cv4\\DLLs\\pyexpat.pyd',
   'EXTENSION'),
  ('_ssl.pyd',
   'C:\\Users\\Samuel\\anaconda3\\envs\\py38cv4\\DLLs\\_ssl.pyd',
   'EXTENSION'),
  ('unicodedata.pyd',
   'C:\\Users\\Samuel\\anaconda3\\envs\\py38cv4\\DLLs\\unicodedata.pyd',
   'EXTENSION'),
  ('_decimal.pyd',
   'C:\\Users\\Samuel\\anaconda3\\envs\\py38cv4\\DLLs\\_decimal.pyd',
   'EXTENSION'),
  ('_multiprocessing.pyd',
   'C:\\Users\\Samuel\\anaconda3\\envs\\py38cv4\\DLLs\\_multiprocessing.pyd',
   'EXTENSION'),
  ('_ctypes.pyd',
   'C:\\Users\\Samuel\\anaconda3\\envs\\py38cv4\\DLLs\\_ctypes.pyd',
   'EXTENSION'),
  ('_queue.pyd',
   'C:\\Users\\Samuel\\anaconda3\\envs\\py38cv4\\DLLs\\_queue.pyd',
   'EXTENSION'),
  ('PyQt5\\QtWidgets.pyd',
   'C:\\Users\\Samuel\\anaconda3\\envs\\py38cv4\\lib\\site-packages\\PyQt5\\QtWidgets.pyd',
   'EXTENSION'),
  ('PyQt5\\QtGui.pyd',
   'C:\\Users\\Samuel\\anaconda3\\envs\\py38cv4\\lib\\site-packages\\PyQt5\\QtGui.pyd',
   'EXTENSION'),
  ('PyQt5\\QtCore.pyd',
   'C:\\Users\\Samuel\\anaconda3\\envs\\py38cv4\\lib\\site-packages\\PyQt5\\QtCore.pyd',
   'EXTENSION'),
  ('PyQt5\\sip.cp39-win_amd64.pyd',
   'C:\\Users\\Samuel\\anaconda3\\envs\\py38cv4\\lib\\site-packages\\PyQt5\\sip.cp39-win_amd64.pyd',
   'EXTENSION'),
  ('mkl\\_py_mkl_service.cp39-win_amd64.pyd',
   'C:\\Users\\Samuel\\anaconda3\\envs\\py38cv4\\lib\\site-packages\\mkl\\_py_mkl_service.cp39-win_amd64.pyd',
   'EXTENSION'),
  ('mkl\\_mklinit.cp39-win_amd64.pyd',
   'C:\\Users\\Samuel\\anaconda3\\envs\\py38cv4\\lib\\site-packages\\mkl\\_mklinit.cp39-win_amd64.pyd',
   'EXTENSION'),
  ('numpy\\core\\_multiarray_tests.cp39-win_amd64.pyd',
   'C:\\Users\\Samuel\\anaconda3\\envs\\py38cv4\\lib\\site-packages\\numpy\\core\\_multiarray_tests.cp39-win_amd64.pyd',
   'EXTENSION'),
  ('psutil\\_psutil_windows.cp39-win_amd64.pyd',
   'C:\\Users\\Samuel\\anaconda3\\envs\\py38cv4\\lib\\site-packages\\psutil\\_psutil_windows.cp39-win_amd64.pyd',
   'EXTENSION'),
  ('numpy\\core\\_multiarray_umath.cp39-win_amd64.pyd',
   'C:\\Users\\Samuel\\anaconda3\\envs\\py38cv4\\lib\\site-packages\\numpy\\core\\_multiarray_umath.cp39-win_amd64.pyd',
   'EXTENSION'),
  ('win32\\win32pdh.pyd',
   'C:\\Users\\Samuel\\anaconda3\\envs\\py38cv4\\lib\\site-packages\\win32\\win32pdh.pyd',
   'EXTENSION'),
  ('numpy\\linalg\\lapack_lite.cp39-win_amd64.pyd',
   'C:\\Users\\Samuel\\anaconda3\\envs\\py38cv4\\lib\\site-packages\\numpy\\linalg\\lapack_lite.cp39-win_amd64.pyd',
   'EXTENSION'),
  ('_overlapped.pyd',
   'C:\\Users\\Samuel\\anaconda3\\envs\\py38cv4\\DLLs\\_overlapped.pyd',
   'EXTENSION'),
  ('_asyncio.pyd',
   'C:\\Users\\Samuel\\anaconda3\\envs\\py38cv4\\DLLs\\_asyncio.pyd',
   'EXTENSION'),
  ('numpy\\random\\mtrand.cp39-win_amd64.pyd',
   'C:\\Users\\Samuel\\anaconda3\\envs\\py38cv4\\lib\\site-packages\\numpy\\random\\mtrand.cp39-win_amd64.pyd',
   'EXTENSION'),
  ('numpy\\random\\_sfc64.cp39-win_amd64.pyd',
   'C:\\Users\\Samuel\\anaconda3\\envs\\py38cv4\\lib\\site-packages\\numpy\\random\\_sfc64.cp39-win_amd64.pyd',
   'EXTENSION'),
  ('numpy\\random\\_philox.cp39-win_amd64.pyd',
   'C:\\Users\\Samuel\\anaconda3\\envs\\py38cv4\\lib\\site-packages\\numpy\\random\\_philox.cp39-win_amd64.pyd',
   'EXTENSION'),
  ('numpy\\random\\_pcg64.cp39-win_amd64.pyd',
   'C:\\Users\\Samuel\\anaconda3\\envs\\py38cv4\\lib\\site-packages\\numpy\\random\\_pcg64.cp39-win_amd64.pyd',
   'EXTENSION'),
  ('numpy\\random\\_mt19937.cp39-win_amd64.pyd',
   'C:\\Users\\Samuel\\anaconda3\\envs\\py38cv4\\lib\\site-packages\\numpy\\random\\_mt19937.cp39-win_amd64.pyd',
   'EXTENSION'),
  ('numpy\\random\\bit_generator.cp39-win_amd64.pyd',
   'C:\\Users\\Samuel\\anaconda3\\envs\\py38cv4\\lib\\site-packages\\numpy\\random\\bit_generator.cp39-win_amd64.pyd',
   'EXTENSION'),
  ('numpy\\random\\_generator.cp39-win_amd64.pyd',
   'C:\\Users\\Samuel\\anaconda3\\envs\\py38cv4\\lib\\site-packages\\numpy\\random\\_generator.cp39-win_amd64.pyd',
   'EXTENSION'),
  ('numpy\\random\\_bounded_integers.cp39-win_amd64.pyd',
   'C:\\Users\\Samuel\\anaconda3\\envs\\py38cv4\\lib\\site-packages\\numpy\\random\\_bounded_integers.cp39-win_amd64.pyd',
   'EXTENSION'),
  ('numpy\\random\\_common.cp39-win_amd64.pyd',
   'C:\\Users\\Samuel\\anaconda3\\envs\\py38cv4\\lib\\site-packages\\numpy\\random\\_common.cp39-win_amd64.pyd',
   'EXTENSION'),
  ('numpy\\fft\\_pocketfft_internal.cp39-win_amd64.pyd',
   'C:\\Users\\Samuel\\anaconda3\\envs\\py38cv4\\lib\\site-packages\\numpy\\fft\\_pocketfft_internal.cp39-win_amd64.pyd',
   'EXTENSION'),
  ('numpy\\linalg\\_umath_linalg.cp39-win_amd64.pyd',
   'C:\\Users\\Samuel\\anaconda3\\envs\\py38cv4\\lib\\site-packages\\numpy\\linalg\\_umath_linalg.cp39-win_amd64.pyd',
   'EXTENSION'),
  ('cv2\\cv2.pyd',
   'C:\\Users\\Samuel\\anaconda3\\envs\\py38cv4\\lib\\site-packages\\cv2\\cv2.pyd',
   'EXTENSION'),
  ('_socket.pyd',
   'C:\\Users\\Samuel\\anaconda3\\envs\\py38cv4\\DLLs\\_socket.pyd',
   'EXTENSION'),
  ('libiomp5md.dll',
   'C:\\Users\\Samuel\\anaconda3\\Library\\bin\\libiomp5md.dll',
   'BINARY'),
  ('PyQt5\\Qt5\\bin\\Qt5Gui.dll',
   'C:\\Users\\Samuel\\anaconda3\\envs\\py38cv4\\lib\\site-packages\\PyQt5\\Qt5\\bin\\Qt5Gui.dll',
   'BINARY'),
  ('PyQt5\\Qt5\\bin\\Qt5Widgets.dll',
   'C:\\Users\\Samuel\\anaconda3\\envs\\py38cv4\\lib\\site-packages\\PyQt5\\Qt5\\bin\\Qt5Widgets.dll',
   'BINARY'),
  ('PyQt5\\Qt5\\bin\\Qt5Core.dll',
   'C:\\Users\\Samuel\\anaconda3\\envs\\py38cv4\\lib\\site-packages\\PyQt5\\Qt5\\bin\\Qt5Core.dll',
   'BINARY'),
  ('PyQt5\\Qt5\\bin\\VCRUNTIME140_1.dll',
   'C:\\Users\\Samuel\\anaconda3\\envs\\py38cv4\\lib\\site-packages\\PyQt5\\Qt5\\bin\\VCRUNTIME140_1.dll',
   'BINARY'),
  ('PyQt5\\Qt5\\bin\\VCRUNTIME140.dll',
   'C:\\Users\\Samuel\\anaconda3\\envs\\py38cv4\\lib\\site-packages\\PyQt5\\Qt5\\bin\\VCRUNTIME140.dll',
   'BINARY'),
  ('PyQt5\\Qt5\\bin\\Qt5DBus.dll',
   'C:\\Users\\Samuel\\anaconda3\\envs\\py38cv4\\lib\\site-packages\\PyQt5\\Qt5\\bin\\Qt5DBus.dll',
   'BINARY'),
  ('PyQt5\\Qt5\\bin\\MSVCP140.dll',
   'C:\\Users\\Samuel\\anaconda3\\envs\\py38cv4\\lib\\site-packages\\PyQt5\\Qt5\\bin\\MSVCP140.dll',
   'BINARY'),
  ('PyQt5\\Qt5\\bin\\Qt5Network.dll',
   'C:\\Users\\Samuel\\anaconda3\\envs\\py38cv4\\lib\\site-packages\\PyQt5\\Qt5\\bin\\Qt5Network.dll',
   'BINARY'),
  ('PyQt5\\Qt5\\bin\\Qt5WebSockets.dll',
   'C:\\Users\\Samuel\\anaconda3\\envs\\py38cv4\\lib\\site-packages\\PyQt5\\Qt5\\bin\\Qt5WebSockets.dll',
   'BINARY'),
  ('PyQt5\\Qt5\\bin\\Qt5Quick.dll',
   'C:\\Users\\Samuel\\anaconda3\\envs\\py38cv4\\lib\\site-packages\\PyQt5\\Qt5\\bin\\Qt5Quick.dll',
   'BINARY'),
  ('PyQt5\\Qt5\\bin\\Qt5Svg.dll',
   'C:\\Users\\Samuel\\anaconda3\\envs\\py38cv4\\lib\\site-packages\\PyQt5\\Qt5\\bin\\Qt5Svg.dll',
   'BINARY'),
  ('PyQt5\\Qt5\\bin\\libcrypto-1_1-x64.dll',
   'C:\\Users\\Samuel\\anaconda3\\envs\\py38cv4\\lib\\site-packages\\PyQt5\\Qt5\\bin\\libcrypto-1_1-x64.dll',
   'BINARY'),
  ('PyQt5\\Qt5\\bin\\libssl-1_1-x64.dll',
   'C:\\Users\\Samuel\\anaconda3\\envs\\py38cv4\\lib\\site-packages\\PyQt5\\Qt5\\bin\\libssl-1_1-x64.dll',
   'BINARY'),
  ('libffi-7.dll',
   'C:\\Users\\Samuel\\anaconda3\\envs\\py38cv4\\DLLs\\libffi-7.dll',
   'BINARY'),
  ('python3.dll',
   'C:\\Users\\Samuel\\anaconda3\\envs\\py38cv4\\python3.dll',
   'BINARY'),
  ('pywin32_system32\\pywintypes39.dll',
   'C:\\Users\\Samuel\\anaconda3\\envs\\py38cv4\\lib\\site-packages\\win32\\pywintypes39.dll',
   'BINARY'),
  ('PyQt5\\Qt5\\bin\\MSVCP140_1.dll',
   'C:\\Users\\Samuel\\anaconda3\\envs\\py38cv4\\lib\\site-packages\\PyQt5\\Qt5\\bin\\MSVCP140_1.dll',
   'BINARY'),
  ('PyQt5\\Qt5\\bin\\Qt5Qml.dll',
   'C:\\Users\\Samuel\\anaconda3\\envs\\py38cv4\\lib\\site-packages\\PyQt5\\Qt5\\bin\\Qt5Qml.dll',
   'BINARY'),
  ('PyQt5\\Qt5\\bin\\Qt5QmlModels.dll',
   'C:\\Users\\Samuel\\anaconda3\\envs\\py38cv4\\lib\\site-packages\\PyQt5\\Qt5\\bin\\Qt5QmlModels.dll',
   'BINARY')],
 [],
 [],
 [('base_library.zip',
   'C:\\Users\\Samuel\\Desktop\\uav_rail_tracking\\GUI\\build\\application\\base_library.zip',
   'DATA'),
  ('PyQt5\\Qt5\\translations\\qtbase_uk.qm',
   'C:\\Users\\Samuel\\anaconda3\\envs\\py38cv4\\lib\\site-packages\\PyQt5\\Qt5\\translations\\qtbase_uk.qm',
   'DATA'),
  ('PyQt5\\Qt5\\translations\\qt_es.qm',
   'C:\\Users\\Samuel\\anaconda3\\envs\\py38cv4\\lib\\site-packages\\PyQt5\\Qt5\\translations\\qt_es.qm',
   'DATA'),
  ('PyQt5\\Qt5\\translations\\qt_help_ar.qm',
   'C:\\Users\\Samuel\\anaconda3\\envs\\py38cv4\\lib\\site-packages\\PyQt5\\Qt5\\translations\\qt_help_ar.qm',
   'DATA'),
  ('PyQt5\\Qt5\\translations\\qt_help_de.qm',
   'C:\\Users\\Samuel\\anaconda3\\envs\\py38cv4\\lib\\site-packages\\PyQt5\\Qt5\\translations\\qt_help_de.qm',
   'DATA'),
  ('PyQt5\\Qt5\\translations\\qt_help_ja.qm',
   'C:\\Users\\Samuel\\anaconda3\\envs\\py38cv4\\lib\\site-packages\\PyQt5\\Qt5\\translations\\qt_help_ja.qm',
   'DATA'),
  ('PyQt5\\Qt5\\translations\\qt_help_sk.qm',
   'C:\\Users\\Samuel\\anaconda3\\envs\\py38cv4\\lib\\site-packages\\PyQt5\\Qt5\\translations\\qt_help_sk.qm',
   'DATA'),
  ('PyQt5\\Qt5\\translations\\qt_help_es.qm',
   'C:\\Users\\Samuel\\anaconda3\\envs\\py38cv4\\lib\\site-packages\\PyQt5\\Qt5\\translations\\qt_help_es.qm',
   'DATA'),
  ('PyQt5\\Qt5\\translations\\qtbase_zh_TW.qm',
   'C:\\Users\\Samuel\\anaconda3\\envs\\py38cv4\\lib\\site-packages\\PyQt5\\Qt5\\translations\\qtbase_zh_TW.qm',
   'DATA'),
  ('PyQt5\\Qt5\\translations\\qt_sk.qm',
   'C:\\Users\\Samuel\\anaconda3\\envs\\py38cv4\\lib\\site-packages\\PyQt5\\Qt5\\translations\\qt_sk.qm',
   'DATA'),
  ('PyQt5\\Qt5\\translations\\qt_tr.qm',
   'C:\\Users\\Samuel\\anaconda3\\envs\\py38cv4\\lib\\site-packages\\PyQt5\\Qt5\\translations\\qt_tr.qm',
   'DATA'),
  ('PyQt5\\Qt5\\translations\\qtbase_ru.qm',
   'C:\\Users\\Samuel\\anaconda3\\envs\\py38cv4\\lib\\site-packages\\PyQt5\\Qt5\\translations\\qtbase_ru.qm',
   'DATA'),
  ('PyQt5\\Qt5\\translations\\qt_ru.qm',
   'C:\\Users\\Samuel\\anaconda3\\envs\\py38cv4\\lib\\site-packages\\PyQt5\\Qt5\\translations\\qt_ru.qm',
   'DATA'),
  ('PyQt5\\Qt5\\translations\\qt_gl.qm',
   'C:\\Users\\Samuel\\anaconda3\\envs\\py38cv4\\lib\\site-packages\\PyQt5\\Qt5\\translations\\qt_gl.qm',
   'DATA'),
  ('PyQt5\\Qt5\\translations\\qtbase_ar.qm',
   'C:\\Users\\Samuel\\anaconda3\\envs\\py38cv4\\lib\\site-packages\\PyQt5\\Qt5\\translations\\qtbase_ar.qm',
   'DATA'),
  ('PyQt5\\Qt5\\translations\\qtbase_fi.qm',
   'C:\\Users\\Samuel\\anaconda3\\envs\\py38cv4\\lib\\site-packages\\PyQt5\\Qt5\\translations\\qtbase_fi.qm',
   'DATA'),
  ('PyQt5\\Qt5\\translations\\qt_help_fr.qm',
   'C:\\Users\\Samuel\\anaconda3\\envs\\py38cv4\\lib\\site-packages\\PyQt5\\Qt5\\translations\\qt_help_fr.qm',
   'DATA'),
  ('PyQt5\\Qt5\\translations\\qt_help_ca.qm',
   'C:\\Users\\Samuel\\anaconda3\\envs\\py38cv4\\lib\\site-packages\\PyQt5\\Qt5\\translations\\qt_help_ca.qm',
   'DATA'),
  ('PyQt5\\Qt5\\translations\\qtbase_ko.qm',
   'C:\\Users\\Samuel\\anaconda3\\envs\\py38cv4\\lib\\site-packages\\PyQt5\\Qt5\\translations\\qtbase_ko.qm',
   'DATA'),
  ('PyQt5\\Qt5\\translations\\qt_hu.qm',
   'C:\\Users\\Samuel\\anaconda3\\envs\\py38cv4\\lib\\site-packages\\PyQt5\\Qt5\\translations\\qt_hu.qm',
   'DATA'),
  ('PyQt5\\Qt5\\translations\\qt_lv.qm',
   'C:\\Users\\Samuel\\anaconda3\\envs\\py38cv4\\lib\\site-packages\\PyQt5\\Qt5\\translations\\qt_lv.qm',
   'DATA'),
  ('PyQt5\\Qt5\\translations\\qt_de.qm',
   'C:\\Users\\Samuel\\anaconda3\\envs\\py38cv4\\lib\\site-packages\\PyQt5\\Qt5\\translations\\qt_de.qm',
   'DATA'),
  ('PyQt5\\Qt5\\translations\\qt_help_uk.qm',
   'C:\\Users\\Samuel\\anaconda3\\envs\\py38cv4\\lib\\site-packages\\PyQt5\\Qt5\\translations\\qt_help_uk.qm',
   'DATA'),
  ('PyQt5\\Qt5\\translations\\qt_help_tr.qm',
   'C:\\Users\\Samuel\\anaconda3\\envs\\py38cv4\\lib\\site-packages\\PyQt5\\Qt5\\translations\\qt_help_tr.qm',
   'DATA'),
  ('PyQt5\\Qt5\\translations\\qtbase_he.qm',
   'C:\\Users\\Samuel\\anaconda3\\envs\\py38cv4\\lib\\site-packages\\PyQt5\\Qt5\\translations\\qtbase_he.qm',
   'DATA'),
  ('PyQt5\\Qt5\\translations\\qt_it.qm',
   'C:\\Users\\Samuel\\anaconda3\\envs\\py38cv4\\lib\\site-packages\\PyQt5\\Qt5\\translations\\qt_it.qm',
   'DATA'),
  ('PyQt5\\Qt5\\translations\\qt_ja.qm',
   'C:\\Users\\Samuel\\anaconda3\\envs\\py38cv4\\lib\\site-packages\\PyQt5\\Qt5\\translations\\qt_ja.qm',
   'DATA'),
  ('PyQt5\\Qt5\\translations\\qtbase_it.qm',
   'C:\\Users\\Samuel\\anaconda3\\envs\\py38cv4\\lib\\site-packages\\PyQt5\\Qt5\\translations\\qtbase_it.qm',
   'DATA'),
  ('PyQt5\\Qt5\\translations\\qtbase_tr.qm',
   'C:\\Users\\Samuel\\anaconda3\\envs\\py38cv4\\lib\\site-packages\\PyQt5\\Qt5\\translations\\qtbase_tr.qm',
   'DATA'),
  ('PyQt5\\Qt5\\translations\\qtbase_gd.qm',
   'C:\\Users\\Samuel\\anaconda3\\envs\\py38cv4\\lib\\site-packages\\PyQt5\\Qt5\\translations\\qtbase_gd.qm',
   'DATA'),
  ('PyQt5\\Qt5\\translations\\qt_ar.qm',
   'C:\\Users\\Samuel\\anaconda3\\envs\\py38cv4\\lib\\site-packages\\PyQt5\\Qt5\\translations\\qt_ar.qm',
   'DATA'),
  ('PyQt5\\Qt5\\translations\\qtbase_hu.qm',
   'C:\\Users\\Samuel\\anaconda3\\envs\\py38cv4\\lib\\site-packages\\PyQt5\\Qt5\\translations\\qtbase_hu.qm',
   'DATA'),
  ('PyQt5\\Qt5\\translations\\qt_help_sl.qm',
   'C:\\Users\\Samuel\\anaconda3\\envs\\py38cv4\\lib\\site-packages\\PyQt5\\Qt5\\translations\\qt_help_sl.qm',
   'DATA'),
  ('PyQt5\\Qt5\\translations\\qt_fa.qm',
   'C:\\Users\\Samuel\\anaconda3\\envs\\py38cv4\\lib\\site-packages\\PyQt5\\Qt5\\translations\\qt_fa.qm',
   'DATA'),
  ('PyQt5\\Qt5\\translations\\qtbase_cs.qm',
   'C:\\Users\\Samuel\\anaconda3\\envs\\py38cv4\\lib\\site-packages\\PyQt5\\Qt5\\translations\\qtbase_cs.qm',
   'DATA'),
  ('PyQt5\\Qt5\\translations\\qt_pt.qm',
   'C:\\Users\\Samuel\\anaconda3\\envs\\py38cv4\\lib\\site-packages\\PyQt5\\Qt5\\translations\\qt_pt.qm',
   'DATA'),
  ('PyQt5\\Qt5\\translations\\qt_fi.qm',
   'C:\\Users\\Samuel\\anaconda3\\envs\\py38cv4\\lib\\site-packages\\PyQt5\\Qt5\\translations\\qt_fi.qm',
   'DATA'),
  ('PyQt5\\Qt5\\translations\\qtbase_da.qm',
   'C:\\Users\\Samuel\\anaconda3\\envs\\py38cv4\\lib\\site-packages\\PyQt5\\Qt5\\translations\\qtbase_da.qm',
   'DATA'),
  ('PyQt5\\Qt5\\translations\\qt_pl.qm',
   'C:\\Users\\Samuel\\anaconda3\\envs\\py38cv4\\lib\\site-packages\\PyQt5\\Qt5\\translations\\qt_pl.qm',
   'DATA'),
  ('PyQt5\\Qt5\\translations\\qtbase_es.qm',
   'C:\\Users\\Samuel\\anaconda3\\envs\\py38cv4\\lib\\site-packages\\PyQt5\\Qt5\\translations\\qtbase_es.qm',
   'DATA'),
  ('PyQt5\\Qt5\\translations\\qt_help_en.qm',
   'C:\\Users\\Samuel\\anaconda3\\envs\\py38cv4\\lib\\site-packages\\PyQt5\\Qt5\\translations\\qt_help_en.qm',
   'DATA'),
  ('PyQt5\\Qt5\\translations\\qt_sv.qm',
   'C:\\Users\\Samuel\\anaconda3\\envs\\py38cv4\\lib\\site-packages\\PyQt5\\Qt5\\translations\\qt_sv.qm',
   'DATA'),
  ('PyQt5\\Qt5\\translations\\qt_help_ko.qm',
   'C:\\Users\\Samuel\\anaconda3\\envs\\py38cv4\\lib\\site-packages\\PyQt5\\Qt5\\translations\\qt_help_ko.qm',
   'DATA'),
  ('PyQt5\\Qt5\\translations\\qtbase_fr.qm',
   'C:\\Users\\Samuel\\anaconda3\\envs\\py38cv4\\lib\\site-packages\\PyQt5\\Qt5\\translations\\qtbase_fr.qm',
   'DATA'),
  ('PyQt5\\Qt5\\translations\\qt_fr.qm',
   'C:\\Users\\Samuel\\anaconda3\\envs\\py38cv4\\lib\\site-packages\\PyQt5\\Qt5\\translations\\qt_fr.qm',
   'DATA'),
  ('PyQt5\\Qt5\\translations\\qtbase_pl.qm',
   'C:\\Users\\Samuel\\anaconda3\\envs\\py38cv4\\lib\\site-packages\\PyQt5\\Qt5\\translations\\qtbase_pl.qm',
   'DATA'),
  ('PyQt5\\Qt5\\translations\\qt_zh_TW.qm',
   'C:\\Users\\Samuel\\anaconda3\\envs\\py38cv4\\lib\\site-packages\\PyQt5\\Qt5\\translations\\qt_zh_TW.qm',
   'DATA'),
  ('PyQt5\\Qt5\\translations\\qt_ko.qm',
   'C:\\Users\\Samuel\\anaconda3\\envs\\py38cv4\\lib\\site-packages\\PyQt5\\Qt5\\translations\\qt_ko.qm',
   'DATA'),
  ('PyQt5\\Qt5\\translations\\qtbase_de.qm',
   'C:\\Users\\Samuel\\anaconda3\\envs\\py38cv4\\lib\\site-packages\\PyQt5\\Qt5\\translations\\qtbase_de.qm',
   'DATA'),
  ('PyQt5\\Qt5\\translations\\qt_lt.qm',
   'C:\\Users\\Samuel\\anaconda3\\envs\\py38cv4\\lib\\site-packages\\PyQt5\\Qt5\\translations\\qt_lt.qm',
   'DATA'),
  ('PyQt5\\Qt5\\translations\\qt_zh_CN.qm',
   'C:\\Users\\Samuel\\anaconda3\\envs\\py38cv4\\lib\\site-packages\\PyQt5\\Qt5\\translations\\qt_zh_CN.qm',
   'DATA'),
  ('PyQt5\\Qt5\\translations\\qt_help_hu.qm',
   'C:\\Users\\Samuel\\anaconda3\\envs\\py38cv4\\lib\\site-packages\\PyQt5\\Qt5\\translations\\qt_help_hu.qm',
   'DATA'),
  ('PyQt5\\Qt5\\translations\\qt_help_zh_CN.qm',
   'C:\\Users\\Samuel\\anaconda3\\envs\\py38cv4\\lib\\site-packages\\PyQt5\\Qt5\\translations\\qt_help_zh_CN.qm',
   'DATA'),
  ('PyQt5\\Qt5\\translations\\qt_da.qm',
   'C:\\Users\\Samuel\\anaconda3\\envs\\py38cv4\\lib\\site-packages\\PyQt5\\Qt5\\translations\\qt_da.qm',
   'DATA'),
  ('PyQt5\\Qt5\\translations\\qtbase_en.qm',
   'C:\\Users\\Samuel\\anaconda3\\envs\\py38cv4\\lib\\site-packages\\PyQt5\\Qt5\\translations\\qtbase_en.qm',
   'DATA'),
  ('PyQt5\\Qt5\\translations\\qt_help_gl.qm',
   'C:\\Users\\Samuel\\anaconda3\\envs\\py38cv4\\lib\\site-packages\\PyQt5\\Qt5\\translations\\qt_help_gl.qm',
   'DATA'),
  ('PyQt5\\Qt5\\translations\\qt_gd.qm',
   'C:\\Users\\Samuel\\anaconda3\\envs\\py38cv4\\lib\\site-packages\\PyQt5\\Qt5\\translations\\qt_gd.qm',
   'DATA'),
  ('PyQt5\\Qt5\\translations\\qt_help_zh_TW.qm',
   'C:\\Users\\Samuel\\anaconda3\\envs\\py38cv4\\lib\\site-packages\\PyQt5\\Qt5\\translations\\qt_help_zh_TW.qm',
   'DATA'),
  ('PyQt5\\Qt5\\translations\\qt_en.qm',
   'C:\\Users\\Samuel\\anaconda3\\envs\\py38cv4\\lib\\site-packages\\PyQt5\\Qt5\\translations\\qt_en.qm',
   'DATA'),
  ('PyQt5\\Qt5\\translations\\qt_help_pl.qm',
   'C:\\Users\\Samuel\\anaconda3\\envs\\py38cv4\\lib\\site-packages\\PyQt5\\Qt5\\translations\\qt_help_pl.qm',
   'DATA'),
  ('PyQt5\\Qt5\\translations\\qt_uk.qm',
   'C:\\Users\\Samuel\\anaconda3\\envs\\py38cv4\\lib\\site-packages\\PyQt5\\Qt5\\translations\\qt_uk.qm',
   'DATA'),
  ('PyQt5\\Qt5\\translations\\qt_help_bg.qm',
   'C:\\Users\\Samuel\\anaconda3\\envs\\py38cv4\\lib\\site-packages\\PyQt5\\Qt5\\translations\\qt_help_bg.qm',
   'DATA'),
  ('PyQt5\\Qt5\\translations\\qtbase_bg.qm',
   'C:\\Users\\Samuel\\anaconda3\\envs\\py38cv4\\lib\\site-packages\\PyQt5\\Qt5\\translations\\qtbase_bg.qm',
   'DATA'),
  ('PyQt5\\Qt5\\translations\\qt_help_it.qm',
   'C:\\Users\\Samuel\\anaconda3\\envs\\py38cv4\\lib\\site-packages\\PyQt5\\Qt5\\translations\\qt_help_it.qm',
   'DATA'),
  ('PyQt5\\Qt5\\translations\\qt_cs.qm',
   'C:\\Users\\Samuel\\anaconda3\\envs\\py38cv4\\lib\\site-packages\\PyQt5\\Qt5\\translations\\qt_cs.qm',
   'DATA'),
  ('PyQt5\\Qt5\\translations\\qt_he.qm',
   'C:\\Users\\Samuel\\anaconda3\\envs\\py38cv4\\lib\\site-packages\\PyQt5\\Qt5\\translations\\qt_he.qm',
   'DATA'),
  ('PyQt5\\Qt5\\translations\\qt_help_da.qm',
   'C:\\Users\\Samuel\\anaconda3\\envs\\py38cv4\\lib\\site-packages\\PyQt5\\Qt5\\translations\\qt_help_da.qm',
   'DATA'),
  ('PyQt5\\Qt5\\translations\\qt_help_ru.qm',
   'C:\\Users\\Samuel\\anaconda3\\envs\\py38cv4\\lib\\site-packages\\PyQt5\\Qt5\\translations\\qt_help_ru.qm',
   'DATA'),
  ('PyQt5\\Qt5\\translations\\qtbase_ja.qm',
   'C:\\Users\\Samuel\\anaconda3\\envs\\py38cv4\\lib\\site-packages\\PyQt5\\Qt5\\translations\\qtbase_ja.qm',
   'DATA'),
  ('PyQt5\\Qt5\\translations\\qtbase_sk.qm',
   'C:\\Users\\Samuel\\anaconda3\\envs\\py38cv4\\lib\\site-packages\\PyQt5\\Qt5\\translations\\qtbase_sk.qm',
   'DATA'),
  ('PyQt5\\Qt5\\translations\\qtbase_lv.qm',
   'C:\\Users\\Samuel\\anaconda3\\envs\\py38cv4\\lib\\site-packages\\PyQt5\\Qt5\\translations\\qtbase_lv.qm',
   'DATA'),
  ('PyQt5\\Qt5\\translations\\qt_sl.qm',
   'C:\\Users\\Samuel\\anaconda3\\envs\\py38cv4\\lib\\site-packages\\PyQt5\\Qt5\\translations\\qt_sl.qm',
   'DATA'),
  ('PyQt5\\Qt5\\translations\\qtbase_ca.qm',
   'C:\\Users\\Samuel\\anaconda3\\envs\\py38cv4\\lib\\site-packages\\PyQt5\\Qt5\\translations\\qtbase_ca.qm',
   'DATA'),
  ('PyQt5\\Qt5\\translations\\qt_help_cs.qm',
   'C:\\Users\\Samuel\\anaconda3\\envs\\py38cv4\\lib\\site-packages\\PyQt5\\Qt5\\translations\\qt_help_cs.qm',
   'DATA'),
  ('PyQt5\\Qt5\\translations\\qt_bg.qm',
   'C:\\Users\\Samuel\\anaconda3\\envs\\py38cv4\\lib\\site-packages\\PyQt5\\Qt5\\translations\\qt_bg.qm',
   'DATA'),
  ('PyQt5\\Qt5\\translations\\qt_ca.qm',
   'C:\\Users\\Samuel\\anaconda3\\envs\\py38cv4\\lib\\site-packages\\PyQt5\\Qt5\\translations\\qt_ca.qm',
   'DATA'),
  ('cv2\\load_config_py3.py',
   'C:\\Users\\Samuel\\anaconda3\\envs\\py38cv4\\lib\\site-packages\\cv2\\load_config_py3.py',
   'DATA'),
  ('cv2\\config-3.py',
   'C:\\Users\\Samuel\\anaconda3\\envs\\py38cv4\\lib\\site-packages\\cv2\\config-3.py',
   'DATA'),
  ('cv2\\config.py',
   'C:\\Users\\Samuel\\anaconda3\\envs\\py38cv4\\lib\\site-packages\\cv2\\config.py',
   'DATA'),
  ('cv2\\__init__.py',
   'C:\\Users\\Samuel\\anaconda3\\envs\\py38cv4\\lib\\site-packages\\cv2\\__init__.py',
   'DATA'),
  ('cv2\\version.py',
   'C:\\Users\\Samuel\\anaconda3\\envs\\py38cv4\\lib\\site-packages\\cv2\\version.py',
   'DATA'),
  ('cv2\\utils\\__init__.py',
   'C:\\Users\\Samuel\\anaconda3\\envs\\py38cv4\\lib\\site-packages\\cv2\\utils\\__init__.py',
   'DATA'),
  ('cv2\\misc\\version.py',
   'C:\\Users\\Samuel\\anaconda3\\envs\\py38cv4\\lib\\site-packages\\cv2\\misc\\version.py',
   'DATA'),
  ('cv2\\misc\\__init__.py',
   'C:\\Users\\Samuel\\anaconda3\\envs\\py38cv4\\lib\\site-packages\\cv2\\misc\\__init__.py',
   'DATA'),
  ('cv2\\mat_wrapper\\__init__.py',
   'C:\\Users\\Samuel\\anaconda3\\envs\\py38cv4\\lib\\site-packages\\cv2\\mat_wrapper\\__init__.py',
   'DATA'),
  ('cv2\\gapi\\__init__.py',
   'C:\\Users\\Samuel\\anaconda3\\envs\\py38cv4\\lib\\site-packages\\cv2\\gapi\\__init__.py',
   'DATA'),
  ('cv2\\data\\__init__.py',
   'C:\\Users\\Samuel\\anaconda3\\envs\\py38cv4\\lib\\site-packages\\cv2\\data\\__init__.py',
   'DATA')])
