('C:\\Users\\Samuel\\Desktop\\uav_rail_tracking\\GUI\\build\\application\\application.pkg',
 {'BINARY': True,
  'DATA': True,
  'EXECUTABLE': True,
  'EXTENSION': True,
  'PYMODULE': True,
  'PYSOURCE': True,
  'PYZ': False,
  'SPLASH': True,
  'SYMLINK': False},
 [('pyi-contents-directory _internal', '', 'OPTION'),
  ('PYZ-00.pyz',
   'C:\\Users\\Samuel\\Desktop\\uav_rail_tracking\\GUI\\build\\application\\PYZ-00.pyz',
   'PYZ'),
  ('struct',
   'C:\\Users\\Samuel\\Desktop\\uav_rail_tracking\\GUI\\build\\application\\localpycs\\struct.pyc',
   'PYMODULE'),
  ('pyimod01_archive',
   'C:\\Users\\Samuel\\Desktop\\uav_rail_tracking\\GUI\\build\\application\\localpycs\\pyimod01_archive.pyc',
   'PYMODULE'),
  ('pyimod02_importers',
   'C:\\Users\\Samuel\\Desktop\\uav_rail_tracking\\GUI\\build\\application\\localpycs\\pyimod02_importers.pyc',
   'PYMODULE'),
  ('pyimod03_ctypes',
   'C:\\Users\\Samuel\\Desktop\\uav_rail_tracking\\GUI\\build\\application\\localpycs\\pyimod03_ctypes.pyc',
   'PYMODULE'),
  ('pyimod04_pywin32',
   'C:\\Users\\Samuel\\Desktop\\uav_rail_tracking\\GUI\\build\\application\\localpycs\\pyimod04_pywin32.pyc',
   'PYMODULE'),
  ('pyiboot01_bootstrap',
   'C:\\Users\\Samuel\\anaconda3\\envs\\py38cv4\\lib\\site-packages\\PyInstaller\\loader\\pyiboot01_bootstrap.py',
   'PYSOURCE'),
  ('pyi_rth_pyqt5',
   'C:\\Users\\Samuel\\anaconda3\\envs\\py38cv4\\Lib\\site-packages\\PyInstaller\\hooks\\rthooks\\pyi_rth_pyqt5.py',
   'PYSOURCE'),
  ('pyi_rth_pkgutil',
   'C:\\Users\\Samuel\\anaconda3\\envs\\py38cv4\\Lib\\site-packages\\PyInstaller\\hooks\\rthooks\\pyi_rth_pkgutil.py',
   'PYSOURCE'),
  ('pyi_rth_inspect',
   'C:\\Users\\Samuel\\anaconda3\\envs\\py38cv4\\Lib\\site-packages\\PyInstaller\\hooks\\rthooks\\pyi_rth_inspect.py',
   'PYSOURCE'),
  ('pyi_rth_multiprocessing',
   'C:\\Users\\Samuel\\anaconda3\\envs\\py38cv4\\Lib\\site-packages\\PyInstaller\\hooks\\rthooks\\pyi_rth_multiprocessing.py',
   'PYSOURCE'),
  ('application',
   'C:\\Users\\Samuel\\Desktop\\uav_rail_tracking\\GUI\\application.py',
   'PYSOURCE'),
  ('GCS',
   'C:\\Users\\Samuel\\Desktop\\uav_rail_tracking\\GUI\\GCS.py',
   'PYSOURCE'),
  ('msvcp140_codecvt_ids.dll',
   'C:\\Users\\Samuel\\anaconda3\\envs\\py38cv4\\Library\\bin\\msvcp140_codecvt_ids.dll',
   'BINARY'),
  ('libcrypto-1_1-x64.dll',
   'C:\\Users\\Samuel\\anaconda3\\envs\\py38cv4\\Library\\bin\\libcrypto-1_1-x64.dll',
   'BINARY'),
  ('api-ms-win-core-memory-l1-1-0.dll',
   'C:\\Users\\Samuel\\anaconda3\\envs\\py38cv4\\Library\\bin\\api-ms-win-core-memory-l1-1-0.dll',
   'BINARY'),
  ('api-ms-win-core-console-l1-1-0.dll',
   'C:\\Users\\Samuel\\anaconda3\\envs\\py38cv4\\Library\\bin\\api-ms-win-core-console-l1-1-0.dll',
   'BINARY'),
  ('api-ms-win-core-interlocked-l1-1-0.dll',
   'C:\\Users\\Samuel\\anaconda3\\envs\\py38cv4\\Library\\bin\\api-ms-win-core-interlocked-l1-1-0.dll',
   'BINARY'),
  ('mkl_vml_cmpt.1.dll',
   'C:\\Users\\Samuel\\anaconda3\\envs\\py38cv4\\Library\\bin\\mkl_vml_cmpt.1.dll',
   'BINARY'),
  ('api-ms-win-crt-time-l1-1-0.dll',
   'C:\\Users\\Samuel\\anaconda3\\envs\\py38cv4\\Library\\bin\\api-ms-win-crt-time-l1-1-0.dll',
   'BINARY'),
  ('mkl_blacs_intelmpi_lp64.1.dll',
   'C:\\Users\\Samuel\\anaconda3\\envs\\py38cv4\\Library\\bin\\mkl_blacs_intelmpi_lp64.1.dll',
   'BINARY'),
  ('api-ms-win-core-libraryloader-l1-1-0.dll',
   'C:\\Users\\Samuel\\anaconda3\\envs\\py38cv4\\Library\\bin\\api-ms-win-core-libraryloader-l1-1-0.dll',
   'BINARY'),
  ('mkl_vml_avx2.1.dll',
   'C:\\Users\\Samuel\\anaconda3\\envs\\py38cv4\\Library\\bin\\mkl_vml_avx2.1.dll',
   'BINARY'),
  ('libiompstubs5md.dll',
   'C:\\Users\\Samuel\\anaconda3\\envs\\py38cv4\\Library\\bin\\libiompstubs5md.dll',
   'BINARY'),
  ('mkl_tbb_thread.1.dll',
   'C:\\Users\\Samuel\\anaconda3\\envs\\py38cv4\\Library\\bin\\mkl_tbb_thread.1.dll',
   'BINARY'),
  ('ucrtbase.dll',
   'C:\\Users\\Samuel\\anaconda3\\envs\\py38cv4\\Library\\bin\\ucrtbase.dll',
   'BINARY'),
  ('mkl_def.1.dll',
   'C:\\Users\\Samuel\\anaconda3\\envs\\py38cv4\\Library\\bin\\mkl_def.1.dll',
   'BINARY'),
  ('mkl_avx2.1.dll',
   'C:\\Users\\Samuel\\anaconda3\\envs\\py38cv4\\Library\\bin\\mkl_avx2.1.dll',
   'BINARY'),
  ('api-ms-win-core-file-l1-1-0.dll',
   'C:\\Users\\Samuel\\anaconda3\\envs\\py38cv4\\Library\\bin\\api-ms-win-core-file-l1-1-0.dll',
   'BINARY'),
  ('msvcp140_2.dll',
   'C:\\Users\\Samuel\\anaconda3\\envs\\py38cv4\\Library\\bin\\msvcp140_2.dll',
   'BINARY'),
  ('msvcp140_1.dll',
   'C:\\Users\\Samuel\\anaconda3\\envs\\py38cv4\\Library\\bin\\msvcp140_1.dll',
   'BINARY'),
  ('mkl_avx512.1.dll',
   'C:\\Users\\Samuel\\anaconda3\\envs\\py38cv4\\Library\\bin\\mkl_avx512.1.dll',
   'BINARY'),
  ('mkl_blacs_lp64.1.dll',
   'C:\\Users\\Samuel\\anaconda3\\envs\\py38cv4\\Library\\bin\\mkl_blacs_lp64.1.dll',
   'BINARY'),
  ('mkl_blacs_mpich2_lp64.1.dll',
   'C:\\Users\\Samuel\\anaconda3\\envs\\py38cv4\\Library\\bin\\mkl_blacs_mpich2_lp64.1.dll',
   'BINARY'),
  ('libimalloc.dll',
   'C:\\Users\\Samuel\\anaconda3\\envs\\py38cv4\\Library\\bin\\libimalloc.dll',
   'BINARY'),
  ('api-ms-win-core-synch-l1-2-0.dll',
   'C:\\Users\\Samuel\\anaconda3\\envs\\py38cv4\\Library\\bin\\api-ms-win-core-synch-l1-2-0.dll',
   'BINARY'),
  ('api-ms-win-core-file-l2-1-0.dll',
   'C:\\Users\\Samuel\\anaconda3\\envs\\py38cv4\\Library\\bin\\api-ms-win-core-file-l2-1-0.dll',
   'BINARY'),
  ('api-ms-win-crt-utility-l1-1-0.dll',
   'C:\\Users\\Samuel\\anaconda3\\envs\\py38cv4\\Library\\bin\\api-ms-win-crt-utility-l1-1-0.dll',
   'BINARY'),
  ('mkl_rt.1.dll',
   'C:\\Users\\Samuel\\anaconda3\\envs\\py38cv4\\Library\\bin\\mkl_rt.1.dll',
   'BINARY'),
  ('mkl_mc3.1.dll',
   'C:\\Users\\Samuel\\anaconda3\\envs\\py38cv4\\Library\\bin\\mkl_mc3.1.dll',
   'BINARY'),
  ('mkl_vml_mc.1.dll',
   'C:\\Users\\Samuel\\anaconda3\\envs\\py38cv4\\Library\\bin\\mkl_vml_mc.1.dll',
   'BINARY'),
  ('api-ms-win-core-namedpipe-l1-1-0.dll',
   'C:\\Users\\Samuel\\anaconda3\\envs\\py38cv4\\Library\\bin\\api-ms-win-core-namedpipe-l1-1-0.dll',
   'BINARY'),
  ('api-ms-win-core-errorhandling-l1-1-0.dll',
   'C:\\Users\\Samuel\\anaconda3\\envs\\py38cv4\\Library\\bin\\api-ms-win-core-errorhandling-l1-1-0.dll',
   'BINARY'),
  ('api-ms-win-crt-convert-l1-1-0.dll',
   'C:\\Users\\Samuel\\anaconda3\\envs\\py38cv4\\Library\\bin\\api-ms-win-crt-convert-l1-1-0.dll',
   'BINARY'),
  ('api-ms-win-core-rtlsupport-l1-1-0.dll',
   'C:\\Users\\Samuel\\anaconda3\\envs\\py38cv4\\Library\\bin\\api-ms-win-core-rtlsupport-l1-1-0.dll',
   'BINARY'),
  ('mkl_blacs_mpich2_ilp64.1.dll',
   'C:\\Users\\Samuel\\anaconda3\\envs\\py38cv4\\Library\\bin\\mkl_blacs_mpich2_ilp64.1.dll',
   'BINARY'),
  ('api-ms-win-crt-runtime-l1-1-0.dll',
   'C:\\Users\\Samuel\\anaconda3\\envs\\py38cv4\\Library\\bin\\api-ms-win-crt-runtime-l1-1-0.dll',
   'BINARY'),
  ('api-ms-win-core-processthreads-l1-1-0.dll',
   'C:\\Users\\Samuel\\anaconda3\\envs\\py38cv4\\Library\\bin\\api-ms-win-core-processthreads-l1-1-0.dll',
   'BINARY'),
  ('api-ms-win-core-string-l1-1-0.dll',
   'C:\\Users\\Samuel\\anaconda3\\envs\\py38cv4\\Library\\bin\\api-ms-win-core-string-l1-1-0.dll',
   'BINARY'),
  ('mkl_msg.dll',
   'C:\\Users\\Samuel\\anaconda3\\envs\\py38cv4\\Library\\bin\\mkl_msg.dll',
   'BINARY'),
  ('mkl_vml_mc3.1.dll',
   'C:\\Users\\Samuel\\anaconda3\\envs\\py38cv4\\Library\\bin\\mkl_vml_mc3.1.dll',
   'BINARY'),
  ('mkl_cdft_core.1.dll',
   'C:\\Users\\Samuel\\anaconda3\\envs\\py38cv4\\Library\\bin\\mkl_cdft_core.1.dll',
   'BINARY'),
  ('mkl_blacs_msmpi_lp64.1.dll',
   'C:\\Users\\Samuel\\anaconda3\\envs\\py38cv4\\Library\\bin\\mkl_blacs_msmpi_lp64.1.dll',
   'BINARY'),
  ('mkl_blacs_ilp64.1.dll',
   'C:\\Users\\Samuel\\anaconda3\\envs\\py38cv4\\Library\\bin\\mkl_blacs_ilp64.1.dll',
   'BINARY'),
  ('api-ms-win-core-processenvironment-l1-1-0.dll',
   'C:\\Users\\Samuel\\anaconda3\\envs\\py38cv4\\Library\\bin\\api-ms-win-core-processenvironment-l1-1-0.dll',
   'BINARY'),
  ('api-ms-win-crt-filesystem-l1-1-0.dll',
   'C:\\Users\\Samuel\\anaconda3\\envs\\py38cv4\\Library\\bin\\api-ms-win-crt-filesystem-l1-1-0.dll',
   'BINARY'),
  ('api-ms-win-core-handle-l1-1-0.dll',
   'C:\\Users\\Samuel\\anaconda3\\envs\\py38cv4\\Library\\bin\\api-ms-win-core-handle-l1-1-0.dll',
   'BINARY'),
  ('api-ms-win-core-localization-l1-2-0.dll',
   'C:\\Users\\Samuel\\anaconda3\\envs\\py38cv4\\Library\\bin\\api-ms-win-core-localization-l1-2-0.dll',
   'BINARY'),
  ('mkl_vml_mc2.1.dll',
   'C:\\Users\\Samuel\\anaconda3\\envs\\py38cv4\\Library\\bin\\mkl_vml_mc2.1.dll',
   'BINARY'),
  ('api-ms-win-crt-math-l1-1-0.dll',
   'C:\\Users\\Samuel\\anaconda3\\envs\\py38cv4\\Library\\bin\\api-ms-win-crt-math-l1-1-0.dll',
   'BINARY'),
  ('vcruntime140_1.dll',
   'C:\\Users\\Samuel\\anaconda3\\envs\\py38cv4\\Library\\bin\\vcruntime140_1.dll',
   'BINARY'),
  ('api-ms-win-core-synch-l1-1-0.dll',
   'C:\\Users\\Samuel\\anaconda3\\envs\\py38cv4\\Library\\bin\\api-ms-win-core-synch-l1-1-0.dll',
   'BINARY'),
  ('api-ms-win-core-sysinfo-l1-1-0.dll',
   'C:\\Users\\Samuel\\anaconda3\\envs\\py38cv4\\Library\\bin\\api-ms-win-core-sysinfo-l1-1-0.dll',
   'BINARY'),
  ('api-ms-win-crt-environment-l1-1-0.dll',
   'C:\\Users\\Samuel\\anaconda3\\envs\\py38cv4\\Library\\bin\\api-ms-win-crt-environment-l1-1-0.dll',
   'BINARY'),
  ('api-ms-win-core-processthreads-l1-1-1.dll',
   'C:\\Users\\Samuel\\anaconda3\\envs\\py38cv4\\Library\\bin\\api-ms-win-core-processthreads-l1-1-1.dll',
   'BINARY'),
  ('api-ms-win-crt-conio-l1-1-0.dll',
   'C:\\Users\\Samuel\\anaconda3\\envs\\py38cv4\\Library\\bin\\api-ms-win-crt-conio-l1-1-0.dll',
   'BINARY'),
  ('api-ms-win-crt-string-l1-1-0.dll',
   'C:\\Users\\Samuel\\anaconda3\\envs\\py38cv4\\Library\\bin\\api-ms-win-crt-string-l1-1-0.dll',
   'BINARY'),
  ('omptarget.rtl.level0.dll',
   'C:\\Users\\Samuel\\anaconda3\\envs\\py38cv4\\Library\\bin\\omptarget.rtl.level0.dll',
   'BINARY'),
  ('mkl_blacs_intelmpi_ilp64.1.dll',
   'C:\\Users\\Samuel\\anaconda3\\envs\\py38cv4\\Library\\bin\\mkl_blacs_intelmpi_ilp64.1.dll',
   'BINARY'),
  ('api-ms-win-core-util-l1-1-0.dll',
   'C:\\Users\\Samuel\\anaconda3\\envs\\py38cv4\\Library\\bin\\api-ms-win-core-util-l1-1-0.dll',
   'BINARY'),
  ('mkl_scalapack_lp64.1.dll',
   'C:\\Users\\Samuel\\anaconda3\\envs\\py38cv4\\Library\\bin\\mkl_scalapack_lp64.1.dll',
   'BINARY'),
  ('libssl-1_1-x64.dll',
   'C:\\Users\\Samuel\\anaconda3\\envs\\py38cv4\\Library\\bin\\libssl-1_1-x64.dll',
   'BINARY'),
  ('vcomp140.dll',
   'C:\\Users\\Samuel\\anaconda3\\envs\\py38cv4\\Library\\bin\\vcomp140.dll',
   'BINARY'),
  ('api-ms-win-core-heap-l1-1-0.dll',
   'C:\\Users\\Samuel\\anaconda3\\envs\\py38cv4\\Library\\bin\\api-ms-win-core-heap-l1-1-0.dll',
   'BINARY'),
  ('api-ms-win-crt-private-l1-1-0.dll',
   'C:\\Users\\Samuel\\anaconda3\\envs\\py38cv4\\Library\\bin\\api-ms-win-crt-private-l1-1-0.dll',
   'BINARY'),
  ('api-ms-win-crt-heap-l1-1-0.dll',
   'C:\\Users\\Samuel\\anaconda3\\envs\\py38cv4\\Library\\bin\\api-ms-win-crt-heap-l1-1-0.dll',
   'BINARY'),
  ('api-ms-win-crt-locale-l1-1-0.dll',
   'C:\\Users\\Samuel\\anaconda3\\envs\\py38cv4\\Library\\bin\\api-ms-win-crt-locale-l1-1-0.dll',
   'BINARY'),
  ('msvcp140.dll',
   'C:\\Users\\Samuel\\anaconda3\\envs\\py38cv4\\Library\\bin\\msvcp140.dll',
   'BINARY'),
  ('mkl_avx.1.dll',
   'C:\\Users\\Samuel\\anaconda3\\envs\\py38cv4\\Library\\bin\\mkl_avx.1.dll',
   'BINARY'),
  ('omptarget.dll',
   'C:\\Users\\Samuel\\anaconda3\\envs\\py38cv4\\Library\\bin\\omptarget.dll',
   'BINARY'),
  ('vcruntime140.dll',
   'C:\\Users\\Samuel\\anaconda3\\envs\\py38cv4\\Library\\bin\\vcruntime140.dll',
   'BINARY'),
  ('api-ms-win-crt-stdio-l1-1-0.dll',
   'C:\\Users\\Samuel\\anaconda3\\envs\\py38cv4\\Library\\bin\\api-ms-win-crt-stdio-l1-1-0.dll',
   'BINARY'),
  ('api-ms-win-core-datetime-l1-1-0.dll',
   'C:\\Users\\Samuel\\anaconda3\\envs\\py38cv4\\Library\\bin\\api-ms-win-core-datetime-l1-1-0.dll',
   'BINARY'),
  ('mkl_vml_avx.1.dll',
   'C:\\Users\\Samuel\\anaconda3\\envs\\py38cv4\\Library\\bin\\mkl_vml_avx.1.dll',
   'BINARY'),
  ('concrt140.dll',
   'C:\\Users\\Samuel\\anaconda3\\envs\\py38cv4\\Library\\bin\\concrt140.dll',
   'BINARY'),
  ('api-ms-win-core-profile-l1-1-0.dll',
   'C:\\Users\\Samuel\\anaconda3\\envs\\py38cv4\\Library\\bin\\api-ms-win-core-profile-l1-1-0.dll',
   'BINARY'),
  ('api-ms-win-core-file-l1-2-0.dll',
   'C:\\Users\\Samuel\\anaconda3\\envs\\py38cv4\\Library\\bin\\api-ms-win-core-file-l1-2-0.dll',
   'BINARY'),
  ('api-ms-win-crt-multibyte-l1-1-0.dll',
   'C:\\Users\\Samuel\\anaconda3\\envs\\py38cv4\\Library\\bin\\api-ms-win-crt-multibyte-l1-1-0.dll',
   'BINARY'),
  ('mkl_blacs_msmpi_ilp64.1.dll',
   'C:\\Users\\Samuel\\anaconda3\\envs\\py38cv4\\Library\\bin\\mkl_blacs_msmpi_ilp64.1.dll',
   'BINARY'),
  ('mkl_sequential.1.dll',
   'C:\\Users\\Samuel\\anaconda3\\envs\\py38cv4\\Library\\bin\\mkl_sequential.1.dll',
   'BINARY'),
  ('sqlite3.dll',
   'C:\\Users\\Samuel\\anaconda3\\envs\\py38cv4\\Library\\bin\\sqlite3.dll',
   'BINARY'),
  ('mkl_core.1.dll',
   'C:\\Users\\Samuel\\anaconda3\\envs\\py38cv4\\Library\\bin\\mkl_core.1.dll',
   'BINARY'),
  ('mkl_vml_avx512.1.dll',
   'C:\\Users\\Samuel\\anaconda3\\envs\\py38cv4\\Library\\bin\\mkl_vml_avx512.1.dll',
   'BINARY'),
  ('api-ms-win-crt-process-l1-1-0.dll',
   'C:\\Users\\Samuel\\anaconda3\\envs\\py38cv4\\Library\\bin\\api-ms-win-crt-process-l1-1-0.dll',
   'BINARY'),
  ('mkl_vml_def.1.dll',
   'C:\\Users\\Samuel\\anaconda3\\envs\\py38cv4\\Library\\bin\\mkl_vml_def.1.dll',
   'BINARY'),
  ('vccorlib140.dll',
   'C:\\Users\\Samuel\\anaconda3\\envs\\py38cv4\\Library\\bin\\vccorlib140.dll',
   'BINARY'),
  ('mkl_mc.1.dll',
   'C:\\Users\\Samuel\\anaconda3\\envs\\py38cv4\\Library\\bin\\mkl_mc.1.dll',
   'BINARY'),
  ('mkl_pgi_thread.1.dll',
   'C:\\Users\\Samuel\\anaconda3\\envs\\py38cv4\\Library\\bin\\mkl_pgi_thread.1.dll',
   'BINARY'),
  ('mkl_intel_thread.1.dll',
   'C:\\Users\\Samuel\\anaconda3\\envs\\py38cv4\\Library\\bin\\mkl_intel_thread.1.dll',
   'BINARY'),
  ('mkl_scalapack_ilp64.1.dll',
   'C:\\Users\\Samuel\\anaconda3\\envs\\py38cv4\\Library\\bin\\mkl_scalapack_ilp64.1.dll',
   'BINARY'),
  ('api-ms-win-core-debug-l1-1-0.dll',
   'C:\\Users\\Samuel\\anaconda3\\envs\\py38cv4\\Library\\bin\\api-ms-win-core-debug-l1-1-0.dll',
   'BINARY'),
  ('omptarget.rtl.opencl.dll',
   'C:\\Users\\Samuel\\anaconda3\\envs\\py38cv4\\Library\\bin\\omptarget.rtl.opencl.dll',
   'BINARY'),
  ('api-ms-win-core-timezone-l1-1-0.dll',
   'C:\\Users\\Samuel\\anaconda3\\envs\\py38cv4\\Library\\bin\\api-ms-win-core-timezone-l1-1-0.dll',
   'BINARY'),
  ('python39.dll',
   'C:\\Users\\Samuel\\anaconda3\\envs\\py38cv4\\python39.dll',
   'BINARY'),
  ('PyQt5\\Qt5\\plugins\\styles\\qwindowsvistastyle.dll',
   'C:\\Users\\Samuel\\anaconda3\\envs\\py38cv4\\lib\\site-packages\\PyQt5\\Qt5\\plugins\\styles\\qwindowsvistastyle.dll',
   'BINARY'),
  ('PyQt5\\Qt5\\plugins\\platformthemes\\qxdgdesktopportal.dll',
   'C:\\Users\\Samuel\\anaconda3\\envs\\py38cv4\\lib\\site-packages\\PyQt5\\Qt5\\plugins\\platformthemes\\qxdgdesktopportal.dll',
   'BINARY'),
  ('PyQt5\\Qt5\\plugins\\imageformats\\qtga.dll',
   'C:\\Users\\Samuel\\anaconda3\\envs\\py38cv4\\lib\\site-packages\\PyQt5\\Qt5\\plugins\\imageformats\\qtga.dll',
   'BINARY'),
  ('PyQt5\\Qt5\\plugins\\platforms\\qwebgl.dll',
   'C:\\Users\\Samuel\\anaconda3\\envs\\py38cv4\\lib\\site-packages\\PyQt5\\Qt5\\plugins\\platforms\\qwebgl.dll',
   'BINARY'),
  ('PyQt5\\Qt5\\plugins\\platforms\\qminimal.dll',
   'C:\\Users\\Samuel\\anaconda3\\envs\\py38cv4\\lib\\site-packages\\PyQt5\\Qt5\\plugins\\platforms\\qminimal.dll',
   'BINARY'),
  ('PyQt5\\Qt5\\plugins\\imageformats\\qwbmp.dll',
   'C:\\Users\\Samuel\\anaconda3\\envs\\py38cv4\\lib\\site-packages\\PyQt5\\Qt5\\plugins\\imageformats\\qwbmp.dll',
   'BINARY'),
  ('PyQt5\\Qt5\\plugins\\imageformats\\qgif.dll',
   'C:\\Users\\Samuel\\anaconda3\\envs\\py38cv4\\lib\\site-packages\\PyQt5\\Qt5\\plugins\\imageformats\\qgif.dll',
   'BINARY'),
  ('PyQt5\\Qt5\\plugins\\imageformats\\qicns.dll',
   'C:\\Users\\Samuel\\anaconda3\\envs\\py38cv4\\lib\\site-packages\\PyQt5\\Qt5\\plugins\\imageformats\\qicns.dll',
   'BINARY'),
  ('PyQt5\\Qt5\\plugins\\imageformats\\qjpeg.dll',
   'C:\\Users\\Samuel\\anaconda3\\envs\\py38cv4\\lib\\site-packages\\PyQt5\\Qt5\\plugins\\imageformats\\qjpeg.dll',
   'BINARY'),
  ('PyQt5\\Qt5\\plugins\\imageformats\\qsvg.dll',
   'C:\\Users\\Samuel\\anaconda3\\envs\\py38cv4\\lib\\site-packages\\PyQt5\\Qt5\\plugins\\imageformats\\qsvg.dll',
   'BINARY'),
  ('PyQt5\\Qt5\\plugins\\generic\\qtuiotouchplugin.dll',
   'C:\\Users\\Samuel\\anaconda3\\envs\\py38cv4\\lib\\site-packages\\PyQt5\\Qt5\\plugins\\generic\\qtuiotouchplugin.dll',
   'BINARY'),
  ('PyQt5\\Qt5\\plugins\\platforms\\qoffscreen.dll',
   'C:\\Users\\Samuel\\anaconda3\\envs\\py38cv4\\lib\\site-packages\\PyQt5\\Qt5\\plugins\\platforms\\qoffscreen.dll',
   'BINARY'),
  ('PyQt5\\Qt5\\plugins\\imageformats\\qtiff.dll',
   'C:\\Users\\Samuel\\anaconda3\\envs\\py38cv4\\lib\\site-packages\\PyQt5\\Qt5\\plugins\\imageformats\\qtiff.dll',
   'BINARY'),
  ('PyQt5\\Qt5\\plugins\\imageformats\\qico.dll',
   'C:\\Users\\Samuel\\anaconda3\\envs\\py38cv4\\lib\\site-packages\\PyQt5\\Qt5\\plugins\\imageformats\\qico.dll',
   'BINARY'),
  ('PyQt5\\Qt5\\plugins\\platforms\\qwindows.dll',
   'C:\\Users\\Samuel\\anaconda3\\envs\\py38cv4\\lib\\site-packages\\PyQt5\\Qt5\\plugins\\platforms\\qwindows.dll',
   'BINARY'),
  ('PyQt5\\Qt5\\plugins\\iconengines\\qsvgicon.dll',
   'C:\\Users\\Samuel\\anaconda3\\envs\\py38cv4\\lib\\site-packages\\PyQt5\\Qt5\\plugins\\iconengines\\qsvgicon.dll',
   'BINARY'),
  ('PyQt5\\Qt5\\plugins\\imageformats\\qwebp.dll',
   'C:\\Users\\Samuel\\anaconda3\\envs\\py38cv4\\lib\\site-packages\\PyQt5\\Qt5\\plugins\\imageformats\\qwebp.dll',
   'BINARY'),
  ('PyQt5\\Qt5\\bin\\libEGL.dll',
   'C:\\Users\\Samuel\\anaconda3\\envs\\py38cv4\\Lib\\site-packages\\PyQt5\\Qt5\\bin\\libEGL.dll',
   'BINARY'),
  ('PyQt5\\Qt5\\bin\\opengl32sw.dll',
   'C:\\Users\\Samuel\\anaconda3\\envs\\py38cv4\\Lib\\site-packages\\PyQt5\\Qt5\\bin\\opengl32sw.dll',
   'BINARY'),
  ('PyQt5\\Qt5\\bin\\libGLESv2.dll',
   'C:\\Users\\Samuel\\anaconda3\\envs\\py38cv4\\Lib\\site-packages\\PyQt5\\Qt5\\bin\\libGLESv2.dll',
   'BINARY'),
  ('PyQt5\\Qt5\\bin\\d3dcompiler_47.dll',
   'C:\\Users\\Samuel\\anaconda3\\envs\\py38cv4\\Lib\\site-packages\\PyQt5\\Qt5\\bin\\d3dcompiler_47.dll',
   'BINARY'),
  ('libopenblas.FB5AE2TYXYH2IJRDKGDGQ3XBKLKTF43H.gfortran-win_amd64.dll',
   'C:\\Users\\Samuel\\anaconda3\\envs\\py38cv4\\lib\\site-packages\\numpy\\.libs\\libopenblas.FB5AE2TYXYH2IJRDKGDGQ3XBKLKTF43H.gfortran-win_amd64.dll',
   'BINARY'),
  ('cv2\\opencv_videoio_ffmpeg460_64.dll',
   'C:\\Users\\Samuel\\anaconda3\\envs\\py38cv4\\lib\\site-packages\\cv2\\opencv_videoio_ffmpeg460_64.dll',
   'BINARY'),
  ('select.pyd',
   'C:\\Users\\Samuel\\anaconda3\\envs\\py38cv4\\DLLs\\select.pyd',
   'EXTENSION'),
  ('_hashlib.pyd',
   'C:\\Users\\Samuel\\anaconda3\\envs\\py38cv4\\DLLs\\_hashlib.pyd',
   'EXTENSION'),
  ('_lzma.pyd',
   'C:\\Users\\Samuel\\anaconda3\\envs\\py38cv4\\DLLs\\_lzma.pyd',
   'EXTENSION'),
  ('_bz2.pyd',
   'C:\\Users\\Samuel\\anaconda3\\envs\\py38cv4\\DLLs\\_bz2.pyd',
   'EXTENSION'),
  ('pyexpat.pyd',
   'C:\\Users\\Samuel\\anaconda3\\envs\\py38cv4\\DLLs\\pyexpat.pyd',
   'EXTENSION'),
  ('_ssl.pyd',
   'C:\\Users\\Samuel\\anaconda3\\envs\\py38cv4\\DLLs\\_ssl.pyd',
   'EXTENSION'),
  ('unicodedata.pyd',
   'C:\\Users\\Samuel\\anaconda3\\envs\\py38cv4\\DLLs\\unicodedata.pyd',
   'EXTENSION'),
  ('_decimal.pyd',
   'C:\\Users\\Samuel\\anaconda3\\envs\\py38cv4\\DLLs\\_decimal.pyd',
   'EXTENSION'),
  ('_multiprocessing.pyd',
   'C:\\Users\\Samuel\\anaconda3\\envs\\py38cv4\\DLLs\\_multiprocessing.pyd',
   'EXTENSION'),
  ('_ctypes.pyd',
   'C:\\Users\\Samuel\\anaconda3\\envs\\py38cv4\\DLLs\\_ctypes.pyd',
   'EXTENSION'),
  ('_queue.pyd',
   'C:\\Users\\Samuel\\anaconda3\\envs\\py38cv4\\DLLs\\_queue.pyd',
   'EXTENSION'),
  ('PyQt5\\QtWidgets.pyd',
   'C:\\Users\\Samuel\\anaconda3\\envs\\py38cv4\\lib\\site-packages\\PyQt5\\QtWidgets.pyd',
   'EXTENSION'),
  ('PyQt5\\QtGui.pyd',
   'C:\\Users\\Samuel\\anaconda3\\envs\\py38cv4\\lib\\site-packages\\PyQt5\\QtGui.pyd',
   'EXTENSION'),
  ('PyQt5\\QtCore.pyd',
   'C:\\Users\\Samuel\\anaconda3\\envs\\py38cv4\\lib\\site-packages\\PyQt5\\QtCore.pyd',
   'EXTENSION'),
  ('PyQt5\\sip.cp39-win_amd64.pyd',
   'C:\\Users\\Samuel\\anaconda3\\envs\\py38cv4\\lib\\site-packages\\PyQt5\\sip.cp39-win_amd64.pyd',
   'EXTENSION'),
  ('mkl\\_py_mkl_service.cp39-win_amd64.pyd',
   'C:\\Users\\Samuel\\anaconda3\\envs\\py38cv4\\lib\\site-packages\\mkl\\_py_mkl_service.cp39-win_amd64.pyd',
   'EXTENSION'),
  ('mkl\\_mklinit.cp39-win_amd64.pyd',
   'C:\\Users\\Samuel\\anaconda3\\envs\\py38cv4\\lib\\site-packages\\mkl\\_mklinit.cp39-win_amd64.pyd',
   'EXTENSION'),
  ('numpy\\core\\_multiarray_tests.cp39-win_amd64.pyd',
   'C:\\Users\\Samuel\\anaconda3\\envs\\py38cv4\\lib\\site-packages\\numpy\\core\\_multiarray_tests.cp39-win_amd64.pyd',
   'EXTENSION'),
  ('psutil\\_psutil_windows.cp39-win_amd64.pyd',
   'C:\\Users\\Samuel\\anaconda3\\envs\\py38cv4\\lib\\site-packages\\psutil\\_psutil_windows.cp39-win_amd64.pyd',
   'EXTENSION'),
  ('numpy\\core\\_multiarray_umath.cp39-win_amd64.pyd',
   'C:\\Users\\Samuel\\anaconda3\\envs\\py38cv4\\lib\\site-packages\\numpy\\core\\_multiarray_umath.cp39-win_amd64.pyd',
   'EXTENSION'),
  ('win32\\win32pdh.pyd',
   'C:\\Users\\Samuel\\anaconda3\\envs\\py38cv4\\lib\\site-packages\\win32\\win32pdh.pyd',
   'EXTENSION'),
  ('numpy\\linalg\\lapack_lite.cp39-win_amd64.pyd',
   'C:\\Users\\Samuel\\anaconda3\\envs\\py38cv4\\lib\\site-packages\\numpy\\linalg\\lapack_lite.cp39-win_amd64.pyd',
   'EXTENSION'),
  ('_overlapped.pyd',
   'C:\\Users\\Samuel\\anaconda3\\envs\\py38cv4\\DLLs\\_overlapped.pyd',
   'EXTENSION'),
  ('_asyncio.pyd',
   'C:\\Users\\Samuel\\anaconda3\\envs\\py38cv4\\DLLs\\_asyncio.pyd',
   'EXTENSION'),
  ('numpy\\random\\mtrand.cp39-win_amd64.pyd',
   'C:\\Users\\Samuel\\anaconda3\\envs\\py38cv4\\lib\\site-packages\\numpy\\random\\mtrand.cp39-win_amd64.pyd',
   'EXTENSION'),
  ('numpy\\random\\_sfc64.cp39-win_amd64.pyd',
   'C:\\Users\\Samuel\\anaconda3\\envs\\py38cv4\\lib\\site-packages\\numpy\\random\\_sfc64.cp39-win_amd64.pyd',
   'EXTENSION'),
  ('numpy\\random\\_philox.cp39-win_amd64.pyd',
   'C:\\Users\\Samuel\\anaconda3\\envs\\py38cv4\\lib\\site-packages\\numpy\\random\\_philox.cp39-win_amd64.pyd',
   'EXTENSION'),
  ('numpy\\random\\_pcg64.cp39-win_amd64.pyd',
   'C:\\Users\\Samuel\\anaconda3\\envs\\py38cv4\\lib\\site-packages\\numpy\\random\\_pcg64.cp39-win_amd64.pyd',
   'EXTENSION'),
  ('numpy\\random\\_mt19937.cp39-win_amd64.pyd',
   'C:\\Users\\Samuel\\anaconda3\\envs\\py38cv4\\lib\\site-packages\\numpy\\random\\_mt19937.cp39-win_amd64.pyd',
   'EXTENSION'),
  ('numpy\\random\\bit_generator.cp39-win_amd64.pyd',
   'C:\\Users\\Samuel\\anaconda3\\envs\\py38cv4\\lib\\site-packages\\numpy\\random\\bit_generator.cp39-win_amd64.pyd',
   'EXTENSION'),
  ('numpy\\random\\_generator.cp39-win_amd64.pyd',
   'C:\\Users\\Samuel\\anaconda3\\envs\\py38cv4\\lib\\site-packages\\numpy\\random\\_generator.cp39-win_amd64.pyd',
   'EXTENSION'),
  ('numpy\\random\\_bounded_integers.cp39-win_amd64.pyd',
   'C:\\Users\\Samuel\\anaconda3\\envs\\py38cv4\\lib\\site-packages\\numpy\\random\\_bounded_integers.cp39-win_amd64.pyd',
   'EXTENSION'),
  ('numpy\\random\\_common.cp39-win_amd64.pyd',
   'C:\\Users\\Samuel\\anaconda3\\envs\\py38cv4\\lib\\site-packages\\numpy\\random\\_common.cp39-win_amd64.pyd',
   'EXTENSION'),
  ('numpy\\fft\\_pocketfft_internal.cp39-win_amd64.pyd',
   'C:\\Users\\Samuel\\anaconda3\\envs\\py38cv4\\lib\\site-packages\\numpy\\fft\\_pocketfft_internal.cp39-win_amd64.pyd',
   'EXTENSION'),
  ('numpy\\linalg\\_umath_linalg.cp39-win_amd64.pyd',
   'C:\\Users\\Samuel\\anaconda3\\envs\\py38cv4\\lib\\site-packages\\numpy\\linalg\\_umath_linalg.cp39-win_amd64.pyd',
   'EXTENSION'),
  ('cv2\\cv2.pyd',
   'C:\\Users\\Samuel\\anaconda3\\envs\\py38cv4\\lib\\site-packages\\cv2\\cv2.pyd',
   'EXTENSION'),
  ('_socket.pyd',
   'C:\\Users\\Samuel\\anaconda3\\envs\\py38cv4\\DLLs\\_socket.pyd',
   'EXTENSION'),
  ('libiomp5md.dll',
   'C:\\Users\\Samuel\\anaconda3\\Library\\bin\\libiomp5md.dll',
   'BINARY'),
  ('PyQt5\\Qt5\\bin\\Qt5Gui.dll',
   'C:\\Users\\Samuel\\anaconda3\\envs\\py38cv4\\lib\\site-packages\\PyQt5\\Qt5\\bin\\Qt5Gui.dll',
   'BINARY'),
  ('PyQt5\\Qt5\\bin\\Qt5Widgets.dll',
   'C:\\Users\\Samuel\\anaconda3\\envs\\py38cv4\\lib\\site-packages\\PyQt5\\Qt5\\bin\\Qt5Widgets.dll',
   'BINARY'),
  ('PyQt5\\Qt5\\bin\\Qt5Core.dll',
   'C:\\Users\\Samuel\\anaconda3\\envs\\py38cv4\\lib\\site-packages\\PyQt5\\Qt5\\bin\\Qt5Core.dll',
   'BINARY'),
  ('PyQt5\\Qt5\\bin\\VCRUNTIME140_1.dll',
   'C:\\Users\\Samuel\\anaconda3\\envs\\py38cv4\\lib\\site-packages\\PyQt5\\Qt5\\bin\\VCRUNTIME140_1.dll',
   'BINARY'),
  ('PyQt5\\Qt5\\bin\\VCRUNTIME140.dll',
   'C:\\Users\\Samuel\\anaconda3\\envs\\py38cv4\\lib\\site-packages\\PyQt5\\Qt5\\bin\\VCRUNTIME140.dll',
   'BINARY'),
  ('PyQt5\\Qt5\\bin\\Qt5DBus.dll',
   'C:\\Users\\Samuel\\anaconda3\\envs\\py38cv4\\lib\\site-packages\\PyQt5\\Qt5\\bin\\Qt5DBus.dll',
   'BINARY'),
  ('PyQt5\\Qt5\\bin\\MSVCP140.dll',
   'C:\\Users\\Samuel\\anaconda3\\envs\\py38cv4\\lib\\site-packages\\PyQt5\\Qt5\\bin\\MSVCP140.dll',
   'BINARY'),
  ('PyQt5\\Qt5\\bin\\Qt5Network.dll',
   'C:\\Users\\Samuel\\anaconda3\\envs\\py38cv4\\lib\\site-packages\\PyQt5\\Qt5\\bin\\Qt5Network.dll',
   'BINARY'),
  ('PyQt5\\Qt5\\bin\\Qt5WebSockets.dll',
   'C:\\Users\\Samuel\\anaconda3\\envs\\py38cv4\\lib\\site-packages\\PyQt5\\Qt5\\bin\\Qt5WebSockets.dll',
   'BINARY'),
  ('PyQt5\\Qt5\\bin\\Qt5Quick.dll',
   'C:\\Users\\Samuel\\anaconda3\\envs\\py38cv4\\lib\\site-packages\\PyQt5\\Qt5\\bin\\Qt5Quick.dll',
   'BINARY'),
  ('PyQt5\\Qt5\\bin\\Qt5Svg.dll',
   'C:\\Users\\Samuel\\anaconda3\\envs\\py38cv4\\lib\\site-packages\\PyQt5\\Qt5\\bin\\Qt5Svg.dll',
   'BINARY'),
  ('PyQt5\\Qt5\\bin\\libcrypto-1_1-x64.dll',
   'C:\\Users\\Samuel\\anaconda3\\envs\\py38cv4\\lib\\site-packages\\PyQt5\\Qt5\\bin\\libcrypto-1_1-x64.dll',
   'BINARY'),
  ('PyQt5\\Qt5\\bin\\libssl-1_1-x64.dll',
   'C:\\Users\\Samuel\\anaconda3\\envs\\py38cv4\\lib\\site-packages\\PyQt5\\Qt5\\bin\\libssl-1_1-x64.dll',
   'BINARY'),
  ('libffi-7.dll',
   'C:\\Users\\Samuel\\anaconda3\\envs\\py38cv4\\DLLs\\libffi-7.dll',
   'BINARY'),
  ('python3.dll',
   'C:\\Users\\Samuel\\anaconda3\\envs\\py38cv4\\python3.dll',
   'BINARY'),
  ('pywin32_system32\\pywintypes39.dll',
   'C:\\Users\\Samuel\\anaconda3\\envs\\py38cv4\\lib\\site-packages\\win32\\pywintypes39.dll',
   'BINARY'),
  ('PyQt5\\Qt5\\bin\\MSVCP140_1.dll',
   'C:\\Users\\Samuel\\anaconda3\\envs\\py38cv4\\lib\\site-packages\\PyQt5\\Qt5\\bin\\MSVCP140_1.dll',
   'BINARY'),
  ('PyQt5\\Qt5\\bin\\Qt5Qml.dll',
   'C:\\Users\\Samuel\\anaconda3\\envs\\py38cv4\\lib\\site-packages\\PyQt5\\Qt5\\bin\\Qt5Qml.dll',
   'BINARY'),
  ('PyQt5\\Qt5\\bin\\Qt5QmlModels.dll',
   'C:\\Users\\Samuel\\anaconda3\\envs\\py38cv4\\lib\\site-packages\\PyQt5\\Qt5\\bin\\Qt5QmlModels.dll',
   'BINARY'),
  ('base_library.zip',
   'C:\\Users\\Samuel\\Desktop\\uav_rail_tracking\\GUI\\build\\application\\base_library.zip',
   'DATA'),
  ('PyQt5\\Qt5\\translations\\qtbase_uk.qm',
   'C:\\Users\\Samuel\\anaconda3\\envs\\py38cv4\\lib\\site-packages\\PyQt5\\Qt5\\translations\\qtbase_uk.qm',
   'DATA'),
  ('PyQt5\\Qt5\\translations\\qt_es.qm',
   'C:\\Users\\Samuel\\anaconda3\\envs\\py38cv4\\lib\\site-packages\\PyQt5\\Qt5\\translations\\qt_es.qm',
   'DATA'),
  ('PyQt5\\Qt5\\translations\\qt_help_ar.qm',
   'C:\\Users\\Samuel\\anaconda3\\envs\\py38cv4\\lib\\site-packages\\PyQt5\\Qt5\\translations\\qt_help_ar.qm',
   'DATA'),
  ('PyQt5\\Qt5\\translations\\qt_help_de.qm',
   'C:\\Users\\Samuel\\anaconda3\\envs\\py38cv4\\lib\\site-packages\\PyQt5\\Qt5\\translations\\qt_help_de.qm',
   'DATA'),
  ('PyQt5\\Qt5\\translations\\qt_help_ja.qm',
   'C:\\Users\\Samuel\\anaconda3\\envs\\py38cv4\\lib\\site-packages\\PyQt5\\Qt5\\translations\\qt_help_ja.qm',
   'DATA'),
  ('PyQt5\\Qt5\\translations\\qt_help_sk.qm',
   'C:\\Users\\Samuel\\anaconda3\\envs\\py38cv4\\lib\\site-packages\\PyQt5\\Qt5\\translations\\qt_help_sk.qm',
   'DATA'),
  ('PyQt5\\Qt5\\translations\\qt_help_es.qm',
   'C:\\Users\\Samuel\\anaconda3\\envs\\py38cv4\\lib\\site-packages\\PyQt5\\Qt5\\translations\\qt_help_es.qm',
   'DATA'),
  ('PyQt5\\Qt5\\translations\\qtbase_zh_TW.qm',
   'C:\\Users\\Samuel\\anaconda3\\envs\\py38cv4\\lib\\site-packages\\PyQt5\\Qt5\\translations\\qtbase_zh_TW.qm',
   'DATA'),
  ('PyQt5\\Qt5\\translations\\qt_sk.qm',
   'C:\\Users\\Samuel\\anaconda3\\envs\\py38cv4\\lib\\site-packages\\PyQt5\\Qt5\\translations\\qt_sk.qm',
   'DATA'),
  ('PyQt5\\Qt5\\translations\\qt_tr.qm',
   'C:\\Users\\Samuel\\anaconda3\\envs\\py38cv4\\lib\\site-packages\\PyQt5\\Qt5\\translations\\qt_tr.qm',
   'DATA'),
  ('PyQt5\\Qt5\\translations\\qtbase_ru.qm',
   'C:\\Users\\Samuel\\anaconda3\\envs\\py38cv4\\lib\\site-packages\\PyQt5\\Qt5\\translations\\qtbase_ru.qm',
   'DATA'),
  ('PyQt5\\Qt5\\translations\\qt_ru.qm',
   'C:\\Users\\Samuel\\anaconda3\\envs\\py38cv4\\lib\\site-packages\\PyQt5\\Qt5\\translations\\qt_ru.qm',
   'DATA'),
  ('PyQt5\\Qt5\\translations\\qt_gl.qm',
   'C:\\Users\\Samuel\\anaconda3\\envs\\py38cv4\\lib\\site-packages\\PyQt5\\Qt5\\translations\\qt_gl.qm',
   'DATA'),
  ('PyQt5\\Qt5\\translations\\qtbase_ar.qm',
   'C:\\Users\\Samuel\\anaconda3\\envs\\py38cv4\\lib\\site-packages\\PyQt5\\Qt5\\translations\\qtbase_ar.qm',
   'DATA'),
  ('PyQt5\\Qt5\\translations\\qtbase_fi.qm',
   'C:\\Users\\Samuel\\anaconda3\\envs\\py38cv4\\lib\\site-packages\\PyQt5\\Qt5\\translations\\qtbase_fi.qm',
   'DATA'),
  ('PyQt5\\Qt5\\translations\\qt_help_fr.qm',
   'C:\\Users\\Samuel\\anaconda3\\envs\\py38cv4\\lib\\site-packages\\PyQt5\\Qt5\\translations\\qt_help_fr.qm',
   'DATA'),
  ('PyQt5\\Qt5\\translations\\qt_help_ca.qm',
   'C:\\Users\\Samuel\\anaconda3\\envs\\py38cv4\\lib\\site-packages\\PyQt5\\Qt5\\translations\\qt_help_ca.qm',
   'DATA'),
  ('PyQt5\\Qt5\\translations\\qtbase_ko.qm',
   'C:\\Users\\Samuel\\anaconda3\\envs\\py38cv4\\lib\\site-packages\\PyQt5\\Qt5\\translations\\qtbase_ko.qm',
   'DATA'),
  ('PyQt5\\Qt5\\translations\\qt_hu.qm',
   'C:\\Users\\Samuel\\anaconda3\\envs\\py38cv4\\lib\\site-packages\\PyQt5\\Qt5\\translations\\qt_hu.qm',
   'DATA'),
  ('PyQt5\\Qt5\\translations\\qt_lv.qm',
   'C:\\Users\\Samuel\\anaconda3\\envs\\py38cv4\\lib\\site-packages\\PyQt5\\Qt5\\translations\\qt_lv.qm',
   'DATA'),
  ('PyQt5\\Qt5\\translations\\qt_de.qm',
   'C:\\Users\\Samuel\\anaconda3\\envs\\py38cv4\\lib\\site-packages\\PyQt5\\Qt5\\translations\\qt_de.qm',
   'DATA'),
  ('PyQt5\\Qt5\\translations\\qt_help_uk.qm',
   'C:\\Users\\Samuel\\anaconda3\\envs\\py38cv4\\lib\\site-packages\\PyQt5\\Qt5\\translations\\qt_help_uk.qm',
   'DATA'),
  ('PyQt5\\Qt5\\translations\\qt_help_tr.qm',
   'C:\\Users\\Samuel\\anaconda3\\envs\\py38cv4\\lib\\site-packages\\PyQt5\\Qt5\\translations\\qt_help_tr.qm',
   'DATA'),
  ('PyQt5\\Qt5\\translations\\qtbase_he.qm',
   'C:\\Users\\Samuel\\anaconda3\\envs\\py38cv4\\lib\\site-packages\\PyQt5\\Qt5\\translations\\qtbase_he.qm',
   'DATA'),
  ('PyQt5\\Qt5\\translations\\qt_it.qm',
   'C:\\Users\\Samuel\\anaconda3\\envs\\py38cv4\\lib\\site-packages\\PyQt5\\Qt5\\translations\\qt_it.qm',
   'DATA'),
  ('PyQt5\\Qt5\\translations\\qt_ja.qm',
   'C:\\Users\\Samuel\\anaconda3\\envs\\py38cv4\\lib\\site-packages\\PyQt5\\Qt5\\translations\\qt_ja.qm',
   'DATA'),
  ('PyQt5\\Qt5\\translations\\qtbase_it.qm',
   'C:\\Users\\Samuel\\anaconda3\\envs\\py38cv4\\lib\\site-packages\\PyQt5\\Qt5\\translations\\qtbase_it.qm',
   'DATA'),
  ('PyQt5\\Qt5\\translations\\qtbase_tr.qm',
   'C:\\Users\\Samuel\\anaconda3\\envs\\py38cv4\\lib\\site-packages\\PyQt5\\Qt5\\translations\\qtbase_tr.qm',
   'DATA'),
  ('PyQt5\\Qt5\\translations\\qtbase_gd.qm',
   'C:\\Users\\Samuel\\anaconda3\\envs\\py38cv4\\lib\\site-packages\\PyQt5\\Qt5\\translations\\qtbase_gd.qm',
   'DATA'),
  ('PyQt5\\Qt5\\translations\\qt_ar.qm',
   'C:\\Users\\Samuel\\anaconda3\\envs\\py38cv4\\lib\\site-packages\\PyQt5\\Qt5\\translations\\qt_ar.qm',
   'DATA'),
  ('PyQt5\\Qt5\\translations\\qtbase_hu.qm',
   'C:\\Users\\Samuel\\anaconda3\\envs\\py38cv4\\lib\\site-packages\\PyQt5\\Qt5\\translations\\qtbase_hu.qm',
   'DATA'),
  ('PyQt5\\Qt5\\translations\\qt_help_sl.qm',
   'C:\\Users\\Samuel\\anaconda3\\envs\\py38cv4\\lib\\site-packages\\PyQt5\\Qt5\\translations\\qt_help_sl.qm',
   'DATA'),
  ('PyQt5\\Qt5\\translations\\qt_fa.qm',
   'C:\\Users\\Samuel\\anaconda3\\envs\\py38cv4\\lib\\site-packages\\PyQt5\\Qt5\\translations\\qt_fa.qm',
   'DATA'),
  ('PyQt5\\Qt5\\translations\\qtbase_cs.qm',
   'C:\\Users\\Samuel\\anaconda3\\envs\\py38cv4\\lib\\site-packages\\PyQt5\\Qt5\\translations\\qtbase_cs.qm',
   'DATA'),
  ('PyQt5\\Qt5\\translations\\qt_pt.qm',
   'C:\\Users\\Samuel\\anaconda3\\envs\\py38cv4\\lib\\site-packages\\PyQt5\\Qt5\\translations\\qt_pt.qm',
   'DATA'),
  ('PyQt5\\Qt5\\translations\\qt_fi.qm',
   'C:\\Users\\Samuel\\anaconda3\\envs\\py38cv4\\lib\\site-packages\\PyQt5\\Qt5\\translations\\qt_fi.qm',
   'DATA'),
  ('PyQt5\\Qt5\\translations\\qtbase_da.qm',
   'C:\\Users\\Samuel\\anaconda3\\envs\\py38cv4\\lib\\site-packages\\PyQt5\\Qt5\\translations\\qtbase_da.qm',
   'DATA'),
  ('PyQt5\\Qt5\\translations\\qt_pl.qm',
   'C:\\Users\\Samuel\\anaconda3\\envs\\py38cv4\\lib\\site-packages\\PyQt5\\Qt5\\translations\\qt_pl.qm',
   'DATA'),
  ('PyQt5\\Qt5\\translations\\qtbase_es.qm',
   'C:\\Users\\Samuel\\anaconda3\\envs\\py38cv4\\lib\\site-packages\\PyQt5\\Qt5\\translations\\qtbase_es.qm',
   'DATA'),
  ('PyQt5\\Qt5\\translations\\qt_help_en.qm',
   'C:\\Users\\Samuel\\anaconda3\\envs\\py38cv4\\lib\\site-packages\\PyQt5\\Qt5\\translations\\qt_help_en.qm',
   'DATA'),
  ('PyQt5\\Qt5\\translations\\qt_sv.qm',
   'C:\\Users\\Samuel\\anaconda3\\envs\\py38cv4\\lib\\site-packages\\PyQt5\\Qt5\\translations\\qt_sv.qm',
   'DATA'),
  ('PyQt5\\Qt5\\translations\\qt_help_ko.qm',
   'C:\\Users\\Samuel\\anaconda3\\envs\\py38cv4\\lib\\site-packages\\PyQt5\\Qt5\\translations\\qt_help_ko.qm',
   'DATA'),
  ('PyQt5\\Qt5\\translations\\qtbase_fr.qm',
   'C:\\Users\\Samuel\\anaconda3\\envs\\py38cv4\\lib\\site-packages\\PyQt5\\Qt5\\translations\\qtbase_fr.qm',
   'DATA'),
  ('PyQt5\\Qt5\\translations\\qt_fr.qm',
   'C:\\Users\\Samuel\\anaconda3\\envs\\py38cv4\\lib\\site-packages\\PyQt5\\Qt5\\translations\\qt_fr.qm',
   'DATA'),
  ('PyQt5\\Qt5\\translations\\qtbase_pl.qm',
   'C:\\Users\\Samuel\\anaconda3\\envs\\py38cv4\\lib\\site-packages\\PyQt5\\Qt5\\translations\\qtbase_pl.qm',
   'DATA'),
  ('PyQt5\\Qt5\\translations\\qt_zh_TW.qm',
   'C:\\Users\\Samuel\\anaconda3\\envs\\py38cv4\\lib\\site-packages\\PyQt5\\Qt5\\translations\\qt_zh_TW.qm',
   'DATA'),
  ('PyQt5\\Qt5\\translations\\qt_ko.qm',
   'C:\\Users\\Samuel\\anaconda3\\envs\\py38cv4\\lib\\site-packages\\PyQt5\\Qt5\\translations\\qt_ko.qm',
   'DATA'),
  ('PyQt5\\Qt5\\translations\\qtbase_de.qm',
   'C:\\Users\\Samuel\\anaconda3\\envs\\py38cv4\\lib\\site-packages\\PyQt5\\Qt5\\translations\\qtbase_de.qm',
   'DATA'),
  ('PyQt5\\Qt5\\translations\\qt_lt.qm',
   'C:\\Users\\Samuel\\anaconda3\\envs\\py38cv4\\lib\\site-packages\\PyQt5\\Qt5\\translations\\qt_lt.qm',
   'DATA'),
  ('PyQt5\\Qt5\\translations\\qt_zh_CN.qm',
   'C:\\Users\\Samuel\\anaconda3\\envs\\py38cv4\\lib\\site-packages\\PyQt5\\Qt5\\translations\\qt_zh_CN.qm',
   'DATA'),
  ('PyQt5\\Qt5\\translations\\qt_help_hu.qm',
   'C:\\Users\\Samuel\\anaconda3\\envs\\py38cv4\\lib\\site-packages\\PyQt5\\Qt5\\translations\\qt_help_hu.qm',
   'DATA'),
  ('PyQt5\\Qt5\\translations\\qt_help_zh_CN.qm',
   'C:\\Users\\Samuel\\anaconda3\\envs\\py38cv4\\lib\\site-packages\\PyQt5\\Qt5\\translations\\qt_help_zh_CN.qm',
   'DATA'),
  ('PyQt5\\Qt5\\translations\\qt_da.qm',
   'C:\\Users\\Samuel\\anaconda3\\envs\\py38cv4\\lib\\site-packages\\PyQt5\\Qt5\\translations\\qt_da.qm',
   'DATA'),
  ('PyQt5\\Qt5\\translations\\qtbase_en.qm',
   'C:\\Users\\Samuel\\anaconda3\\envs\\py38cv4\\lib\\site-packages\\PyQt5\\Qt5\\translations\\qtbase_en.qm',
   'DATA'),
  ('PyQt5\\Qt5\\translations\\qt_help_gl.qm',
   'C:\\Users\\Samuel\\anaconda3\\envs\\py38cv4\\lib\\site-packages\\PyQt5\\Qt5\\translations\\qt_help_gl.qm',
   'DATA'),
  ('PyQt5\\Qt5\\translations\\qt_gd.qm',
   'C:\\Users\\Samuel\\anaconda3\\envs\\py38cv4\\lib\\site-packages\\PyQt5\\Qt5\\translations\\qt_gd.qm',
   'DATA'),
  ('PyQt5\\Qt5\\translations\\qt_help_zh_TW.qm',
   'C:\\Users\\Samuel\\anaconda3\\envs\\py38cv4\\lib\\site-packages\\PyQt5\\Qt5\\translations\\qt_help_zh_TW.qm',
   'DATA'),
  ('PyQt5\\Qt5\\translations\\qt_en.qm',
   'C:\\Users\\Samuel\\anaconda3\\envs\\py38cv4\\lib\\site-packages\\PyQt5\\Qt5\\translations\\qt_en.qm',
   'DATA'),
  ('PyQt5\\Qt5\\translations\\qt_help_pl.qm',
   'C:\\Users\\Samuel\\anaconda3\\envs\\py38cv4\\lib\\site-packages\\PyQt5\\Qt5\\translations\\qt_help_pl.qm',
   'DATA'),
  ('PyQt5\\Qt5\\translations\\qt_uk.qm',
   'C:\\Users\\Samuel\\anaconda3\\envs\\py38cv4\\lib\\site-packages\\PyQt5\\Qt5\\translations\\qt_uk.qm',
   'DATA'),
  ('PyQt5\\Qt5\\translations\\qt_help_bg.qm',
   'C:\\Users\\Samuel\\anaconda3\\envs\\py38cv4\\lib\\site-packages\\PyQt5\\Qt5\\translations\\qt_help_bg.qm',
   'DATA'),
  ('PyQt5\\Qt5\\translations\\qtbase_bg.qm',
   'C:\\Users\\Samuel\\anaconda3\\envs\\py38cv4\\lib\\site-packages\\PyQt5\\Qt5\\translations\\qtbase_bg.qm',
   'DATA'),
  ('PyQt5\\Qt5\\translations\\qt_help_it.qm',
   'C:\\Users\\Samuel\\anaconda3\\envs\\py38cv4\\lib\\site-packages\\PyQt5\\Qt5\\translations\\qt_help_it.qm',
   'DATA'),
  ('PyQt5\\Qt5\\translations\\qt_cs.qm',
   'C:\\Users\\Samuel\\anaconda3\\envs\\py38cv4\\lib\\site-packages\\PyQt5\\Qt5\\translations\\qt_cs.qm',
   'DATA'),
  ('PyQt5\\Qt5\\translations\\qt_he.qm',
   'C:\\Users\\Samuel\\anaconda3\\envs\\py38cv4\\lib\\site-packages\\PyQt5\\Qt5\\translations\\qt_he.qm',
   'DATA'),
  ('PyQt5\\Qt5\\translations\\qt_help_da.qm',
   'C:\\Users\\Samuel\\anaconda3\\envs\\py38cv4\\lib\\site-packages\\PyQt5\\Qt5\\translations\\qt_help_da.qm',
   'DATA'),
  ('PyQt5\\Qt5\\translations\\qt_help_ru.qm',
   'C:\\Users\\Samuel\\anaconda3\\envs\\py38cv4\\lib\\site-packages\\PyQt5\\Qt5\\translations\\qt_help_ru.qm',
   'DATA'),
  ('PyQt5\\Qt5\\translations\\qtbase_ja.qm',
   'C:\\Users\\Samuel\\anaconda3\\envs\\py38cv4\\lib\\site-packages\\PyQt5\\Qt5\\translations\\qtbase_ja.qm',
   'DATA'),
  ('PyQt5\\Qt5\\translations\\qtbase_sk.qm',
   'C:\\Users\\Samuel\\anaconda3\\envs\\py38cv4\\lib\\site-packages\\PyQt5\\Qt5\\translations\\qtbase_sk.qm',
   'DATA'),
  ('PyQt5\\Qt5\\translations\\qtbase_lv.qm',
   'C:\\Users\\Samuel\\anaconda3\\envs\\py38cv4\\lib\\site-packages\\PyQt5\\Qt5\\translations\\qtbase_lv.qm',
   'DATA'),
  ('PyQt5\\Qt5\\translations\\qt_sl.qm',
   'C:\\Users\\Samuel\\anaconda3\\envs\\py38cv4\\lib\\site-packages\\PyQt5\\Qt5\\translations\\qt_sl.qm',
   'DATA'),
  ('PyQt5\\Qt5\\translations\\qtbase_ca.qm',
   'C:\\Users\\Samuel\\anaconda3\\envs\\py38cv4\\lib\\site-packages\\PyQt5\\Qt5\\translations\\qtbase_ca.qm',
   'DATA'),
  ('PyQt5\\Qt5\\translations\\qt_help_cs.qm',
   'C:\\Users\\Samuel\\anaconda3\\envs\\py38cv4\\lib\\site-packages\\PyQt5\\Qt5\\translations\\qt_help_cs.qm',
   'DATA'),
  ('PyQt5\\Qt5\\translations\\qt_bg.qm',
   'C:\\Users\\Samuel\\anaconda3\\envs\\py38cv4\\lib\\site-packages\\PyQt5\\Qt5\\translations\\qt_bg.qm',
   'DATA'),
  ('PyQt5\\Qt5\\translations\\qt_ca.qm',
   'C:\\Users\\Samuel\\anaconda3\\envs\\py38cv4\\lib\\site-packages\\PyQt5\\Qt5\\translations\\qt_ca.qm',
   'DATA'),
  ('cv2\\load_config_py3.py',
   'C:\\Users\\Samuel\\anaconda3\\envs\\py38cv4\\lib\\site-packages\\cv2\\load_config_py3.py',
   'DATA'),
  ('cv2\\config-3.py',
   'C:\\Users\\Samuel\\anaconda3\\envs\\py38cv4\\lib\\site-packages\\cv2\\config-3.py',
   'DATA'),
  ('cv2\\config.py',
   'C:\\Users\\Samuel\\anaconda3\\envs\\py38cv4\\lib\\site-packages\\cv2\\config.py',
   'DATA'),
  ('cv2\\__init__.py',
   'C:\\Users\\Samuel\\anaconda3\\envs\\py38cv4\\lib\\site-packages\\cv2\\__init__.py',
   'DATA'),
  ('cv2\\version.py',
   'C:\\Users\\Samuel\\anaconda3\\envs\\py38cv4\\lib\\site-packages\\cv2\\version.py',
   'DATA'),
  ('cv2\\utils\\__init__.py',
   'C:\\Users\\Samuel\\anaconda3\\envs\\py38cv4\\lib\\site-packages\\cv2\\utils\\__init__.py',
   'DATA'),
  ('cv2\\misc\\version.py',
   'C:\\Users\\Samuel\\anaconda3\\envs\\py38cv4\\lib\\site-packages\\cv2\\misc\\version.py',
   'DATA'),
  ('cv2\\misc\\__init__.py',
   'C:\\Users\\Samuel\\anaconda3\\envs\\py38cv4\\lib\\site-packages\\cv2\\misc\\__init__.py',
   'DATA'),
  ('cv2\\mat_wrapper\\__init__.py',
   'C:\\Users\\Samuel\\anaconda3\\envs\\py38cv4\\lib\\site-packages\\cv2\\mat_wrapper\\__init__.py',
   'DATA'),
  ('cv2\\gapi\\__init__.py',
   'C:\\Users\\Samuel\\anaconda3\\envs\\py38cv4\\lib\\site-packages\\cv2\\gapi\\__init__.py',
   'DATA'),
  ('cv2\\data\\__init__.py',
   'C:\\Users\\Samuel\\anaconda3\\envs\\py38cv4\\lib\\site-packages\\cv2\\data\\__init__.py',
   'DATA')],
 'python39.dll',
 False,
 False,
 False,
 [],
 None,
 None,
 None)
