('C:\\Users\\Samuel\\Desktop\\uav_rail_tracking\\GUI\\build\\application\\PYZ-00.pyz',
 [('GCS',
   'C:\\Users\\Samuel\\Desktop\\uav_rail_tracking\\GUI\\GCS.py',
   'PYMODULE'),
  ('PyQt5',
   'C:\\Users\\Samuel\\anaconda3\\envs\\py38cv4\\lib\\site-packages\\PyQt5\\__init__.py',
   'PYMODULE'),
  ('__future__',
   'C:\\Users\\Samuel\\anaconda3\\envs\\py38cv4\\lib\\__future__.py',
   'PYMODULE'),
  ('_aix_support',
   'C:\\Users\\Samuel\\anaconda3\\envs\\py38cv4\\lib\\_aix_support.py',
   'PYMODULE'),
  ('_bootsubprocess',
   'C:\\Users\\Samuel\\anaconda3\\envs\\py38cv4\\lib\\_bootsubprocess.py',
   'PYMODULE'),
  ('_compat_pickle',
   'C:\\Users\\Samuel\\anaconda3\\envs\\py38cv4\\lib\\_compat_pickle.py',
   'PYMODULE'),
  ('_compression',
   'C:\\Users\\Samuel\\anaconda3\\envs\\py38cv4\\lib\\_compression.py',
   'PYMODULE'),
  ('_py_abc',
   'C:\\Users\\Samuel\\anaconda3\\envs\\py38cv4\\lib\\_py_abc.py',
   'PYMODULE'),
  ('_pydecimal',
   'C:\\Users\\Samuel\\anaconda3\\envs\\py38cv4\\lib\\_pydecimal.py',
   'PYMODULE'),
  ('_strptime',
   'C:\\Users\\Samuel\\anaconda3\\envs\\py38cv4\\lib\\_strptime.py',
   'PYMODULE'),
  ('_threading_local',
   'C:\\Users\\Samuel\\anaconda3\\envs\\py38cv4\\lib\\_threading_local.py',
   'PYMODULE'),
  ('argparse',
   'C:\\Users\\Samuel\\anaconda3\\envs\\py38cv4\\lib\\argparse.py',
   'PYMODULE'),
  ('ast',
   'C:\\Users\\Samuel\\anaconda3\\envs\\py38cv4\\lib\\ast.py',
   'PYMODULE'),
  ('asyncio',
   'C:\\Users\\Samuel\\anaconda3\\envs\\py38cv4\\lib\\asyncio\\__init__.py',
   'PYMODULE'),
  ('asyncio.base_events',
   'C:\\Users\\Samuel\\anaconda3\\envs\\py38cv4\\lib\\asyncio\\base_events.py',
   'PYMODULE'),
  ('asyncio.base_futures',
   'C:\\Users\\Samuel\\anaconda3\\envs\\py38cv4\\lib\\asyncio\\base_futures.py',
   'PYMODULE'),
  ('asyncio.base_subprocess',
   'C:\\Users\\Samuel\\anaconda3\\envs\\py38cv4\\lib\\asyncio\\base_subprocess.py',
   'PYMODULE'),
  ('asyncio.base_tasks',
   'C:\\Users\\Samuel\\anaconda3\\envs\\py38cv4\\lib\\asyncio\\base_tasks.py',
   'PYMODULE'),
  ('asyncio.constants',
   'C:\\Users\\Samuel\\anaconda3\\envs\\py38cv4\\lib\\asyncio\\constants.py',
   'PYMODULE'),
  ('asyncio.coroutines',
   'C:\\Users\\Samuel\\anaconda3\\envs\\py38cv4\\lib\\asyncio\\coroutines.py',
   'PYMODULE'),
  ('asyncio.events',
   'C:\\Users\\Samuel\\anaconda3\\envs\\py38cv4\\lib\\asyncio\\events.py',
   'PYMODULE'),
  ('asyncio.exceptions',
   'C:\\Users\\Samuel\\anaconda3\\envs\\py38cv4\\lib\\asyncio\\exceptions.py',
   'PYMODULE'),
  ('asyncio.format_helpers',
   'C:\\Users\\Samuel\\anaconda3\\envs\\py38cv4\\lib\\asyncio\\format_helpers.py',
   'PYMODULE'),
  ('asyncio.futures',
   'C:\\Users\\Samuel\\anaconda3\\envs\\py38cv4\\lib\\asyncio\\futures.py',
   'PYMODULE'),
  ('asyncio.locks',
   'C:\\Users\\Samuel\\anaconda3\\envs\\py38cv4\\lib\\asyncio\\locks.py',
   'PYMODULE'),
  ('asyncio.log',
   'C:\\Users\\Samuel\\anaconda3\\envs\\py38cv4\\lib\\asyncio\\log.py',
   'PYMODULE'),
  ('asyncio.proactor_events',
   'C:\\Users\\Samuel\\anaconda3\\envs\\py38cv4\\lib\\asyncio\\proactor_events.py',
   'PYMODULE'),
  ('asyncio.protocols',
   'C:\\Users\\Samuel\\anaconda3\\envs\\py38cv4\\lib\\asyncio\\protocols.py',
   'PYMODULE'),
  ('asyncio.queues',
   'C:\\Users\\Samuel\\anaconda3\\envs\\py38cv4\\lib\\asyncio\\queues.py',
   'PYMODULE'),
  ('asyncio.runners',
   'C:\\Users\\Samuel\\anaconda3\\envs\\py38cv4\\lib\\asyncio\\runners.py',
   'PYMODULE'),
  ('asyncio.selector_events',
   'C:\\Users\\Samuel\\anaconda3\\envs\\py38cv4\\lib\\asyncio\\selector_events.py',
   'PYMODULE'),
  ('asyncio.sslproto',
   'C:\\Users\\Samuel\\anaconda3\\envs\\py38cv4\\lib\\asyncio\\sslproto.py',
   'PYMODULE'),
  ('asyncio.staggered',
   'C:\\Users\\Samuel\\anaconda3\\envs\\py38cv4\\lib\\asyncio\\staggered.py',
   'PYMODULE'),
  ('asyncio.streams',
   'C:\\Users\\Samuel\\anaconda3\\envs\\py38cv4\\lib\\asyncio\\streams.py',
   'PYMODULE'),
  ('asyncio.subprocess',
   'C:\\Users\\Samuel\\anaconda3\\envs\\py38cv4\\lib\\asyncio\\subprocess.py',
   'PYMODULE'),
  ('asyncio.tasks',
   'C:\\Users\\Samuel\\anaconda3\\envs\\py38cv4\\lib\\asyncio\\tasks.py',
   'PYMODULE'),
  ('asyncio.threads',
   'C:\\Users\\Samuel\\anaconda3\\envs\\py38cv4\\lib\\asyncio\\threads.py',
   'PYMODULE'),
  ('asyncio.transports',
   'C:\\Users\\Samuel\\anaconda3\\envs\\py38cv4\\lib\\asyncio\\transports.py',
   'PYMODULE'),
  ('asyncio.trsock',
   'C:\\Users\\Samuel\\anaconda3\\envs\\py38cv4\\lib\\asyncio\\trsock.py',
   'PYMODULE'),
  ('asyncio.unix_events',
   'C:\\Users\\Samuel\\anaconda3\\envs\\py38cv4\\lib\\asyncio\\unix_events.py',
   'PYMODULE'),
  ('asyncio.windows_events',
   'C:\\Users\\Samuel\\anaconda3\\envs\\py38cv4\\lib\\asyncio\\windows_events.py',
   'PYMODULE'),
  ('asyncio.windows_utils',
   'C:\\Users\\Samuel\\anaconda3\\envs\\py38cv4\\lib\\asyncio\\windows_utils.py',
   'PYMODULE'),
  ('base64',
   'C:\\Users\\Samuel\\anaconda3\\envs\\py38cv4\\lib\\base64.py',
   'PYMODULE'),
  ('bdb',
   'C:\\Users\\Samuel\\anaconda3\\envs\\py38cv4\\lib\\bdb.py',
   'PYMODULE'),
  ('bisect',
   'C:\\Users\\Samuel\\anaconda3\\envs\\py38cv4\\lib\\bisect.py',
   'PYMODULE'),
  ('bz2',
   'C:\\Users\\Samuel\\anaconda3\\envs\\py38cv4\\lib\\bz2.py',
   'PYMODULE'),
  ('calendar',
   'C:\\Users\\Samuel\\anaconda3\\envs\\py38cv4\\lib\\calendar.py',
   'PYMODULE'),
  ('cmd',
   'C:\\Users\\Samuel\\anaconda3\\envs\\py38cv4\\lib\\cmd.py',
   'PYMODULE'),
  ('code',
   'C:\\Users\\Samuel\\anaconda3\\envs\\py38cv4\\lib\\code.py',
   'PYMODULE'),
  ('codeop',
   'C:\\Users\\Samuel\\anaconda3\\envs\\py38cv4\\lib\\codeop.py',
   'PYMODULE'),
  ('concurrent',
   'C:\\Users\\Samuel\\anaconda3\\envs\\py38cv4\\lib\\concurrent\\__init__.py',
   'PYMODULE'),
  ('concurrent.futures',
   'C:\\Users\\Samuel\\anaconda3\\envs\\py38cv4\\lib\\concurrent\\futures\\__init__.py',
   'PYMODULE'),
  ('concurrent.futures._base',
   'C:\\Users\\Samuel\\anaconda3\\envs\\py38cv4\\lib\\concurrent\\futures\\_base.py',
   'PYMODULE'),
  ('concurrent.futures.process',
   'C:\\Users\\Samuel\\anaconda3\\envs\\py38cv4\\lib\\concurrent\\futures\\process.py',
   'PYMODULE'),
  ('concurrent.futures.thread',
   'C:\\Users\\Samuel\\anaconda3\\envs\\py38cv4\\lib\\concurrent\\futures\\thread.py',
   'PYMODULE'),
  ('configparser',
   'C:\\Users\\Samuel\\anaconda3\\envs\\py38cv4\\lib\\configparser.py',
   'PYMODULE'),
  ('contextlib',
   'C:\\Users\\Samuel\\anaconda3\\envs\\py38cv4\\lib\\contextlib.py',
   'PYMODULE'),
  ('contextvars',
   'C:\\Users\\Samuel\\anaconda3\\envs\\py38cv4\\lib\\contextvars.py',
   'PYMODULE'),
  ('copy',
   'C:\\Users\\Samuel\\anaconda3\\envs\\py38cv4\\lib\\copy.py',
   'PYMODULE'),
  ('csv',
   'C:\\Users\\Samuel\\anaconda3\\envs\\py38cv4\\lib\\csv.py',
   'PYMODULE'),
  ('ctypes',
   'C:\\Users\\Samuel\\anaconda3\\envs\\py38cv4\\lib\\ctypes\\__init__.py',
   'PYMODULE'),
  ('ctypes._endian',
   'C:\\Users\\Samuel\\anaconda3\\envs\\py38cv4\\lib\\ctypes\\_endian.py',
   'PYMODULE'),
  ('dataclasses',
   'C:\\Users\\Samuel\\anaconda3\\envs\\py38cv4\\lib\\dataclasses.py',
   'PYMODULE'),
  ('datetime',
   'C:\\Users\\Samuel\\anaconda3\\envs\\py38cv4\\lib\\datetime.py',
   'PYMODULE'),
  ('decimal',
   'C:\\Users\\Samuel\\anaconda3\\envs\\py38cv4\\lib\\decimal.py',
   'PYMODULE'),
  ('difflib',
   'C:\\Users\\Samuel\\anaconda3\\envs\\py38cv4\\lib\\difflib.py',
   'PYMODULE'),
  ('dis',
   'C:\\Users\\Samuel\\anaconda3\\envs\\py38cv4\\lib\\dis.py',
   'PYMODULE'),
  ('doctest',
   'C:\\Users\\Samuel\\anaconda3\\envs\\py38cv4\\lib\\doctest.py',
   'PYMODULE'),
  ('email',
   'C:\\Users\\Samuel\\anaconda3\\envs\\py38cv4\\lib\\email\\__init__.py',
   'PYMODULE'),
  ('email._encoded_words',
   'C:\\Users\\Samuel\\anaconda3\\envs\\py38cv4\\lib\\email\\_encoded_words.py',
   'PYMODULE'),
  ('email._header_value_parser',
   'C:\\Users\\Samuel\\anaconda3\\envs\\py38cv4\\lib\\email\\_header_value_parser.py',
   'PYMODULE'),
  ('email._parseaddr',
   'C:\\Users\\Samuel\\anaconda3\\envs\\py38cv4\\lib\\email\\_parseaddr.py',
   'PYMODULE'),
  ('email._policybase',
   'C:\\Users\\Samuel\\anaconda3\\envs\\py38cv4\\lib\\email\\_policybase.py',
   'PYMODULE'),
  ('email.base64mime',
   'C:\\Users\\Samuel\\anaconda3\\envs\\py38cv4\\lib\\email\\base64mime.py',
   'PYMODULE'),
  ('email.charset',
   'C:\\Users\\Samuel\\anaconda3\\envs\\py38cv4\\lib\\email\\charset.py',
   'PYMODULE'),
  ('email.contentmanager',
   'C:\\Users\\Samuel\\anaconda3\\envs\\py38cv4\\lib\\email\\contentmanager.py',
   'PYMODULE'),
  ('email.encoders',
   'C:\\Users\\Samuel\\anaconda3\\envs\\py38cv4\\lib\\email\\encoders.py',
   'PYMODULE'),
  ('email.errors',
   'C:\\Users\\Samuel\\anaconda3\\envs\\py38cv4\\lib\\email\\errors.py',
   'PYMODULE'),
  ('email.feedparser',
   'C:\\Users\\Samuel\\anaconda3\\envs\\py38cv4\\lib\\email\\feedparser.py',
   'PYMODULE'),
  ('email.generator',
   'C:\\Users\\Samuel\\anaconda3\\envs\\py38cv4\\lib\\email\\generator.py',
   'PYMODULE'),
  ('email.header',
   'C:\\Users\\Samuel\\anaconda3\\envs\\py38cv4\\lib\\email\\header.py',
   'PYMODULE'),
  ('email.headerregistry',
   'C:\\Users\\Samuel\\anaconda3\\envs\\py38cv4\\lib\\email\\headerregistry.py',
   'PYMODULE'),
  ('email.iterators',
   'C:\\Users\\Samuel\\anaconda3\\envs\\py38cv4\\lib\\email\\iterators.py',
   'PYMODULE'),
  ('email.message',
   'C:\\Users\\Samuel\\anaconda3\\envs\\py38cv4\\lib\\email\\message.py',
   'PYMODULE'),
  ('email.parser',
   'C:\\Users\\Samuel\\anaconda3\\envs\\py38cv4\\lib\\email\\parser.py',
   'PYMODULE'),
  ('email.policy',
   'C:\\Users\\Samuel\\anaconda3\\envs\\py38cv4\\lib\\email\\policy.py',
   'PYMODULE'),
  ('email.quoprimime',
   'C:\\Users\\Samuel\\anaconda3\\envs\\py38cv4\\lib\\email\\quoprimime.py',
   'PYMODULE'),
  ('email.utils',
   'C:\\Users\\Samuel\\anaconda3\\envs\\py38cv4\\lib\\email\\utils.py',
   'PYMODULE'),
  ('fnmatch',
   'C:\\Users\\Samuel\\anaconda3\\envs\\py38cv4\\lib\\fnmatch.py',
   'PYMODULE'),
  ('fractions',
   'C:\\Users\\Samuel\\anaconda3\\envs\\py38cv4\\lib\\fractions.py',
   'PYMODULE'),
  ('ftplib',
   'C:\\Users\\Samuel\\anaconda3\\envs\\py38cv4\\lib\\ftplib.py',
   'PYMODULE'),
  ('getopt',
   'C:\\Users\\Samuel\\anaconda3\\envs\\py38cv4\\lib\\getopt.py',
   'PYMODULE'),
  ('getpass',
   'C:\\Users\\Samuel\\anaconda3\\envs\\py38cv4\\lib\\getpass.py',
   'PYMODULE'),
  ('gettext',
   'C:\\Users\\Samuel\\anaconda3\\envs\\py38cv4\\lib\\gettext.py',
   'PYMODULE'),
  ('glob',
   'C:\\Users\\Samuel\\anaconda3\\envs\\py38cv4\\lib\\glob.py',
   'PYMODULE'),
  ('gzip',
   'C:\\Users\\Samuel\\anaconda3\\envs\\py38cv4\\lib\\gzip.py',
   'PYMODULE'),
  ('hashlib',
   'C:\\Users\\Samuel\\anaconda3\\envs\\py38cv4\\lib\\hashlib.py',
   'PYMODULE'),
  ('hmac',
   'C:\\Users\\Samuel\\anaconda3\\envs\\py38cv4\\lib\\hmac.py',
   'PYMODULE'),
  ('html',
   'C:\\Users\\Samuel\\anaconda3\\envs\\py38cv4\\lib\\html\\__init__.py',
   'PYMODULE'),
  ('html.entities',
   'C:\\Users\\Samuel\\anaconda3\\envs\\py38cv4\\lib\\html\\entities.py',
   'PYMODULE'),
  ('http',
   'C:\\Users\\Samuel\\anaconda3\\envs\\py38cv4\\lib\\http\\__init__.py',
   'PYMODULE'),
  ('http.client',
   'C:\\Users\\Samuel\\anaconda3\\envs\\py38cv4\\lib\\http\\client.py',
   'PYMODULE'),
  ('http.cookiejar',
   'C:\\Users\\Samuel\\anaconda3\\envs\\py38cv4\\lib\\http\\cookiejar.py',
   'PYMODULE'),
  ('http.server',
   'C:\\Users\\Samuel\\anaconda3\\envs\\py38cv4\\lib\\http\\server.py',
   'PYMODULE'),
  ('importlib',
   'C:\\Users\\Samuel\\anaconda3\\envs\\py38cv4\\lib\\importlib\\__init__.py',
   'PYMODULE'),
  ('importlib._bootstrap',
   'C:\\Users\\Samuel\\anaconda3\\envs\\py38cv4\\lib\\importlib\\_bootstrap.py',
   'PYMODULE'),
  ('importlib._bootstrap_external',
   'C:\\Users\\Samuel\\anaconda3\\envs\\py38cv4\\lib\\importlib\\_bootstrap_external.py',
   'PYMODULE'),
  ('importlib.abc',
   'C:\\Users\\Samuel\\anaconda3\\envs\\py38cv4\\lib\\importlib\\abc.py',
   'PYMODULE'),
  ('importlib.machinery',
   'C:\\Users\\Samuel\\anaconda3\\envs\\py38cv4\\lib\\importlib\\machinery.py',
   'PYMODULE'),
  ('importlib.metadata',
   'C:\\Users\\Samuel\\anaconda3\\envs\\py38cv4\\lib\\importlib\\metadata.py',
   'PYMODULE'),
  ('importlib.util',
   'C:\\Users\\Samuel\\anaconda3\\envs\\py38cv4\\lib\\importlib\\util.py',
   'PYMODULE'),
  ('inspect',
   'C:\\Users\\Samuel\\anaconda3\\envs\\py38cv4\\lib\\inspect.py',
   'PYMODULE'),
  ('json',
   'C:\\Users\\Samuel\\anaconda3\\envs\\py38cv4\\lib\\json\\__init__.py',
   'PYMODULE'),
  ('json.decoder',
   'C:\\Users\\Samuel\\anaconda3\\envs\\py38cv4\\lib\\json\\decoder.py',
   'PYMODULE'),
  ('json.encoder',
   'C:\\Users\\Samuel\\anaconda3\\envs\\py38cv4\\lib\\json\\encoder.py',
   'PYMODULE'),
  ('json.scanner',
   'C:\\Users\\Samuel\\anaconda3\\envs\\py38cv4\\lib\\json\\scanner.py',
   'PYMODULE'),
  ('logging',
   'C:\\Users\\Samuel\\anaconda3\\envs\\py38cv4\\lib\\logging\\__init__.py',
   'PYMODULE'),
  ('lzma',
   'C:\\Users\\Samuel\\anaconda3\\envs\\py38cv4\\lib\\lzma.py',
   'PYMODULE'),
  ('mimetypes',
   'C:\\Users\\Samuel\\anaconda3\\envs\\py38cv4\\lib\\mimetypes.py',
   'PYMODULE'),
  ('mkl',
   'C:\\Users\\Samuel\\anaconda3\\envs\\py38cv4\\lib\\site-packages\\mkl\\__init__.py',
   'PYMODULE'),
  ('multiprocessing',
   'C:\\Users\\Samuel\\anaconda3\\envs\\py38cv4\\lib\\multiprocessing\\__init__.py',
   'PYMODULE'),
  ('multiprocessing.connection',
   'C:\\Users\\Samuel\\anaconda3\\envs\\py38cv4\\lib\\multiprocessing\\connection.py',
   'PYMODULE'),
  ('multiprocessing.context',
   'C:\\Users\\Samuel\\anaconda3\\envs\\py38cv4\\lib\\multiprocessing\\context.py',
   'PYMODULE'),
  ('multiprocessing.dummy',
   'C:\\Users\\Samuel\\anaconda3\\envs\\py38cv4\\lib\\multiprocessing\\dummy\\__init__.py',
   'PYMODULE'),
  ('multiprocessing.dummy.connection',
   'C:\\Users\\Samuel\\anaconda3\\envs\\py38cv4\\lib\\multiprocessing\\dummy\\connection.py',
   'PYMODULE'),
  ('multiprocessing.forkserver',
   'C:\\Users\\Samuel\\anaconda3\\envs\\py38cv4\\lib\\multiprocessing\\forkserver.py',
   'PYMODULE'),
  ('multiprocessing.heap',
   'C:\\Users\\Samuel\\anaconda3\\envs\\py38cv4\\lib\\multiprocessing\\heap.py',
   'PYMODULE'),
  ('multiprocessing.managers',
   'C:\\Users\\Samuel\\anaconda3\\envs\\py38cv4\\lib\\multiprocessing\\managers.py',
   'PYMODULE'),
  ('multiprocessing.pool',
   'C:\\Users\\Samuel\\anaconda3\\envs\\py38cv4\\lib\\multiprocessing\\pool.py',
   'PYMODULE'),
  ('multiprocessing.popen_fork',
   'C:\\Users\\Samuel\\anaconda3\\envs\\py38cv4\\lib\\multiprocessing\\popen_fork.py',
   'PYMODULE'),
  ('multiprocessing.popen_forkserver',
   'C:\\Users\\Samuel\\anaconda3\\envs\\py38cv4\\lib\\multiprocessing\\popen_forkserver.py',
   'PYMODULE'),
  ('multiprocessing.popen_spawn_posix',
   'C:\\Users\\Samuel\\anaconda3\\envs\\py38cv4\\lib\\multiprocessing\\popen_spawn_posix.py',
   'PYMODULE'),
  ('multiprocessing.popen_spawn_win32',
   'C:\\Users\\Samuel\\anaconda3\\envs\\py38cv4\\lib\\multiprocessing\\popen_spawn_win32.py',
   'PYMODULE'),
  ('multiprocessing.process',
   'C:\\Users\\Samuel\\anaconda3\\envs\\py38cv4\\lib\\multiprocessing\\process.py',
   'PYMODULE'),
  ('multiprocessing.queues',
   'C:\\Users\\Samuel\\anaconda3\\envs\\py38cv4\\lib\\multiprocessing\\queues.py',
   'PYMODULE'),
  ('multiprocessing.reduction',
   'C:\\Users\\Samuel\\anaconda3\\envs\\py38cv4\\lib\\multiprocessing\\reduction.py',
   'PYMODULE'),
  ('multiprocessing.resource_sharer',
   'C:\\Users\\Samuel\\anaconda3\\envs\\py38cv4\\lib\\multiprocessing\\resource_sharer.py',
   'PYMODULE'),
  ('multiprocessing.resource_tracker',
   'C:\\Users\\Samuel\\anaconda3\\envs\\py38cv4\\lib\\multiprocessing\\resource_tracker.py',
   'PYMODULE'),
  ('multiprocessing.shared_memory',
   'C:\\Users\\Samuel\\anaconda3\\envs\\py38cv4\\lib\\multiprocessing\\shared_memory.py',
   'PYMODULE'),
  ('multiprocessing.sharedctypes',
   'C:\\Users\\Samuel\\anaconda3\\envs\\py38cv4\\lib\\multiprocessing\\sharedctypes.py',
   'PYMODULE'),
  ('multiprocessing.spawn',
   'C:\\Users\\Samuel\\anaconda3\\envs\\py38cv4\\lib\\multiprocessing\\spawn.py',
   'PYMODULE'),
  ('multiprocessing.synchronize',
   'C:\\Users\\Samuel\\anaconda3\\envs\\py38cv4\\lib\\multiprocessing\\synchronize.py',
   'PYMODULE'),
  ('multiprocessing.util',
   'C:\\Users\\Samuel\\anaconda3\\envs\\py38cv4\\lib\\multiprocessing\\util.py',
   'PYMODULE'),
  ('netrc',
   'C:\\Users\\Samuel\\anaconda3\\envs\\py38cv4\\lib\\netrc.py',
   'PYMODULE'),
  ('nturl2path',
   'C:\\Users\\Samuel\\anaconda3\\envs\\py38cv4\\lib\\nturl2path.py',
   'PYMODULE'),
  ('numbers',
   'C:\\Users\\Samuel\\anaconda3\\envs\\py38cv4\\lib\\numbers.py',
   'PYMODULE'),
  ('numpy',
   'C:\\Users\\Samuel\\anaconda3\\envs\\py38cv4\\lib\\site-packages\\numpy\\__init__.py',
   'PYMODULE'),
  ('numpy.__config__',
   'C:\\Users\\Samuel\\anaconda3\\envs\\py38cv4\\lib\\site-packages\\numpy\\__config__.py',
   'PYMODULE'),
  ('numpy._distributor_init',
   'C:\\Users\\Samuel\\anaconda3\\envs\\py38cv4\\lib\\site-packages\\numpy\\_distributor_init.py',
   'PYMODULE'),
  ('numpy._globals',
   'C:\\Users\\Samuel\\anaconda3\\envs\\py38cv4\\lib\\site-packages\\numpy\\_globals.py',
   'PYMODULE'),
  ('numpy._pytesttester',
   'C:\\Users\\Samuel\\anaconda3\\envs\\py38cv4\\lib\\site-packages\\numpy\\_pytesttester.py',
   'PYMODULE'),
  ('numpy._typing',
   'C:\\Users\\Samuel\\anaconda3\\envs\\py38cv4\\lib\\site-packages\\numpy\\_typing\\__init__.py',
   'PYMODULE'),
  ('numpy._typing._add_docstring',
   'C:\\Users\\Samuel\\anaconda3\\envs\\py38cv4\\lib\\site-packages\\numpy\\_typing\\_add_docstring.py',
   'PYMODULE'),
  ('numpy._typing._array_like',
   'C:\\Users\\Samuel\\anaconda3\\envs\\py38cv4\\lib\\site-packages\\numpy\\_typing\\_array_like.py',
   'PYMODULE'),
  ('numpy._typing._char_codes',
   'C:\\Users\\Samuel\\anaconda3\\envs\\py38cv4\\lib\\site-packages\\numpy\\_typing\\_char_codes.py',
   'PYMODULE'),
  ('numpy._typing._dtype_like',
   'C:\\Users\\Samuel\\anaconda3\\envs\\py38cv4\\lib\\site-packages\\numpy\\_typing\\_dtype_like.py',
   'PYMODULE'),
  ('numpy._typing._generic_alias',
   'C:\\Users\\Samuel\\anaconda3\\envs\\py38cv4\\lib\\site-packages\\numpy\\_typing\\_generic_alias.py',
   'PYMODULE'),
  ('numpy._typing._nbit',
   'C:\\Users\\Samuel\\anaconda3\\envs\\py38cv4\\lib\\site-packages\\numpy\\_typing\\_nbit.py',
   'PYMODULE'),
  ('numpy._typing._nested_sequence',
   'C:\\Users\\Samuel\\anaconda3\\envs\\py38cv4\\lib\\site-packages\\numpy\\_typing\\_nested_sequence.py',
   'PYMODULE'),
  ('numpy._typing._scalars',
   'C:\\Users\\Samuel\\anaconda3\\envs\\py38cv4\\lib\\site-packages\\numpy\\_typing\\_scalars.py',
   'PYMODULE'),
  ('numpy._typing._shape',
   'C:\\Users\\Samuel\\anaconda3\\envs\\py38cv4\\lib\\site-packages\\numpy\\_typing\\_shape.py',
   'PYMODULE'),
  ('numpy._version',
   'C:\\Users\\Samuel\\anaconda3\\envs\\py38cv4\\lib\\site-packages\\numpy\\_version.py',
   'PYMODULE'),
  ('numpy.array_api',
   'C:\\Users\\Samuel\\anaconda3\\envs\\py38cv4\\lib\\site-packages\\numpy\\array_api\\__init__.py',
   'PYMODULE'),
  ('numpy.array_api._array_object',
   'C:\\Users\\Samuel\\anaconda3\\envs\\py38cv4\\lib\\site-packages\\numpy\\array_api\\_array_object.py',
   'PYMODULE'),
  ('numpy.array_api._constants',
   'C:\\Users\\Samuel\\anaconda3\\envs\\py38cv4\\lib\\site-packages\\numpy\\array_api\\_constants.py',
   'PYMODULE'),
  ('numpy.array_api._creation_functions',
   'C:\\Users\\Samuel\\anaconda3\\envs\\py38cv4\\lib\\site-packages\\numpy\\array_api\\_creation_functions.py',
   'PYMODULE'),
  ('numpy.array_api._data_type_functions',
   'C:\\Users\\Samuel\\anaconda3\\envs\\py38cv4\\lib\\site-packages\\numpy\\array_api\\_data_type_functions.py',
   'PYMODULE'),
  ('numpy.array_api._dtypes',
   'C:\\Users\\Samuel\\anaconda3\\envs\\py38cv4\\lib\\site-packages\\numpy\\array_api\\_dtypes.py',
   'PYMODULE'),
  ('numpy.array_api._elementwise_functions',
   'C:\\Users\\Samuel\\anaconda3\\envs\\py38cv4\\lib\\site-packages\\numpy\\array_api\\_elementwise_functions.py',
   'PYMODULE'),
  ('numpy.array_api._manipulation_functions',
   'C:\\Users\\Samuel\\anaconda3\\envs\\py38cv4\\lib\\site-packages\\numpy\\array_api\\_manipulation_functions.py',
   'PYMODULE'),
  ('numpy.array_api._searching_functions',
   'C:\\Users\\Samuel\\anaconda3\\envs\\py38cv4\\lib\\site-packages\\numpy\\array_api\\_searching_functions.py',
   'PYMODULE'),
  ('numpy.array_api._set_functions',
   'C:\\Users\\Samuel\\anaconda3\\envs\\py38cv4\\lib\\site-packages\\numpy\\array_api\\_set_functions.py',
   'PYMODULE'),
  ('numpy.array_api._sorting_functions',
   'C:\\Users\\Samuel\\anaconda3\\envs\\py38cv4\\lib\\site-packages\\numpy\\array_api\\_sorting_functions.py',
   'PYMODULE'),
  ('numpy.array_api._statistical_functions',
   'C:\\Users\\Samuel\\anaconda3\\envs\\py38cv4\\lib\\site-packages\\numpy\\array_api\\_statistical_functions.py',
   'PYMODULE'),
  ('numpy.array_api._typing',
   'C:\\Users\\Samuel\\anaconda3\\envs\\py38cv4\\lib\\site-packages\\numpy\\array_api\\_typing.py',
   'PYMODULE'),
  ('numpy.array_api._utility_functions',
   'C:\\Users\\Samuel\\anaconda3\\envs\\py38cv4\\lib\\site-packages\\numpy\\array_api\\_utility_functions.py',
   'PYMODULE'),
  ('numpy.array_api.linalg',
   'C:\\Users\\Samuel\\anaconda3\\envs\\py38cv4\\lib\\site-packages\\numpy\\array_api\\linalg.py',
   'PYMODULE'),
  ('numpy.compat',
   'C:\\Users\\Samuel\\anaconda3\\envs\\py38cv4\\lib\\site-packages\\numpy\\compat\\__init__.py',
   'PYMODULE'),
  ('numpy.compat._inspect',
   'C:\\Users\\Samuel\\anaconda3\\envs\\py38cv4\\lib\\site-packages\\numpy\\compat\\_inspect.py',
   'PYMODULE'),
  ('numpy.compat._pep440',
   'C:\\Users\\Samuel\\anaconda3\\envs\\py38cv4\\lib\\site-packages\\numpy\\compat\\_pep440.py',
   'PYMODULE'),
  ('numpy.compat.py3k',
   'C:\\Users\\Samuel\\anaconda3\\envs\\py38cv4\\lib\\site-packages\\numpy\\compat\\py3k.py',
   'PYMODULE'),
  ('numpy.core',
   'C:\\Users\\Samuel\\anaconda3\\envs\\py38cv4\\lib\\site-packages\\numpy\\core\\__init__.py',
   'PYMODULE'),
  ('numpy.core._add_newdocs',
   'C:\\Users\\Samuel\\anaconda3\\envs\\py38cv4\\lib\\site-packages\\numpy\\core\\_add_newdocs.py',
   'PYMODULE'),
  ('numpy.core._add_newdocs_scalars',
   'C:\\Users\\Samuel\\anaconda3\\envs\\py38cv4\\lib\\site-packages\\numpy\\core\\_add_newdocs_scalars.py',
   'PYMODULE'),
  ('numpy.core._asarray',
   'C:\\Users\\Samuel\\anaconda3\\envs\\py38cv4\\lib\\site-packages\\numpy\\core\\_asarray.py',
   'PYMODULE'),
  ('numpy.core._dtype',
   'C:\\Users\\Samuel\\anaconda3\\envs\\py38cv4\\lib\\site-packages\\numpy\\core\\_dtype.py',
   'PYMODULE'),
  ('numpy.core._dtype_ctypes',
   'C:\\Users\\Samuel\\anaconda3\\envs\\py38cv4\\lib\\site-packages\\numpy\\core\\_dtype_ctypes.py',
   'PYMODULE'),
  ('numpy.core._exceptions',
   'C:\\Users\\Samuel\\anaconda3\\envs\\py38cv4\\lib\\site-packages\\numpy\\core\\_exceptions.py',
   'PYMODULE'),
  ('numpy.core._internal',
   'C:\\Users\\Samuel\\anaconda3\\envs\\py38cv4\\lib\\site-packages\\numpy\\core\\_internal.py',
   'PYMODULE'),
  ('numpy.core._machar',
   'C:\\Users\\Samuel\\anaconda3\\envs\\py38cv4\\lib\\site-packages\\numpy\\core\\_machar.py',
   'PYMODULE'),
  ('numpy.core._methods',
   'C:\\Users\\Samuel\\anaconda3\\envs\\py38cv4\\lib\\site-packages\\numpy\\core\\_methods.py',
   'PYMODULE'),
  ('numpy.core._string_helpers',
   'C:\\Users\\Samuel\\anaconda3\\envs\\py38cv4\\lib\\site-packages\\numpy\\core\\_string_helpers.py',
   'PYMODULE'),
  ('numpy.core._type_aliases',
   'C:\\Users\\Samuel\\anaconda3\\envs\\py38cv4\\lib\\site-packages\\numpy\\core\\_type_aliases.py',
   'PYMODULE'),
  ('numpy.core._ufunc_config',
   'C:\\Users\\Samuel\\anaconda3\\envs\\py38cv4\\lib\\site-packages\\numpy\\core\\_ufunc_config.py',
   'PYMODULE'),
  ('numpy.core.arrayprint',
   'C:\\Users\\Samuel\\anaconda3\\envs\\py38cv4\\lib\\site-packages\\numpy\\core\\arrayprint.py',
   'PYMODULE'),
  ('numpy.core.defchararray',
   'C:\\Users\\Samuel\\anaconda3\\envs\\py38cv4\\lib\\site-packages\\numpy\\core\\defchararray.py',
   'PYMODULE'),
  ('numpy.core.einsumfunc',
   'C:\\Users\\Samuel\\anaconda3\\envs\\py38cv4\\lib\\site-packages\\numpy\\core\\einsumfunc.py',
   'PYMODULE'),
  ('numpy.core.fromnumeric',
   'C:\\Users\\Samuel\\anaconda3\\envs\\py38cv4\\lib\\site-packages\\numpy\\core\\fromnumeric.py',
   'PYMODULE'),
  ('numpy.core.function_base',
   'C:\\Users\\Samuel\\anaconda3\\envs\\py38cv4\\lib\\site-packages\\numpy\\core\\function_base.py',
   'PYMODULE'),
  ('numpy.core.getlimits',
   'C:\\Users\\Samuel\\anaconda3\\envs\\py38cv4\\lib\\site-packages\\numpy\\core\\getlimits.py',
   'PYMODULE'),
  ('numpy.core.memmap',
   'C:\\Users\\Samuel\\anaconda3\\envs\\py38cv4\\lib\\site-packages\\numpy\\core\\memmap.py',
   'PYMODULE'),
  ('numpy.core.multiarray',
   'C:\\Users\\Samuel\\anaconda3\\envs\\py38cv4\\lib\\site-packages\\numpy\\core\\multiarray.py',
   'PYMODULE'),
  ('numpy.core.numeric',
   'C:\\Users\\Samuel\\anaconda3\\envs\\py38cv4\\lib\\site-packages\\numpy\\core\\numeric.py',
   'PYMODULE'),
  ('numpy.core.numerictypes',
   'C:\\Users\\Samuel\\anaconda3\\envs\\py38cv4\\lib\\site-packages\\numpy\\core\\numerictypes.py',
   'PYMODULE'),
  ('numpy.core.overrides',
   'C:\\Users\\Samuel\\anaconda3\\envs\\py38cv4\\lib\\site-packages\\numpy\\core\\overrides.py',
   'PYMODULE'),
  ('numpy.core.records',
   'C:\\Users\\Samuel\\anaconda3\\envs\\py38cv4\\lib\\site-packages\\numpy\\core\\records.py',
   'PYMODULE'),
  ('numpy.core.shape_base',
   'C:\\Users\\Samuel\\anaconda3\\envs\\py38cv4\\lib\\site-packages\\numpy\\core\\shape_base.py',
   'PYMODULE'),
  ('numpy.core.umath',
   'C:\\Users\\Samuel\\anaconda3\\envs\\py38cv4\\lib\\site-packages\\numpy\\core\\umath.py',
   'PYMODULE'),
  ('numpy.ctypeslib',
   'C:\\Users\\Samuel\\anaconda3\\envs\\py38cv4\\lib\\site-packages\\numpy\\ctypeslib.py',
   'PYMODULE'),
  ('numpy.distutils',
   'C:\\Users\\Samuel\\anaconda3\\envs\\py38cv4\\lib\\site-packages\\numpy\\distutils\\__init__.py',
   'PYMODULE'),
  ('numpy.distutils.cpuinfo',
   'C:\\Users\\Samuel\\anaconda3\\envs\\py38cv4\\lib\\site-packages\\numpy\\distutils\\cpuinfo.py',
   'PYMODULE'),
  ('numpy.fft',
   'C:\\Users\\Samuel\\anaconda3\\envs\\py38cv4\\lib\\site-packages\\numpy\\fft\\__init__.py',
   'PYMODULE'),
  ('numpy.fft._pocketfft',
   'C:\\Users\\Samuel\\anaconda3\\envs\\py38cv4\\lib\\site-packages\\numpy\\fft\\_pocketfft.py',
   'PYMODULE'),
  ('numpy.fft.helper',
   'C:\\Users\\Samuel\\anaconda3\\envs\\py38cv4\\lib\\site-packages\\numpy\\fft\\helper.py',
   'PYMODULE'),
  ('numpy.lib',
   'C:\\Users\\Samuel\\anaconda3\\envs\\py38cv4\\lib\\site-packages\\numpy\\lib\\__init__.py',
   'PYMODULE'),
  ('numpy.lib._datasource',
   'C:\\Users\\Samuel\\anaconda3\\envs\\py38cv4\\lib\\site-packages\\numpy\\lib\\_datasource.py',
   'PYMODULE'),
  ('numpy.lib._iotools',
   'C:\\Users\\Samuel\\anaconda3\\envs\\py38cv4\\lib\\site-packages\\numpy\\lib\\_iotools.py',
   'PYMODULE'),
  ('numpy.lib._version',
   'C:\\Users\\Samuel\\anaconda3\\envs\\py38cv4\\lib\\site-packages\\numpy\\lib\\_version.py',
   'PYMODULE'),
  ('numpy.lib.arraypad',
   'C:\\Users\\Samuel\\anaconda3\\envs\\py38cv4\\lib\\site-packages\\numpy\\lib\\arraypad.py',
   'PYMODULE'),
  ('numpy.lib.arraysetops',
   'C:\\Users\\Samuel\\anaconda3\\envs\\py38cv4\\lib\\site-packages\\numpy\\lib\\arraysetops.py',
   'PYMODULE'),
  ('numpy.lib.arrayterator',
   'C:\\Users\\Samuel\\anaconda3\\envs\\py38cv4\\lib\\site-packages\\numpy\\lib\\arrayterator.py',
   'PYMODULE'),
  ('numpy.lib.format',
   'C:\\Users\\Samuel\\anaconda3\\envs\\py38cv4\\lib\\site-packages\\numpy\\lib\\format.py',
   'PYMODULE'),
  ('numpy.lib.function_base',
   'C:\\Users\\Samuel\\anaconda3\\envs\\py38cv4\\lib\\site-packages\\numpy\\lib\\function_base.py',
   'PYMODULE'),
  ('numpy.lib.histograms',
   'C:\\Users\\Samuel\\anaconda3\\envs\\py38cv4\\lib\\site-packages\\numpy\\lib\\histograms.py',
   'PYMODULE'),
  ('numpy.lib.index_tricks',
   'C:\\Users\\Samuel\\anaconda3\\envs\\py38cv4\\lib\\site-packages\\numpy\\lib\\index_tricks.py',
   'PYMODULE'),
  ('numpy.lib.mixins',
   'C:\\Users\\Samuel\\anaconda3\\envs\\py38cv4\\lib\\site-packages\\numpy\\lib\\mixins.py',
   'PYMODULE'),
  ('numpy.lib.nanfunctions',
   'C:\\Users\\Samuel\\anaconda3\\envs\\py38cv4\\lib\\site-packages\\numpy\\lib\\nanfunctions.py',
   'PYMODULE'),
  ('numpy.lib.npyio',
   'C:\\Users\\Samuel\\anaconda3\\envs\\py38cv4\\lib\\site-packages\\numpy\\lib\\npyio.py',
   'PYMODULE'),
  ('numpy.lib.polynomial',
   'C:\\Users\\Samuel\\anaconda3\\envs\\py38cv4\\lib\\site-packages\\numpy\\lib\\polynomial.py',
   'PYMODULE'),
  ('numpy.lib.scimath',
   'C:\\Users\\Samuel\\anaconda3\\envs\\py38cv4\\lib\\site-packages\\numpy\\lib\\scimath.py',
   'PYMODULE'),
  ('numpy.lib.shape_base',
   'C:\\Users\\Samuel\\anaconda3\\envs\\py38cv4\\lib\\site-packages\\numpy\\lib\\shape_base.py',
   'PYMODULE'),
  ('numpy.lib.stride_tricks',
   'C:\\Users\\Samuel\\anaconda3\\envs\\py38cv4\\lib\\site-packages\\numpy\\lib\\stride_tricks.py',
   'PYMODULE'),
  ('numpy.lib.twodim_base',
   'C:\\Users\\Samuel\\anaconda3\\envs\\py38cv4\\lib\\site-packages\\numpy\\lib\\twodim_base.py',
   'PYMODULE'),
  ('numpy.lib.type_check',
   'C:\\Users\\Samuel\\anaconda3\\envs\\py38cv4\\lib\\site-packages\\numpy\\lib\\type_check.py',
   'PYMODULE'),
  ('numpy.lib.ufunclike',
   'C:\\Users\\Samuel\\anaconda3\\envs\\py38cv4\\lib\\site-packages\\numpy\\lib\\ufunclike.py',
   'PYMODULE'),
  ('numpy.lib.utils',
   'C:\\Users\\Samuel\\anaconda3\\envs\\py38cv4\\lib\\site-packages\\numpy\\lib\\utils.py',
   'PYMODULE'),
  ('numpy.linalg',
   'C:\\Users\\Samuel\\anaconda3\\envs\\py38cv4\\lib\\site-packages\\numpy\\linalg\\__init__.py',
   'PYMODULE'),
  ('numpy.linalg.linalg',
   'C:\\Users\\Samuel\\anaconda3\\envs\\py38cv4\\lib\\site-packages\\numpy\\linalg\\linalg.py',
   'PYMODULE'),
  ('numpy.ma',
   'C:\\Users\\Samuel\\anaconda3\\envs\\py38cv4\\lib\\site-packages\\numpy\\ma\\__init__.py',
   'PYMODULE'),
  ('numpy.ma.core',
   'C:\\Users\\Samuel\\anaconda3\\envs\\py38cv4\\lib\\site-packages\\numpy\\ma\\core.py',
   'PYMODULE'),
  ('numpy.ma.extras',
   'C:\\Users\\Samuel\\anaconda3\\envs\\py38cv4\\lib\\site-packages\\numpy\\ma\\extras.py',
   'PYMODULE'),
  ('numpy.ma.mrecords',
   'C:\\Users\\Samuel\\anaconda3\\envs\\py38cv4\\lib\\site-packages\\numpy\\ma\\mrecords.py',
   'PYMODULE'),
  ('numpy.matrixlib',
   'C:\\Users\\Samuel\\anaconda3\\envs\\py38cv4\\lib\\site-packages\\numpy\\matrixlib\\__init__.py',
   'PYMODULE'),
  ('numpy.matrixlib.defmatrix',
   'C:\\Users\\Samuel\\anaconda3\\envs\\py38cv4\\lib\\site-packages\\numpy\\matrixlib\\defmatrix.py',
   'PYMODULE'),
  ('numpy.polynomial',
   'C:\\Users\\Samuel\\anaconda3\\envs\\py38cv4\\lib\\site-packages\\numpy\\polynomial\\__init__.py',
   'PYMODULE'),
  ('numpy.polynomial._polybase',
   'C:\\Users\\Samuel\\anaconda3\\envs\\py38cv4\\lib\\site-packages\\numpy\\polynomial\\_polybase.py',
   'PYMODULE'),
  ('numpy.polynomial.chebyshev',
   'C:\\Users\\Samuel\\anaconda3\\envs\\py38cv4\\lib\\site-packages\\numpy\\polynomial\\chebyshev.py',
   'PYMODULE'),
  ('numpy.polynomial.hermite',
   'C:\\Users\\Samuel\\anaconda3\\envs\\py38cv4\\lib\\site-packages\\numpy\\polynomial\\hermite.py',
   'PYMODULE'),
  ('numpy.polynomial.hermite_e',
   'C:\\Users\\Samuel\\anaconda3\\envs\\py38cv4\\lib\\site-packages\\numpy\\polynomial\\hermite_e.py',
   'PYMODULE'),
  ('numpy.polynomial.laguerre',
   'C:\\Users\\Samuel\\anaconda3\\envs\\py38cv4\\lib\\site-packages\\numpy\\polynomial\\laguerre.py',
   'PYMODULE'),
  ('numpy.polynomial.legendre',
   'C:\\Users\\Samuel\\anaconda3\\envs\\py38cv4\\lib\\site-packages\\numpy\\polynomial\\legendre.py',
   'PYMODULE'),
  ('numpy.polynomial.polynomial',
   'C:\\Users\\Samuel\\anaconda3\\envs\\py38cv4\\lib\\site-packages\\numpy\\polynomial\\polynomial.py',
   'PYMODULE'),
  ('numpy.polynomial.polyutils',
   'C:\\Users\\Samuel\\anaconda3\\envs\\py38cv4\\lib\\site-packages\\numpy\\polynomial\\polyutils.py',
   'PYMODULE'),
  ('numpy.random',
   'C:\\Users\\Samuel\\anaconda3\\envs\\py38cv4\\lib\\site-packages\\numpy\\random\\__init__.py',
   'PYMODULE'),
  ('numpy.random._pickle',
   'C:\\Users\\Samuel\\anaconda3\\envs\\py38cv4\\lib\\site-packages\\numpy\\random\\_pickle.py',
   'PYMODULE'),
  ('numpy.testing',
   'C:\\Users\\Samuel\\anaconda3\\envs\\py38cv4\\lib\\site-packages\\numpy\\testing\\__init__.py',
   'PYMODULE'),
  ('numpy.testing._private',
   'C:\\Users\\Samuel\\anaconda3\\envs\\py38cv4\\lib\\site-packages\\numpy\\testing\\_private\\__init__.py',
   'PYMODULE'),
  ('numpy.testing._private.decorators',
   'C:\\Users\\Samuel\\anaconda3\\envs\\py38cv4\\lib\\site-packages\\numpy\\testing\\_private\\decorators.py',
   'PYMODULE'),
  ('numpy.testing._private.extbuild',
   'C:\\Users\\Samuel\\anaconda3\\envs\\py38cv4\\lib\\site-packages\\numpy\\testing\\_private\\extbuild.py',
   'PYMODULE'),
  ('numpy.testing._private.noseclasses',
   'C:\\Users\\Samuel\\anaconda3\\envs\\py38cv4\\lib\\site-packages\\numpy\\testing\\_private\\noseclasses.py',
   'PYMODULE'),
  ('numpy.testing._private.nosetester',
   'C:\\Users\\Samuel\\anaconda3\\envs\\py38cv4\\lib\\site-packages\\numpy\\testing\\_private\\nosetester.py',
   'PYMODULE'),
  ('numpy.testing._private.parameterized',
   'C:\\Users\\Samuel\\anaconda3\\envs\\py38cv4\\lib\\site-packages\\numpy\\testing\\_private\\parameterized.py',
   'PYMODULE'),
  ('numpy.testing._private.utils',
   'C:\\Users\\Samuel\\anaconda3\\envs\\py38cv4\\lib\\site-packages\\numpy\\testing\\_private\\utils.py',
   'PYMODULE'),
  ('numpy.typing',
   'C:\\Users\\Samuel\\anaconda3\\envs\\py38cv4\\lib\\site-packages\\numpy\\typing\\__init__.py',
   'PYMODULE'),
  ('numpy.version',
   'C:\\Users\\Samuel\\anaconda3\\envs\\py38cv4\\lib\\site-packages\\numpy\\version.py',
   'PYMODULE'),
  ('opcode',
   'C:\\Users\\Samuel\\anaconda3\\envs\\py38cv4\\lib\\opcode.py',
   'PYMODULE'),
  ('optparse',
   'C:\\Users\\Samuel\\anaconda3\\envs\\py38cv4\\lib\\optparse.py',
   'PYMODULE'),
  ('pathlib',
   'C:\\Users\\Samuel\\anaconda3\\envs\\py38cv4\\lib\\pathlib.py',
   'PYMODULE'),
  ('pdb',
   'C:\\Users\\Samuel\\anaconda3\\envs\\py38cv4\\lib\\pdb.py',
   'PYMODULE'),
  ('pickle',
   'C:\\Users\\Samuel\\anaconda3\\envs\\py38cv4\\lib\\pickle.py',
   'PYMODULE'),
  ('pkgutil',
   'C:\\Users\\Samuel\\anaconda3\\envs\\py38cv4\\lib\\pkgutil.py',
   'PYMODULE'),
  ('platform',
   'C:\\Users\\Samuel\\anaconda3\\envs\\py38cv4\\lib\\platform.py',
   'PYMODULE'),
  ('pprint',
   'C:\\Users\\Samuel\\anaconda3\\envs\\py38cv4\\lib\\pprint.py',
   'PYMODULE'),
  ('psutil',
   'C:\\Users\\Samuel\\anaconda3\\envs\\py38cv4\\lib\\site-packages\\psutil\\__init__.py',
   'PYMODULE'),
  ('psutil._common',
   'C:\\Users\\Samuel\\anaconda3\\envs\\py38cv4\\lib\\site-packages\\psutil\\_common.py',
   'PYMODULE'),
  ('psutil._compat',
   'C:\\Users\\Samuel\\anaconda3\\envs\\py38cv4\\lib\\site-packages\\psutil\\_compat.py',
   'PYMODULE'),
  ('psutil._pswindows',
   'C:\\Users\\Samuel\\anaconda3\\envs\\py38cv4\\lib\\site-packages\\psutil\\_pswindows.py',
   'PYMODULE'),
  ('py_compile',
   'C:\\Users\\Samuel\\anaconda3\\envs\\py38cv4\\lib\\py_compile.py',
   'PYMODULE'),
  ('pydoc',
   'C:\\Users\\Samuel\\anaconda3\\envs\\py38cv4\\lib\\pydoc.py',
   'PYMODULE'),
  ('pydoc_data',
   'C:\\Users\\Samuel\\anaconda3\\envs\\py38cv4\\lib\\pydoc_data\\__init__.py',
   'PYMODULE'),
  ('pydoc_data.topics',
   'C:\\Users\\Samuel\\anaconda3\\envs\\py38cv4\\lib\\pydoc_data\\topics.py',
   'PYMODULE'),
  ('queue',
   'C:\\Users\\Samuel\\anaconda3\\envs\\py38cv4\\lib\\queue.py',
   'PYMODULE'),
  ('quopri',
   'C:\\Users\\Samuel\\anaconda3\\envs\\py38cv4\\lib\\quopri.py',
   'PYMODULE'),
  ('random',
   'C:\\Users\\Samuel\\anaconda3\\envs\\py38cv4\\lib\\random.py',
   'PYMODULE'),
  ('runpy',
   'C:\\Users\\Samuel\\anaconda3\\envs\\py38cv4\\lib\\runpy.py',
   'PYMODULE'),
  ('secrets',
   'C:\\Users\\Samuel\\anaconda3\\envs\\py38cv4\\lib\\secrets.py',
   'PYMODULE'),
  ('selectors',
   'C:\\Users\\Samuel\\anaconda3\\envs\\py38cv4\\lib\\selectors.py',
   'PYMODULE'),
  ('shlex',
   'C:\\Users\\Samuel\\anaconda3\\envs\\py38cv4\\lib\\shlex.py',
   'PYMODULE'),
  ('shutil',
   'C:\\Users\\Samuel\\anaconda3\\envs\\py38cv4\\lib\\shutil.py',
   'PYMODULE'),
  ('signal',
   'C:\\Users\\Samuel\\anaconda3\\envs\\py38cv4\\lib\\signal.py',
   'PYMODULE'),
  ('six',
   'C:\\Users\\Samuel\\anaconda3\\envs\\py38cv4\\lib\\site-packages\\six.py',
   'PYMODULE'),
  ('socket',
   'C:\\Users\\Samuel\\anaconda3\\envs\\py38cv4\\lib\\socket.py',
   'PYMODULE'),
  ('socketserver',
   'C:\\Users\\Samuel\\anaconda3\\envs\\py38cv4\\lib\\socketserver.py',
   'PYMODULE'),
  ('ssl',
   'C:\\Users\\Samuel\\anaconda3\\envs\\py38cv4\\lib\\ssl.py',
   'PYMODULE'),
  ('statistics',
   'C:\\Users\\Samuel\\anaconda3\\envs\\py38cv4\\lib\\statistics.py',
   'PYMODULE'),
  ('string',
   'C:\\Users\\Samuel\\anaconda3\\envs\\py38cv4\\lib\\string.py',
   'PYMODULE'),
  ('stringprep',
   'C:\\Users\\Samuel\\anaconda3\\envs\\py38cv4\\lib\\stringprep.py',
   'PYMODULE'),
  ('subprocess',
   'C:\\Users\\Samuel\\anaconda3\\envs\\py38cv4\\lib\\subprocess.py',
   'PYMODULE'),
  ('sysconfig',
   'C:\\Users\\Samuel\\anaconda3\\envs\\py38cv4\\lib\\sysconfig.py',
   'PYMODULE'),
  ('tarfile',
   'C:\\Users\\Samuel\\anaconda3\\envs\\py38cv4\\lib\\tarfile.py',
   'PYMODULE'),
  ('tempfile',
   'C:\\Users\\Samuel\\anaconda3\\envs\\py38cv4\\lib\\tempfile.py',
   'PYMODULE'),
  ('textwrap',
   'C:\\Users\\Samuel\\anaconda3\\envs\\py38cv4\\lib\\textwrap.py',
   'PYMODULE'),
  ('threading',
   'C:\\Users\\Samuel\\anaconda3\\envs\\py38cv4\\lib\\threading.py',
   'PYMODULE'),
  ('token',
   'C:\\Users\\Samuel\\anaconda3\\envs\\py38cv4\\lib\\token.py',
   'PYMODULE'),
  ('tokenize',
   'C:\\Users\\Samuel\\anaconda3\\envs\\py38cv4\\lib\\tokenize.py',
   'PYMODULE'),
  ('tracemalloc',
   'C:\\Users\\Samuel\\anaconda3\\envs\\py38cv4\\lib\\tracemalloc.py',
   'PYMODULE'),
  ('tty',
   'C:\\Users\\Samuel\\anaconda3\\envs\\py38cv4\\lib\\tty.py',
   'PYMODULE'),
  ('typing',
   'C:\\Users\\Samuel\\anaconda3\\envs\\py38cv4\\lib\\typing.py',
   'PYMODULE'),
  ('unittest',
   'C:\\Users\\Samuel\\anaconda3\\envs\\py38cv4\\lib\\unittest\\__init__.py',
   'PYMODULE'),
  ('unittest._log',
   'C:\\Users\\Samuel\\anaconda3\\envs\\py38cv4\\lib\\unittest\\_log.py',
   'PYMODULE'),
  ('unittest.async_case',
   'C:\\Users\\Samuel\\anaconda3\\envs\\py38cv4\\lib\\unittest\\async_case.py',
   'PYMODULE'),
  ('unittest.case',
   'C:\\Users\\Samuel\\anaconda3\\envs\\py38cv4\\lib\\unittest\\case.py',
   'PYMODULE'),
  ('unittest.loader',
   'C:\\Users\\Samuel\\anaconda3\\envs\\py38cv4\\lib\\unittest\\loader.py',
   'PYMODULE'),
  ('unittest.main',
   'C:\\Users\\Samuel\\anaconda3\\envs\\py38cv4\\lib\\unittest\\main.py',
   'PYMODULE'),
  ('unittest.result',
   'C:\\Users\\Samuel\\anaconda3\\envs\\py38cv4\\lib\\unittest\\result.py',
   'PYMODULE'),
  ('unittest.runner',
   'C:\\Users\\Samuel\\anaconda3\\envs\\py38cv4\\lib\\unittest\\runner.py',
   'PYMODULE'),
  ('unittest.signals',
   'C:\\Users\\Samuel\\anaconda3\\envs\\py38cv4\\lib\\unittest\\signals.py',
   'PYMODULE'),
  ('unittest.suite',
   'C:\\Users\\Samuel\\anaconda3\\envs\\py38cv4\\lib\\unittest\\suite.py',
   'PYMODULE'),
  ('unittest.util',
   'C:\\Users\\Samuel\\anaconda3\\envs\\py38cv4\\lib\\unittest\\util.py',
   'PYMODULE'),
  ('urllib',
   'C:\\Users\\Samuel\\anaconda3\\envs\\py38cv4\\lib\\urllib\\__init__.py',
   'PYMODULE'),
  ('urllib.error',
   'C:\\Users\\Samuel\\anaconda3\\envs\\py38cv4\\lib\\urllib\\error.py',
   'PYMODULE'),
  ('urllib.parse',
   'C:\\Users\\Samuel\\anaconda3\\envs\\py38cv4\\lib\\urllib\\parse.py',
   'PYMODULE'),
  ('urllib.request',
   'C:\\Users\\Samuel\\anaconda3\\envs\\py38cv4\\lib\\urllib\\request.py',
   'PYMODULE'),
  ('urllib.response',
   'C:\\Users\\Samuel\\anaconda3\\envs\\py38cv4\\lib\\urllib\\response.py',
   'PYMODULE'),
  ('uu', 'C:\\Users\\Samuel\\anaconda3\\envs\\py38cv4\\lib\\uu.py', 'PYMODULE'),
  ('webbrowser',
   'C:\\Users\\Samuel\\anaconda3\\envs\\py38cv4\\lib\\webbrowser.py',
   'PYMODULE'),
  ('xml',
   'C:\\Users\\Samuel\\anaconda3\\envs\\py38cv4\\lib\\xml\\__init__.py',
   'PYMODULE'),
  ('xml.parsers',
   'C:\\Users\\Samuel\\anaconda3\\envs\\py38cv4\\lib\\xml\\parsers\\__init__.py',
   'PYMODULE'),
  ('xml.parsers.expat',
   'C:\\Users\\Samuel\\anaconda3\\envs\\py38cv4\\lib\\xml\\parsers\\expat.py',
   'PYMODULE'),
  ('xml.sax',
   'C:\\Users\\Samuel\\anaconda3\\envs\\py38cv4\\lib\\xml\\sax\\__init__.py',
   'PYMODULE'),
  ('xml.sax._exceptions',
   'C:\\Users\\Samuel\\anaconda3\\envs\\py38cv4\\lib\\xml\\sax\\_exceptions.py',
   'PYMODULE'),
  ('xml.sax.expatreader',
   'C:\\Users\\Samuel\\anaconda3\\envs\\py38cv4\\lib\\xml\\sax\\expatreader.py',
   'PYMODULE'),
  ('xml.sax.handler',
   'C:\\Users\\Samuel\\anaconda3\\envs\\py38cv4\\lib\\xml\\sax\\handler.py',
   'PYMODULE'),
  ('xml.sax.saxutils',
   'C:\\Users\\Samuel\\anaconda3\\envs\\py38cv4\\lib\\xml\\sax\\saxutils.py',
   'PYMODULE'),
  ('xml.sax.xmlreader',
   'C:\\Users\\Samuel\\anaconda3\\envs\\py38cv4\\lib\\xml\\sax\\xmlreader.py',
   'PYMODULE'),
  ('xmlrpc',
   'C:\\Users\\Samuel\\anaconda3\\envs\\py38cv4\\lib\\xmlrpc\\__init__.py',
   'PYMODULE'),
  ('xmlrpc.client',
   'C:\\Users\\Samuel\\anaconda3\\envs\\py38cv4\\lib\\xmlrpc\\client.py',
   'PYMODULE'),
  ('zipfile',
   'C:\\Users\\Samuel\\anaconda3\\envs\\py38cv4\\lib\\zipfile.py',
   'PYMODULE'),
  ('zipimport',
   'C:\\Users\\Samuel\\anaconda3\\envs\\py38cv4\\lib\\zipimport.py',
   'PYMODULE')])
